Number entered was : 1797257010077307756893279559036349657914901854486115191762281412264109598596004486436893059902175778764382922319553686904520929247698085811187

Primes:
0, 1, 1, 0, 1, 0, 1, 0, 0, 0, 1, 0, 1, 0, 0, 0, 1, 0, 1, 0, 0, 0, 1, 0, 0, 0, 0, 0, 1, 0, 1, 0, 0, 0, 0, 0, 1, 0, 0, 0, 1, 0, 1, 0, 0, 0, 1, 0, 0, 0, 0, 0, 1, 0, 0, 0, 0, 0, 1, 0, 1, 0, 0, 0, 0, 0, 1, 0, 0, 0, 1, 0, 1, 0, 0, 0, 0, 0, 1, 0, 0, 0, 1, 0, 0, 0, 0, 0, 1, 0, 0, 0, 0, 0, 0, 0, 1, 0, 0, 0, 1, 0, 1, 0, 0, 0, 1, 0, 1, 0, 0, 0, 1, 0, 0, 0, 0, 0, 0, 0, 0, 0, 0, 0, 0, 0, 1, 0, 0, 0, 1, 0, 0, 0, 0, 0, 1, 0, 1, 0, 0, 0, 0, 0, 0, 0, 0, 0, 1, 0, 1, 0, 0, 0, 0, 0, 1, 0, 0, 0, 0, 0, 1, 0, 0, 0, 1, 0, 0, 0, 0, 0, 1, 0, 0, 0, 0, 0, 1, 0, 1, 0, 0, 0, 0, 0, 0, 0, 0, 0, 1, 0, 1, 0, 0, 0, 1, 0, 1, 0, 0, 0, 0, 0, 0, 0, 0, 0, 0, 0, 1, 0, 0, 0, 0, 0, 0, 0, 0, 0, 0, 0, 1, 0, 0, 0, 1, 0, 1, 0, 0, 0, 1, 0, 0, 0, 0, 0, 1, 0, 1, 0, 0, 0, 0, 0, 0, 0, 0, 0, 1, 0, 0, 0, 0, 0, 1, 0, 0, 0, 0, 0, 1, 0, 0, 0, 0, 0, 1, 0, 1, 0, 0, 0, 0, 0, 1, 0, 0, 0, 1, 0, 1, 0, 0, 0, 0, 0, 0, 0, 0, 0, 1, 0, 0, 0, 0, 0, 0, 0, 0, 0, 0, 0, 0, 0, 1, 0, 0, 0, 1, 0, 1, 0, 0, 0, 1, 0, 0, 0, 0, 0, 0, 0, 0, 0, 0, 0, 0, 0, 1, 0, 0, 0, 0, 0, 1, 0, 0, 0, 0, 0, 0, 0, 0, 0, 1, 0, 1, 0, 0, 0, 1, 0, 0, 0, 0, 0, 1, 0, 0, 0, 0, 0, 0, 0, 1, 0, 0, 0, 0, 0, 1, 0, 0, 0, 0, 0, 1, 0, 0, 0, 1, 0, 0, 0, 0, 0, 1, 0, 0, 0, 0, 0, 0, 0, 1, 0, 0, 0, 1, 0, 0, 0, 0, 0, 0, 0, 1, 0, 0, 0, 0, 0, 0, 0, 0, 0, 1, 0, 1, 0, 0, 0, 0, 0, 0, 0, 0, 0, 1, 0, 1, 0, 0, 0, 0, 0, 1, 0, 0, 0, 1, 0, 0, 0, 0, 0, 1, 0, 0, 0, 0, 0, 0, 0, 1, 0, 0, 0, 1, 0, 1, 0, 0, 0, 1, 0, 0, 0, 0, 0, 0, 0, 0, 0, 0, 0, 1, 0, 0, 0, 0, 0, 0, 0, 1, 0, 0, 0, 1, 0, 0, 0, 0, 0, 0, 0, 1, 0, 0, 0, 1, 0, 0, 0, 0, 0, 1, 0, 0, 0, 0, 0, 0, 0, 0, 0, 0, 0, 1, 0, 1, 0, 0, 0, 0, 0, 0, 0, 0, 0, 0, 0, 0, 0, 0, 0, 0, 0, 1, 0, 0, 0, 0, 0, 1, 0, 0, 0, 0, 0, 0, 0, 0, 0, 1, 0, 0, 0, 0, 0, 1, 0, 0, 0, 0, 0, 1, 0, 1, 0, 0, 0, 0, 0, 1, 0, 0, 0, 0, 0, 0, 0, 0, 0, 1, 0, 0, 0, 0, 0, 1, 0, 0, 0, 0, 0, 1, 0, 1, 0, 0, 0, 0, 0, 1, 0, 0, 0, 0, 0, 1, 0, 0, 0, 1, 0, 1, 0, 0, 0, 0, 0, 0, 0, 0, 0, 0, 0, 1, 0, 0, 0, 0, 0, 0, 0, 0, 0, 1, 0, 1, 0, 0, 0, 1, 0, 0, 0, 0, 0, 1, 0, 0, 0, 0, 0, 1, 0, 1, 0, 0, 0, 0, 0, 0, 0, 0, 0, 0, 0, 1, 0, 0, 0, 1, 0, 0, 0, 0, 0, 1, 0, 0, 0, 0, 0, 0, 0, 1, 0, 0, 0, 0, 0, 0, 0, 0, 0, 1, 0, 0, 0, 0, 0, 0, 0, 1, 0, 0, 0, 0, 0, 0, 0, 0, 0, 1, 0, 0, 0, 0, 0, 0, 0, 1, 0, 0, 0, 0, 0, 1, 0, 0, 0, 0, 0, 1, 0, 0, 0, 1, 0, 0, 0, 0, 0, 0, 0, 1, 0, 0, 0, 0, 0, 1, 0, 0, 0, 1, 0, 0, 0, 0, 0, 0, 0, 1, 0, 0, 0, 1, 0, 0, 0, 0, 0, 0, 0, 0, 0, 0, 0, 0, 0, 1, 0, 0, 0, 0, 0, 0, 0, 0, 0, 1, 0, 0, 0, 0, 0, 0, 0, 0, 0, 0, 0, 1, 0, 1, 0, 0, 0, 0, 0, 0, 0, 0, 0, 1, 0, 1, 0, 0, 0, 1, 0, 1, 0, 0, 0, 0, 0, 0, 0, 0, 0, 1, 0, 0, 0, 0, 0, 0, 0, 0, 0, 0, 0, 0, 0, 1, 0, 0, 0, 1, 0, 1, 0, 0, 0, 1, 0, 0, 0, 0, 0, 0, 0, 0, 0, 0, 0, 0, 0, 1, 0, 0, 0, 1, 0, 1, 0, 0, 0, 1, 0, 0, 0, 0, 0, 0, 0, 0, 0, 0, 0, 0, 0, 0, 0, 0, 0, 0, 0, 1, 0, 0, 0, 1, 0, 0, 0, 0, 0, 0, 0, 1, 0, 0, 0, 0, 0, 0, 0, 0, 0, 1, 0, 0, 0, 0, 0, 0, 0, 1, 0, 0, 0, 1, 0, 0, 0, 0, 0, 1, 0, 0, 0, 0, 0, 1, 0, 0, 0, 0, 0, 0, 0, 0, 0, 0, 0, 0, 0, 1, 0, 0, 0, 1, 0, 0, 0, 0, 0, 1, 0, 0, 0, 0, 0, 1, 0, 0, 0, 0, 0, 0, 0, 1, 0, 0, 0, 0, 0, 1, 0, 0, 0, 0, 0, 0, 0, 0, 0, 0, 0, 1, 0, 0, 0, 1, 0, 0, 0, 0, 0, 1, 0, 1, 0, 0, 0, 0, 0, 0, 0, 0, 0, 1, 0, 1, 0, 0, 0, 0, 0, 1, 0, 0, 0, 0, 0, 0, 0, 0, 0, 1, 0, 1, 0, 0, 0, 0, 0, 0, 0, 0, 0, 1, 0, 1, 0, 0, 0, 0, 0, 1, 0, 0, 0, 0, 0, 0, 0, 0, 0, 0, 0, 0, 0, 0, 0, 0, 0, 1, 0, 0, 0, 1, 0, 1, 0, 0, 0, 1, 0, 0, 0, 0, 0, 1, 0, 0, 0, 0, 0, 1, 0, 0, 0, 0, 0, 0, 0, 1, 0, 0, 0, 0, 0, 1, 0, 0, 0, 0, 0, 1, 0, 0, 0, 0, 0, 0, 0, 0, 0, 0, 0, 0, 0, 0, 0, 0, 0, 0, 0, 0, 0, 1, 0, 1, 0, 0, 0, 0, 0, 0, 0, 0, 0, 1, 0, 0, 0, 0, 0, 0, 0, 1, 0, 0, 0, 0, 0, 0, 0, 0, 0, 1, 0, 0, 0, 0, 0, 1, 0, 0, 0, 0, 0, 1, 0, 0, 0, 0, 0, 0, 0, 1, 0, 0, 0, 0, 0, 0, 0, 0, 0, 0, 0, 1, 0, 0, 0, 1, 0, 0, 0, 0, 0, 1, 0, 0, 0, 0, 0, 1, 0, 1, 0, 0, 0, 0, 0, 1, 0, 0, 0, 0, 0, 0, 0, 0, 0, 0, 0, 1, 0, 0, 0, 0, 0, 0, 0, 0, 0, 1, 0, 0, 0, 0, 0, 0, 0, 0, 0, 0, 0, 0, 0, 0, 0, 0, 0, 1, 0, 1, 0, 0, 0, 1, 0, 0, 0, 0, 0, 1, 0, 1, 0, 0, 0, 0, 0, 1, 0, 0, 0, 1, 0, 1, 0, 0, 0, 1, 0, 0, 0, 0, 0, 0, 0, 0, 0, 0, 0, 1, 0, 1, 0, 0, 0, 0, 0, 1, 0, 0, 0, 0, 0, 0, 0, 0, 0, 0, 0, 0, 0, 0, 0, 0, 0, 0, 0, 0, 0, 0, 0, 0, 0, 0, 0, 0, 0, 0, 0, 0, 0, 1, 0, 0, 0, 0, 0, 1, 0, 0, 0, 0, 0, 1, 0, 0, 0, 0, 0, 0, 0, 1, 0, 0, 0, 0, 0, 0, 0, 0, 0, 0, 0, 0, 0, 0, 0, 0, 0, 1, 0, 0, 0, 0, 0, 0, 0, 0, 0, 1, 0, 0, 0, 0, 0, 0, 0, 0, 0, 0, 0, 0, 0, 1, 0, 0, 0, 1, 0, 1, 0, 0, 0, 1, 0, 0, 0, 0, 0, 1, 0, 0, 0, 0, 0, 0, 0, 1, 0, 0, 0, 1, 0, 1, 0, 0, 0, 0, 0, 1, 0, 0, 0, 0, 0, 0, 0, 0, 0, 0, 0, 1, 0, 0, 0, 0, 0, 0, 0, 0, 0, 1, 0, 1, 0, 0, 0, 1, 0, 1, 0, 0, 0, 1, 0, 0, 0, 0, 0, 1, 0, 0, 0, 0, 0, 0, 0, 0, 0, 0, 0, 1, 0, 0, 0, 0, 0, 0, 0, 0, 0, 0, 0, 1, 0, 0, 0, 0, 0, 0, 0, 1, 0, 0, 0, 0, 0, 0, 0, 0, 0, 0, 0, 1, 0, 0, 0, 0, 0, 1, 0, 0, 0, 1, 0, 0, 0, 0, 0, 1, 0, 0, 0, 0, 0, 0, 0, 1, 0, 0, 0, 1, 0, 0, 0, 0, 0, 0, 0, 1, 0, 0, 0, 1, 0, 0, 0, 0, 0, 0, 0, 0, 0, 0, 0, 0, 0, 1, 0, 0, 0, 1, 0, 0, 0, 0, 0, 1, 0, 1, 0, 0, 0, 1, 0, 0, 0, 0, 0, 1, 0, 1, 0, 0, 0, 0, 0, 1, 0, 0, 0, 0, 0, 0, 0, 0, 0, 1, 0, 0, 0, 0, 0, 0, 0, 0, 0, 0, 0, 0, 0, 0, 0, 0, 0, 0, 0, 1, 0, 0, 0, 0, 0, 1, 0, 0, 0, 1, 0, 1, 0, 0, 0, 0, 0, 0, 0, 0, 0, 0, 0, 0, 0, 0, 0, 0, 0, 0, 0, 0, 0, 0, 0, 1, 0, 0, 0, 1, 0, 1, 0, 0, 0, 0, 0, 0, 0, 0, 0, 1, 0, 0, 0, 0, 0, 0, 0, 0, 0, 0, 0, 1, 0, 1, 0, 0, 0, 0, 0, 0, 0, 0, 0, 1, 0, 0, 0, 0, 0, 0, 0, 1, 0, 0, 0, 0, 0, 1, 0, 0, 0, 0, 0, 1, 0, 0, 0, 0, 0, 1, 0, 0, 0, 0, 0, 0, 0, 0, 0, 0, 0, 0, 0, 0, 0, 0, 0, 1, 0, 0, 0, 0, 0, 1, 0, 0, 0, 1, 0, 1, 0, 0, 0, 0, 0, 0, 0, 0, 0, 0, 0, 1, 0, 0, 0, 0, 0, 0, 0, 0, 0, 1, 0, 0, 0, 0, 0, 0, 0, 0, 0, 0, 0, 1, 0, 0, 0, 0, 0, 0, 0, 1, 0, 0, 0, 0, 0, 0, 0, 0, 0, 0, 0, 0, 0, 0, 0, 1, 0, 0, 0, 0, 0, 0, 0, 0, 0, 0, 0, 0, 0, 1, 0, 0, 0, 0, 0, 1, 0, 0, 0, 1, 0, 1, 0, 0, 0, 1, 0, 1, 0, 0, 0, 0, 0, 0, 0, 0, 0, 1, 0, 0, 0, 0, 0, 0, 0, 0, 0, 0, 0, 1, 0, 0, 0, 0, 0, 1, 0, 0, 0, 0, 0, 1, 0, 0, 0, 0, 0, 0, 0, 0, 0, 0, 0, 0, 0, 0, 0, 0, 0, 1, 0, 1, 0, 0, 0, 0, 0, 0, 0, 0, 0, 0, 0, 0, 0, 0, 0, 1, 0, 1, 0, 0, 0, 0, 0, 0, 0, 0, 0, 0, 0, 0, 0, 0, 0, 0, 0, 0, 0, 0, 0, 1, 0, 0, 0, 0, 0, 1, 0, 0, 0, 0, 0, 0, 0, 1, 0, 0, 0, 0, 0, 1, 0, 0, 0, 1, 0, 1, 0, 0, 0, 1, 0, 0, 0, 0, 0, 0, 0, 1, 0, 0, 0, 0, 0, 1, 0, 0, 0, 0, 0, 0, 0, 0, 0, 1, 0, 1, 0, 0, 0, 0, 0, 0, 0, 0, 0, 1, 0, 0, 0, 0, 0, 0, 0, 0, 0, 0, 0, 0, 0, 1, 0, 0, 0, 0, 0, 0, 0, 0, 0, 1, 0, 0, 0, 0, 0, 1, 0, 0, 0, 0, 0, 0, 0, 0, 0, 0, 0, 1, 0, 1, 0, 0, 0, 1, 0, 1, 0, 0, 0, 0, 0, 0, 0, 0, 0, 1, 0, 0, 0, 0, 0, 0, 0, 0, 0, 0, 0, 1, 0, 1, 0, 0, 0, 0, 0, 0, 0, 0, 0, 0, 0, 0, 0, 0, 0, 1, 0, 1, 0, 0, 0, 0, 0, 1, 0, 0, 0, 1, 0, 1, 0, 0, 0, 0, 0, 0, 0, 0, 0, 1, 0, 0, 0, 0, 0, 0, 0, 1, 0, 0, 0, 0, 0, 0, 0, 0, 0, 0, 0, 0, 0, 0, 0, 0, 0, 1, 0, 0, 0, 0, 0, 0, 0, 0, 0, 0, 0, 0, 0, 0, 0, 0, 0, 0, 0, 0, 0, 0, 0, 1, 0, 0, 0, 1, 0, 0, 0, 0, 0, 1, 0, 0, 0, 0, 0, 0, 0, 1, 0, 0, 0, 0, 0, 0, 0, 0, 0, 0, 0, 0, 0, 0, 0, 1, 0, 1, 0, 0, 0, 1, 0, 0, 0, 0, 0, 0, 0, 1, 0, 0, 0, 0, 0, 0, 0, 0, 0, 0, 0, 0, 0, 0, 0, 1, 0, 1, 0, 0, 0, 1, 0, 0, 0, 0, 0, 0, 0, 1, 0, 0, 0, 0, 0, 1, 0, 0, 0, 0, 0, 1, 0, 0, 0, 1, 0, 0, 0, 0, 0, 0, 0, 0, 0, 0, 0, 1, 0, 1, 0, 0, 0, 0, 0, 0, 0, 0, 0, 0, 0, 0, 0, 0, 0, 0, 0, 0, 0, 0, 0, 1, 0, 0, 0, 0, 0, 1, 0, 1, 0, 0, 0, 0, 0, 1, 0, 0, 0, 1, 0, 0, 0, 0, 0, 1, 0, 0, 0, 0, 0, 0, 0, 0, 0, 0, 0, 0, 0, 1, 0, 0, 0, 0, 0, 1, 0, 0, 0, 1, 0, 1, 0, 0, 0, 0, 0, 1, 0, 0, 0, 1, 0, 0, 0, 0, 0, 1, 0, 0, 0, 0, 0, 0, 0, 0, 0, 0, 0, 1, 0, 0, 0, 0, 0, 1, 0, 0, 0, 0, 0, 1, 0, 0, 0, 0, 0, 0, 0, 0, 0, 0, 0, 0, 0, 1, 0, 0, 0, 1, 0, 0, 0, 0, 0, 1, 0, 0, 0, 0, 0, 0, 0, 0, 0, 0, 0, 1, 0, 0, 0, 0, 0, 0, 0, 1, 0, 0, 0, 0, 0, 1, 0, 0, 0, 1, 0, 0, 0, 0, 0, 0, 0, 0, 0, 0, 0, 0, 0, 0, 0, 0, 0, 0, 0, 0, 0, 0, 0, 0, 0, 1, 0, 0, 0, 0, 0, 0, 0, 0, 0, 0, 0, 0, 0, 0, 0, 0, 0, 1, 0, 0, 0, 0, 0, 0, 0, 0, 0, 1, 0, 0, 0, 0, 0, 0, 0, 1, 0, 0, 0, 1, 0, 0, 0, 0, 0, 1, 0, 1, 0, 0, 0, 0, 0, 1, 0, 0, 0, 0, 0, 0, 0, 0, 0, 0, 0, 0, 0, 0, 0, 0, 0, 0, 0, 0, 0, 1, 0, 0, 0, 0, 0, 0, 0, 0, 0, 0, 0, 1, 0, 1, 0, 0, 0, 0, 0, 0, 0, 0, 0, 0, 0, 0, 0, 0, 0, 1, 0, 0, 0, 0, 0, 0, 0, 1, 0, 0, 0, 1, 0, 0, 0, 0, 0, 0, 0, 0, 0, 0, 0, 1, 0, 0, 0, 0, 0, 0, 0, 0, 0, 0, 0, 0, 0, 1, 0, 0, 0, 0, 0, 0, 0, 0, 0, 1, 0, 1, 0, 0, 0, 1, 0, 0, 0, 0, 0, 0, 0, 1, 0, 0, 0, 0, 0, 1, 0, 0, 0, 0, 0, 1, 0, 0, 0, 1, 0, 1, 0, 0, 0, 1, 0, 0, 0, 0, 0, 1, 0, 0, 0, 0, 0, 0, 0, 1, 0, 0, 0, 1, 0, 1, 0, 0, 0, 0, 0, 1, 0, 0, 0, 0, 0, 0, 0, 0, 0, 1, 0, 1, 0, 0, 0, 0, 0, 0, 0, 0, 0, 1, 0, 0, 0, 0, 0, 0, 0, 1, 0, 0, 0, 1, 0, 0, 0, 0, 0, 0, 0, 0, 0, 0, 0, 0, 0, 1, 0, 0, 0, 0, 0, 0, 0, 0, 0, 1, 0, 0, 0, 0, 0, 0, 0, 0, 0, 0, 0, 1, 0, 1, 0, 0, 0, 0, 0, 1, 0, 0, 0, 1, 0, 1, 0, 0, 0, 0, 0, 0, 0, 0, 0, 0, 0, 0, 0, 0, 0, 1, 0, 0, 0, 0, 0, 0, 0, 0, 0, 0, 0, 0, 0, 1, 0, 0, 0, 1, 0, 0, 0, 0, 0, 1, 0, 0, 0, 0, 0, 0, 0, 1, 0, 0, 0, 0, 0, 1, 0, 0, 0, 1, 0, 0, 0, 0, 0, 0, 0, 0, 0, 0, 0, 0, 0, 0, 0, 0, 0, 1, 0, 0, 0, 0, 0, 0, 0, 1, 0, 0, 0, 0, 0, 0, 0, 0, 0, 1, 0, 0, 0, 0, 0, 1, 0, 0, 0, 0, 0, 1, 0, 0, 0, 0, 0, 0, 0, 1, 0, 0, 0, 0, 0, 0, 0, 0, 0, 1, 0, 0, 0, 0, 0, 0, 0, 0, 0, 0, 0, 1, 0, 0, 0, 0, 0, 0, 0, 0, 0, 0, 0, 0, 0, 1, 0, 0, 0, 1, 0, 0, 0, 0, 0, 1, 0, 0, 0, 0, 0, 1, 0, 1, 0, 0, 0, 0, 0, 0, 0, 0, 0, 0, 0, 0, 0, 0, 0, 0, 0, 0, 0, 0, 0, 0, 0, 0, 0, 0, 0, 1, 0, 1, 0, 0, 0, 0, 0, 0, 0, 0, 0, 1, 0, 0, 0, 0, 0, 0, 0, 1, 0, 0, 0, 1, 0, 0, 0, 0, 0, 0, 0, 0, 0, 0, 0, 0, 0, 1, 0, 0, 0, 1, 0, 0, 0, 0, 0, 0, 0, 1, 0, 0, 0, 0, 0, 0, 0, 0, 0, 0, 0, 1, 0, 0, 0, 0, 0, 1, 0, 0, 0, 0, 0, 0, 0, 0, 0, 0, 0, 1, 0, 0, 0, 1, 0, 0, 0, 0, 0, 1, 0, 0, 0, 0, 0, 0, 0, 0, 0, 0, 0, 0, 0, 0, 0, 0, 0, 0, 0, 1, 0, 0, 0, 0, 0, 0, 0, 0, 0, 1, 0, 1, 0, 0, 0, 0, 0, 0, 0, 0, 0, 0, 0, 0, 0, 0, 0, 1, 0, 0, 0, 0, 0, 0, 0, 0, 0, 0, 0, 0, 0, 0, 0, 0, 0, 0, 0, 0, 0, 0, 0, 0, 0, 1, 0, 0, 0, 1, 0, 1, 0, 0, 0, 0, 0, 0, 0, 0, 0, 0, 0, 1, 0, 0, 0, 0, 0, 1, 0, 0, 0, 1, 0, 0, 0, 0, 0, 0, 0, 0, 0, 0, 0, 1, 0, 0, 0, 0, 0, 1, 0, 0, 0, 0, 0, 0, 0, 1, 0, 0, 0, 1, 0, 0, 0, 0, 0, 0, 0, 1, 0, 0, 0, 0, 0, 0, 0, 0, 0, 0, 0, 0, 0, 0, 0, 0, 0, 0, 0, 0, 0, 1, 0, 1, 0, 0, 0, 1, 0, 1, 0, 0, 0, 0, 0, 0, 0, 0, 0, 0, 0, 1, 0, 0, 0, 0, 0, 0, 0, 0, 0, 0, 0, 0, 0, 0, 0, 0, 0, 0, 0, 0, 0, 0, 0, 0, 0, 0, 0, 1, 0, 1, 0, 0, 0, 0, 0, 1, 0, 0, 0, 0, 0, 1, 0, 0, 0, 0, 0, 1, 0, 0, 0, 1, 0, 0, 0, 0, 0, 1, 0, 1, 0, 0, 0, 0, 0, 0, 0, 0, 0, 0, 0, 1, 0, 0, 0, 1, 0, 0, 0, 0, 0, 0, 0, 0, 0, 0, 0, 1, 0, 1, 0, 0, 0, 0, 0, 0, 0, 0, 0, 1, 0, 1, 0, 0, 0, 0, 0, 0, 0, 0, 0, 0, 0, 0, 0, 0, 0, 1, 0, 1, 0, 0, 0, 0, 0, 0, 0, 0, 0, 0, 0, 0, 0, 0, 0, 1, 0, 0, 0, 0, 0, 1, 0, 0, 0, 0, 0, 0, 0, 0, 0, 0, 0, 0, 0, 0, 0, 0, 0, 0, 0, 1, 0, 0, 0, 0, 0, 0, 0, 0, 0, 0, 0, 0, 0, 0, 0, 1, 0, 0, 0, 0, 0, 0, 0, 1, 0, 0, 0, 1, 0, 1, 0, 0, 0, 1, 0, 1, 0, 0, 0, 0, 0, 0, 0, 0, 0, 0, 0, 0, 0, 0, 0, 0, 0, 0, 0, 0, 0, 1, 0, 0, 0, 0, 0, 0, 0, 1, 0, 0, 0, 0, 0, 0, 0, 0, 0, 0, 0, 1, 0, 0, 0, 0, 0, 1, 0, 0, 0, 0, 0, 0, 0, 0, 0, 1, 0, 1, 0, 0, 0, 1, 0, 0, 0, 0, 0, 1, 0, 1, 0, 0, 0, 0, 0, 1, 0, 0, 0, 0, 0, 0, 0, 0, 0, 1, 0, 1, 0, 0, 0, 0, 0, 0, 0, 0, 0, 0, 0, 1, 0, 0, 0, 0, 0, 0, 0, 0, 0, 1, 0, 1, 0, 0, 0, 0, 0, 0, 0, 0, 0, 1, 0, 0, 0, 0, 0, 0, 0, 0, 0, 0, 0, 0, 0, 1, 0, 0, 0, 0, 0, 1, 0, 0, 0, 1, 0, 0, 0, 0, 0, 1, 0, 0, 0, 0, 0, 0, 0, 1, 0, 0, 0, 0, 0, 1, 0, 0, 0, 0, 0, 1, 0, 0, 0, 0, 0, 0, 0, 0, 0, 0, 0, 0, 0, 0, 0, 1, 0, 0, 0, 0, 0, 0, 0, 0, 0, 0, 0, 1, 0, 1, 0, 0, 0, 1, 0, 0, 0, 0, 0, 0, 0, 0, 0, 0, 0, 0, 0, 1, 0, 0, 0, 0, 0, 1, 0, 0, 0, 1, 0, 0, 0, 0, 0, 0, 0, 1, 0, 0, 0, 0, 0, 0, 0, 0, 0, 1, 0, 0, 0, 0, 0, 0, 0, 1, 0, 0, 0, 0, 0, 1, 0, 0, 0, 0, 0, 1, 0, 0, 0, 0, 0, 0, 0, 0, 0, 0, 0, 0, 0, 0, 0, 0, 0, 0, 0, 0, 0, 1, 0, 0, 0, 0, 0, 1, 0, 1, 0, 0, 0, 0, 0, 0, 0, 0, 0, 1, 0, 0, 0, 0, 0, 0, 0, 0, 0, 0, 0, 0, 0, 1, 0, 0, 0, 1, 0, 0, 0, 0, 0, 1, 0, 0, 0, 0, 0, 0, 0, 0, 0, 0, 0, 0, 0, 0, 0, 0, 0, 1, 0, 1, 0, 0, 0, 0, 0, 0, 0, 0, 0, 1, 0, 0, 0, 0, 0, 0, 0, 0, 0, 0, 0, 0, 0, 1, 0, 0, 0, 1, 0, 1, 0, 0, 0, 0, 0, 0, 0, 0, 0, 1, 0, 0, 0, 0, 0, 0, 0, 0, 0, 0, 0, 0, 0, 1, 0, 0, 0, 1, 0, 0, 0, 0, 0, 0, 0, 1, 0, 0, 0, 0, 0, 0, 0, 0, 0, 0, 0, 0, 0, 0, 0, 0, 0, 1, 0, 0, 0, 1, 0, 0, 0, 0, 0, 1, 0, 1, 0, 0, 0, 1, 0, 0, 0, 0, 0, 1, 0, 1, 0, 0, 0, 0, 0, 0, 0, 0, 0, 0, 0, 1, 0, 0, 0, 1, 0, 0, 0, 0, 0, 0, 0, 0, 0, 0, 0, 0, 0, 0, 0, 0, 0, 0, 0, 1, 0, 0, 0, 0, 0, 0, 0, 0, 0, 0, 0, 0, 0, 0, 0, 0, 0, 0, 0, 0, 0, 1, 0, 0, 0, 0, 0, 0, 0, 0, 0, 0, 0, 
Factors:
1, *, 1, 0, *, *, *, 0, 1, 0, 1, *, *, 0, 1, 0, 1, 0, 1, 0, 1, 0, 1, 0, 1, 0, 1, 0, *, 0, *, 0, 1, *, *, *, *, 0, *, *, 1, *, *, *, 1, 0, *, *, 1, *, 1, *, *, *, 1, 0, *, *, 1, *, 1, *, 1, *, 1, 0, 1, *, 1, *, 1, 0, *, *, 1, 0, *, *, *, 0, 1, 0, 1, 0, *, 0, 1, *, 1, *, *, 0, 1, 0, *, 0, *, 0, 1, *, 1, *, *, *, 1, *, 1, 0, 1, *, 1, 0, 1, *, *, *, *, 0, *, *, 1, 0, 1, *, *, *, *, *, 1, *, 1, *, 1, *, 1, 0, 1, 0, 1, 0, 1, *, *, *, 1, *, *, *, 1, *, 1, 0, 1, *, *, 0, 1, *, *, *, 1, 0, *, *, 1, 0, 1, *, *, 0, *, 0, *, *, 1, *, *, *, *, *, *, *, 1, 0, *, *, *, *, *, *, *, *, *, *, 1, 0, *, *, *, 0, 1, *, *, 0, 1, *, 1, 0, 1, 0, *, *, 1, *, 1, 0, 1, 0, *, 0, 1, 0, 1, 0, *, *, 1, *, 1, 0, *, *, *, 0, *, 0, *, 0, 1, *, *, 0, 1, *, *, *, 1, 0, *, 0, 1, 0, 1, *, 1, 0, 1, 0, 1, *, *, *, *, 0, *, *, 1, *, *, *, *, *, 1, 0, *, *, *, 0, 1, *, *, 0, *, 0, *, 0, *, *, 1, *, 1, *, *, *, 1, *, *, 0, 1, 0, *, 0, 1, *, *, *, 1, *, 1, *, *, *, *, *, *, 0, *, *, 1, 0, 1, *, 1, 0, 1, 0, *, *, 1, 0, *, 0, 1, 0, 1, *, 1, 0, 1, 0, *, 0, 1, 0, 1, *, 1, 0, 1, 0, *, *, *, 0, 1, *, 1, *, *, 0, 1, 0, *, 0, 1, *, 1, *, 1, *, *, 0, 1, *, *, 0, 1, 0, 1, 0, *, 0, *, 0, 1, *, 1, 0, *, *, 1, 0, 1, 0, 1, *, *, *, *, *, 1, 0, *, 0, *, *, *, *, *, 0, 1, *, *, 0, *, 0, *, 0, 1, *, 1, *, 1, 0, 1, *, 1, *, *, 0, 1, *, *, 0, *, 0, 1, *, 1, *, *, 0, *, *, *, 0, 1, 0, 1, *, 1, *, 1, 0, *, 0, *, *, 1, *, *, *, *, *, *, *, 1, *, *, *, *, 0, *, *, 1, 0, 1, *, *, *, *, 0, 1, *, *, *, *, *, *, *, *, *, *, *, *, *, *, *, 1, *, 1, *, *, 0, 1, 0, 1, *, 1, 0, *, 0, 1, 0, *, *, 1, 0, *, 0, *, 0, 1, 0, *, *, 1, 0, *, 0, *, 0, *, 0, *, *, *, 0, *, 0, *, *, 1, 0, *, *, 1, 0, 1, *, *, *, *, *, 1, *, *, 0, *, 0, 1, *, *, *, 1, *, 1, *, *, 0, *, 0, 1, 0, *, 0, *, *, *, 0, *, *, *, 0, 1, 0, 1, *, 1, 0, *, *, *, 0, 1, 0, 1, 0, *, 0, *, 0, *, 0, *, *, *, *, *, *, *, 0, 1, 0, *, 0, 1, 0, *, 0, *, *, *, 0, 1, *, *, 0, 1, 0, *, *, 1, 0, *, *, *, 0, 1, *, 1, *, 1, 0, *, 0, 1, 0, 1, 0, 1, 0, *, *, 1, 0, 1, 0, 1, 0, 1, 0, 1, 0, *, *, 1, 0, 1, *, *, 0, 1, *, *, 0, *, *, *, *, 1, 0, *, 0, *, *, *, *, 1, *, *, *, *, *, 1, 0, *, 0, *, *, 1, 0, 1, *, 1, *, 1, *, *, 0, 1, *, *, 0, 1, 0, *, *, 1, *, *, *, *, 0, *, *, *, *, *, 0, 1, 0, 1, *, 1, 0, *, 0, 1, 0, 1, 0, *, *, 1, 0, 1, *, *, 0, 1, *, 1, *, 1, *, 1, 0, *, 0, *, 0, 1, 0, *, 0, 1, *, *, *, 1, *, *, 0, 1, 0, *, 0, *, 0, 1, 0, 1, 0, 1, *, 1, 0, *, *, *, 0, *, *, *, *, 1, 0, *, *, 1, *, *, *, *, 0, *, *, *, *, 1, *, *, *, *, 0, *, *, *, *, 1, 0, 1, *, *, 0, *, 0, 1, *, *, *, 1, *, *, 0, *, 0, *, 0, 1, *, *, 0, 1, *, *, *, *, *, 1, *, 1, *, *, 0, *, *, 1, 0, *, *, *, *, *, 0, 1, 0, 1, 0, *, *, 1, *, 1, 0, 1, 0, 1, *, *, 0, 1, *, 1, *, 1, *, *, 0, *, 0, *, *, *, 0, *, 0, 1, *, *, 0, 1, *, 1, *, *, 0, *, 0, 1, *, 1, 0, 1, *, *, *, *, 0, *, 0, *, *, 1, *, 1, 0, *, 0, 1, 0, 1, 0, 1, 0, *, 0, 1, 0, 1, *, 1, 0, *, *, *, 0, 1, 0, 1, *, *, 0, 1, 0, 1, 0, 1, 0, 1, 0, 1, 0, 1, 0, 1, 0, *, 0, *, 0, 1, *, *, *, *, 0, *, *, 1, *, *, *, 1, 0, *, *, 1, *, 1, *, *, *, 1, 0, *, *, 1, *, 1, *, 1, *, 1, 0, 1, *, 1, *, 1, 0, *, *, 1, 0, *, *, *, 0, 1, 0, 1, 0, *, 0, 1, *, 1, *, *, 0, 1, 0, *, 0, *, 0, 1, *, 1, *, *, *, 1, *, 1, 0, 1, *, 1, 0, 1, *, *, *, *, 0, *, *, 1, 0, 1, *, *, *, *, *, 1, *, 1, *, 1, *, 1, 0, 1, 0, 1, 0, 1, *, *, *, 1, *, *, *, 1, *, 1, 0, 1, *, *, 0, 1, *, *, *, 1, 0, *, *, 1, 0, 1, *, *, 0, *, 0, *, *, 1, *, *, *, *, *, *, *, 1, 0, *, *, *, *, *, *, *, *, *, *, 1, 0, *, *, *, 0, 1, *, *, 0, 1, *, 1, 0, 1, 0, *, *, 1, *, 1, 0, 1, 0, *, 0, 1, 0, 1, 0, *, *, 1, *, 1, 0, *, *, *, 0, *, 0, *, 0, 1, *, *, 0, 1, *, *, *, 1, 0, *, 0, 1, 0, 1, *, 1, 0, 1, 0, 1, *, *, *, *, 0, *, *, 1, *, *, *, *, *, 1, 0, *, *, *, 0, 1, *, *, 0, *, 0, *, 0, *, *, 1, *, 1, *, *, *, 1, *, *, 0, 1, 0, *, 0, 1, *, *, *, 1, *, 1, *, *, *, *, *, *, 0, *, *, 1, 0, 1, *, 1, 0, 1, 0, *, *, 1, 0, *, 0, 1, 0, 1, *, 1, 0, 1, 0, *, 0, 1, 0, 1, *, 1, 0, 1, 0, *, *, *, 0, 1, *, 1, *, *, 0, 1, 0, *, 0, 1, *, 1, *, 1, *, *, 0, 1, *, *, 0, 1, 0, 1, 0, *, 0, *, 0, 1, *, 1, 0, *, *, 1, 0, 1, 0, 1, *, *, *, *, *, 1, 0, *, 0, *, *, *, *, *, 0, 1, *, *, 0, *, 0, *, 0, 1, *, 1, *, 1, 0, 1, *, 1, *, *, 0, 1, *, *, 0, *, 0, 1, *, 1, *, *, 0, *, *, *, 0, 1, 0, 1, *, 1, *, 1, 0, *, 0, *, *, 1, *, *, *, *, *, *, *, 1, *, *, *, *, 0, *, *, 1, 0, 1, *, *, *, *, 0, 1, *, *, *, *, *, *, *, *, *, *, *, *, *, *, *, 1, *, 1, *, *, 0, 1, 0, 1, *, 1, 0, *, 0, 1, 0, *, *, 1, 0, *, 0, *, 0, 1, 0, *, *, 1, 0, *, 0, *, 0, *, 0, *, *, *, 0, *, 0, *, *, 1, 0, *, *, 1, 0, 1, *, *, *, *, *, 1, *, *, 0, *, 0, 1, *, *, *, 1, *, 1, *, *, 0, *, 0, 1, 0, *, 0, *, *, *, 0, *, *, *, 0, 1, 0, 1, *, 1, 0, *, *, *, 0, 1, 0, 1, 0, *, 0, *, 0, *, 0, *, *, *, *, *, *, *, 0, 1, 0, *, 0, 1, 0, *, 0, *, *, *, 0, 1, *, *, 0, 1, 0, *, *, 1, 0, *, *, *, 0, 1, *, 1, *, 1, 0, *, 0, 1, 0, 1, 0, 1, 0, *, *, 1, 0, 1, 0, 1, 0, 1, 0, 1, 0, *, *, 1, 0, 1, *, *, 0, 1, *, *, 0, *, *, *, *, 1, 0, *, 0, *, *, *, *, 1, *, *, *, *, *, 1, 0, *, 0, *, *, 1, 0, 1, *, 1, *, 1, *, *, 0, 1, *, *, 0, 1, 0, *, *, 1, *, *, *, *, 0, *, *, *, *, *, 0, 1, 0, 1, *, 1, 0, *, 0, 1, 0, 1, 0, *, *, 1, 0, 1, *, *, 0, 1, *, 1, *, 1, *, 1, 0, *, 0, *, 0, 1, 0, *, 0, 1, *, *, *, 1, *, *, 0, 1, 0, *, 0, *, 0, 1, 0, 1, 0, 1, *, 1, 0, *, *, *, 0, *, *, *, *, 1, 0, *, *, 1, *, *, *, *, 0, *, *, *, *, 1, *, *, *, *, 0, *, *, *, *, 1, 0, 1, *, *, 0, *, 0, 1, *, *, *, 1, *, *, 0, *, 0, *, 0, 1, *, *, 0, 1, *, *, *, *, *, 1, *, 1, *, *, 0, *, *, 1, 0, *, *, *, *, *, 0, 1, 0, 1, 0, *, *, 1, *, 1, 0, 1, 0, 1, *, *, 0, 1, *, 1, *, 1, *, *, 0, *, 0, *, *, *, 0, *, 0, 1, *, *, 0, 1, *, 1, *, *, 0, *, 0, 1, *, 1, 0, 1, *, *, *, *, 0, *, 0, *, *, 1, *, 1, 0, *, 0, 1, 0, 1, 0, 1, 0, *, 0, 1, 0, 1, *, 1, 0, *, *, *, 0, 1, 0, 1, *, *, 0, 1, 0, 1, 0, 1, 0, 1, 0, 1, 0, 1, 0, 1, 0, *, 0, *, 0, 1, *, *, *, *, 0, *, *, 1, *, *, *, 1, 0, *, *, 1, *, 1, *, *, *, 1, 0, *, *, 1, *, 1, *, 1, *, 1, 0, 1, *, 1, *, 1, 0, *, *, 1, 0, *, *, *, 0, 1, 0, 1, 0, *, 0, 1, *, 1, *, *, 0, 1, 0, *, 0, *, 0, 1, *, 1, *, *, *, 1, *, 1, 0, 1, *, 1, 0, 1, *, *, *, *, 0, *, *, 1, 0, 1, *, *, *, *, *, 1, *, 1, *, 1, *, 1, 0, 1, 0, 1, 0, 1, *, *, *, 1, *, *, *, 1, *, 1, 0, 1, *, *, 0, 1, *, *, *, 1, 0, *, *, 1, 0, 1, *, *, 0, *, 0, *, *, 1, *, *, *, *, *, *, *, 1, 0, *, *, *, *, *, *, *, *, *, *, 1, 0, *, *, *, 0, 1, *, *, 0, 1, *, 1, 0, 1, 0, *, *, 1, *, 1, 0, 1, 0, *, 0, 1, 0, 1, 0, *, *, 1, *, 1, 0, *, *, *, 0, *, 0, *, 0, 1, *, *, 0, 1, *, *, *, 1, 0, *, 0, 1, 0, 1, *, 1, 0, 1, 0, 1, *, *, *, *, 0, *, *, 1, *, *, *, *, *, 1, 0, *, *, *, 0, 1, *, *, 0, *, 0, *, 0, *, *, 1, *, 1, *, *, *, 1, *, *, 0, 1, 0, *, 0, 1, *, *, *, 1, *, 1, *, *, *, *, *, *, 0, *, *, 1, 0, 1, *, 1, 0, 1, 0, *, *, 1, 0, *, 0, 1, 0, 1, *, 1, 0, 1, 0, *, 0, 1, 0, 1, *, 1, 0, 1, 0, *, *, *, 0, 1, *, 1, *, *, 0, 1, 0, *, 0, 1, *, 1, *, 1, *, *, 0, 1, *, *, 0, 1, 0, 1, 0, *, 0, *, 0, 1, *, 1, 0, *, *, 1, 0, 1, 0, 1, *, *, *, *, *, 1, 0, *, 0, *, *, *, *, *, 0, 1, *, *, 0, *, 0, *, 0, 1, *, 1, *, 1, 0, 1, *, 1, *, *, 0, 1, *, *, 0, *, 0, 1, *, 1, *, *, 0, *, *, *, 0, 1, 0, 1, *, 1, *, 1, 0, *, 0, *, *, 1, *, *, *, *, *, *, *, 1, *, *, *, *, 0, *, *, 1, 0, 1, *, *, *, *, 0, 1, *, *, *, *, *, *, *, *, *, *, *, *, *, *, *, 1, *, 1, *, *, 0, 1, 0, 1, *, 1, 0, *, 0, 1, 0, *, *, 1, 0, *, 0, *, 0, 1, 0, *, *, 1, 0, *, 0, *, 0, *, 0, *, *, *, 0, *, 0, *, *, 1, 0, *, *, 1, 0, 1, *, *, *, *, *, 1, *, *, 0, *, 0, 1, *, *, *, 1, *, 1, *, *, 0, *, 0, 1, 0, *, 0, *, *, *, 0, *, *, *, 0, 1, 0, 1, *, 1, 0, *, *, *, 0, 1, 0, 1, 0, *, 0, *, 0, *, 0, *, *, *, *, *, *, *, 0, 1, 0, *, 0, 1, 0, *, 0, *, *, *, 0, 1, *, *, 0, 1, 0, *, *, 1, 0, *, *, *, 0, 1, *, 1, *, 1, 0, *, 0, 1, 0, 1, 0, 1, 0, *, *, 1, 0, 1, 0, 1, 0, 1, 0, 1, 0, *, *, 1, 0, 1, *, *, 0, 1, *, *, 0, *, *, *, *, 1, 0, *, 0, *, *, *, *, 1, *, *, *, *, *, 1, 0, *, 0, *, *, 1, 0, 1, *, 1, *, 1, *, *, 0, 1, *, *, 0, 1, 0, *, *, 1, *, *, *, *, 0, *, *, *, *, *, 0, 1, 0, 1, *, 1, 0, *, 0, 1, 0, 1, 0, *, *, 1, 0, 1, *, *, 0, 1, *, 1, *, 1, *, 1, 0, *, 0, *, 0, 1, 0, *, 0, 1, *, *, *, 1, *, *, 0, 1, 0, *, 0, *, 0, 1, 0, 1, 0, 1, *, 1, 0, *, *, *, 0, *, *, *, *, 1, 0, *, *, 1, *, *, *, *, 0, *, *, *, *, 1, *, *, *, *, 0, *, *, *, *, 1, 0, 1, *, *, 0, *, 0, 1, *, *, *, 1, *, *, 0, *, 0, *, 0, 1, *, *, 0, 1, *, *, *, *, *, 1, *, 1, *, *, 0, *, *, 1, 0, *, *, *, *, *, 0, 1, 0, 1, 0, *, *, 1, *, 1, 0, 1, 0, 1, *, *, 0, 1, *, 1, *, 1, *, *, 0, *, 0, *, *, *, 0, *, 0, 1, *, *, 0, 1, *, 1, *, *, 0, *, 0, 1, *, 1, 0, 1, *, *, *, *, 0, *, 0, *, *, 1, *, 1, 0, *, 0, 1, 0, 1, 0, 1, 0, *, 0, 1, 0, 1, *, 1, 0, *, *, *, 0, 1, 0, 1, *, *, 0, 1, 0, 1, 0, 1, 0, 1, 0, 1, 0, 1, 0, 1, 0, *, 0, *, 0, 1, *, *, *, *, 0, *, *, 1, *, *, *, 1, 0, *, *, 1, *, 1, *, *, *, 1, 0, *, *, 1, *, 1, *, 1, *, 1, 0, 1, *, 1, *, 1, 0, *, *, 1, 0, *, *, *, 0, 1, 0, 1, 0, *, 0, 1, *, 1, *, *, 0, 1, 0, *, 0, *, 0, 1, *, 1, *, *, *, 1, *, 1, 0, 1, *, 1, 0, 1, *, *, *, *, 0, *, *, 1, 0, 1, *, *, *, *, *, 1, *, 1, *, 1, *, 1, 0, 1, 0, 1, 0, 1, *, *, *, 1, *, *, *, 1, *, 1, 0, 1, *, *, 0, 1, *, *, *, 1, 0, *, *, 1, 0, 1, *, *, 0, *, 0, *, *, 1, *, *, *, *, *, *, *, 1, 0, *, *, *, *, *, *, *, *, *, *, 1, 0, *, *, *, 0, 1, *, *, 0, 1, *, 1, 0, 1, 0, *, *, 1, *, 1, 0, 1, 0, *, 0, 1, 0, 1, 0, *, *, 1, *, 1, 0, *, *, *, 0, *, 0, *, 0, 1, *, *, 0, 1, *, *, *, 1, 0, *, 0, 1, 0, 1, *, 1, 0, 1, 0, 1, *, *, *, *, 0, *, *, 1, *, *, *, *, *, 1, 0, *, *, *, 0, 1, *, *, 0, *, 0, *, 0, *, *, 1, *, 1, *, *, *, 1, *, *, 0, 1, 0, *, 0, 1, *, *, *, 1, *, 1, *, *, *, *, *, *, 0, *, *, 1, 0, 1, *, 1, 0, 1, 0, *, *, 1, 0, *, 0, 1, 0, 1, *, 1, 0, 1, 0, *, 0, 1, 0, 1, *, 1, 0, 1, 0, *, *, *, 0, 1, *, 1, *, *, 0, 1, 0, *, 0, 1, *, 1, *, 1, *, *, 0, 1, *, *, 0, 1, 0, 1, 0, *, 0, *, 0, 1, *, 1, 0, *, *, 1, 0, 1, 0, 1, *, *, *, *, *, 1, 0, *, 0, *, *, *, *, *, 0, 1, *, *, 0, *, 0, *, 0, 1, *, 1, *, 1, 0, 1, *, 1, *, *, 0, 1, *, *, 0, *, 0, 1, *, 1, *, *, 0, *, *, *, 0, 1, 0, 1, *, 1, *, 1, 0, *, 0, *, *, 1, *, *, *, *, *, *, *, 1, *, *, *, *, 0, *, *, 1, 0, 1, *, *, *, *, 0, 1, *, *, *, *, *, *, *, *, *, *, *, *, *, *, *, 1, *, 1, *, *, 0, 1, 0, 1, *, 1, 0, *, 0, 1, 0, *, *, 1, 0, *, 0, *, 0, 1, 0, *, *, 1, 0, *, 0, *, 0, *, 0, *, *, *, 0, *, 0, *, *, 1, 0, *, *, 1, 0, 1, *, *, *, *, *, 1, *, *, 0, *, 0, 1, *, *, *, 1, *, 1, *, *, 0, *, 0, 1, 0, *, 0, *, *, *, 0, *, *, *, 0, 1, 0, 1, *, 1, 0, *, *, *, 0, 1, 0, 1, 0, *, 0, *, 0, *, 0, *, *, *, *, *, *, *, 0, 1, 0, *, 0, 1, 0, *, 0, *, *, *, 0, 1, *, *, 0, 1, 0, *, *, 1, 0, *, *, *, 0, 1, *, 1, *, 1, 0, *, 0, 1, 0, 1, 0, 1, 0, *, *, 1, 0, 1, 0, 1, 0, 1, 0, 1, 0, *, *, 1, 0, 1, *, *, 0, 1, *, *, 0, *, *, *, *, 1, 0, *, 0, *, *, *, *, 1, *, *, *, *, *, 1, 0, *, 0, *, *, 1, 0, 1, *, 1, *, 1, *, *, 0, 1, *, *, 0, 1, 0, *, *, 1, *, *, *, *, 0, *, *, *, *, *, 0, 1, 0, 1, *, 1, 0, *, 0, 1, 0, 1, 0, *, *, 1, 0, 1, *, *, 0, 1, *, 1, *, 1, *, 1, 0, *, 0, *, 0, 1, 0, *, 0, 1, *, *, *, 1, *, *, 0, 1, 0, *, 0, *, 0, 1, 0, 1, 0, 1, *, 1, 0, *, *, *, 0, *, *, *, *, 1, 0, *, *, 1, *, *, *, *, 0, *, *, *, *, 1, *, *, *, *, 0, *, *, *, *, 1, 0, 1, *, *, 0, *, 0, 1, *, *, *, 1, *, *, 0, *, 0, *, 0, 1, *, *, 0, 1, *, *, *, *, *, 1, *, 1, *, *, 0, *, *, 1, 0, *, *, *, *, *, 0, 1, 0, 1, 0, *, *, 1, *, 1, 0, 1, 0, 1, *, *, 0, 1, *, 1, *, 1, *, *, 0, *, 0, *, *, *, 0, *, 0, 1, *, *, 0, 1, *, 1, *, *, 0, *, 0, 1, *, 1, 0, 1, *, *, *, *, 0, *, 0, *, *, 1, *, 1, 0, *, 0, 1, 0, 1, 0, 1, 0, *, 0, 1, 0, 1, *, 1, 0, *, *, *, 0, 1, 0, 1, *, *, 0, 1, 0, 1, 0, 1, 0, 1, 0, 1, 0, 1, 0, 1, 0, *, 0, *, 0, 1, *, *, *, *, 0, *, *, 1, *, *, *, 1, 0, *, *, 1, *, 1, *, *, *, 1, 0, *, *, 1, *, 1, *, 1, *, 1, 0, 1, *, 1, *, 1, 0, *, *, 1, 0, *, *, *, 0, 1, 0, 1, 0, *, 0, 1, *, 1, *, *, 0, 1, 0, *, 0, *, 0, 1, *, 1, *, *, *, 1, *, 1, 0, 1, *, 1, 0, 1, *, *, *, *, 0, *, *, 1, 0, 1, *, *, *, *, *, 1, *, 1, *, 1, *, 1, 0, 1, 0, 1, 0, 1, *, *, *, 1, *, *, *, 1, *, 1, 0, 1, *, *, 0, 1, *, *, *, 1, 0, *, *, 1, 0, 1, *, *, 0, *, 0, *, *, 1, *, *, *, *, *, *, *, 1, 0, *, *, *, *, *, *, *, *, *, *, 1, 0, *, *, *, 0, 1, *, *, 0, 1, *, 1, 0, 1, 0, *, *, 1, *, 1, 0, 1, 0, *, 0, 1, 0, 1, 0, *, *, 1, *, 1, 0, *, *, *, 0, *, 0, *, 0, 1, *, 
