Number entered was : 25926182901639939476817695751946012329087544433081705811390561639990791792374445305684408684616080080118061035566587260181374765509998092182562542001303

Primes:
0, 1, 1, 0, 1, 0, 1, 0, 0, 0, 1, 0, 1, 0, 0, 0, 1, 0, 1, 0, 0, 0, 1, 0, 0, 0, 0, 0, 1, 0, 1, 0, 0, 0, 0, 0, 1, 0, 0, 0, 1, 0, 1, 0, 0, 0, 1, 0, 0, 0, 0, 0, 1, 0, 0, 0, 0, 0, 1, 0, 1, 0, 0, 0, 0, 0, 1, 0, 0, 0, 1, 0, 1, 0, 0, 0, 0, 0, 1, 0, 0, 0, 1, 0, 0, 0, 0, 0, 1, 0, 0, 0, 0, 0, 0, 0, 1, 0, 0, 0, 1, 0, 1, 0, 0, 0, 1, 0, 1, 0, 0, 0, 1, 0, 0, 0, 0, 0, 0, 0, 0, 0, 0, 0, 0, 0, 1, 0, 0, 0, 1, 0, 0, 0, 0, 0, 1, 0, 1, 0, 0, 0, 0, 0, 0, 0, 0, 0, 1, 0, 1, 0, 0, 0, 0, 0, 1, 0, 0, 0, 0, 0, 1, 0, 0, 0, 1, 0, 0, 0, 0, 0, 1, 0, 0, 0, 0, 0, 1, 0, 1, 0, 0, 0, 0, 0, 0, 0, 0, 0, 1, 0, 1, 0, 0, 0, 1, 0, 1, 0, 0, 0, 0, 0, 0, 0, 0, 0, 0, 0, 1, 0, 0, 0, 0, 0, 0, 0, 0, 0, 0, 0, 1, 0, 0, 0, 1, 0, 1, 0, 0, 0, 1, 0, 0, 0, 0, 0, 1, 0, 1, 0, 0, 0, 0, 0, 0, 0, 0, 0, 1, 0, 0, 0, 0, 0, 1, 0, 0, 0, 0, 0, 1, 0, 0, 0, 0, 0, 1, 0, 1, 0, 0, 0, 0, 0, 1, 0, 0, 0, 1, 0, 1, 0, 0, 0, 0, 0, 0, 0, 0, 0, 1, 0, 0, 0, 0, 0, 0, 0, 0, 0, 0, 0, 0, 0, 1, 0, 0, 0, 1, 0, 1, 0, 0, 0, 1, 0, 0, 0, 0, 0, 0, 0, 0, 0, 0, 0, 0, 0, 1, 0, 0, 0, 0, 0, 1, 0, 0, 0, 0, 0, 0, 0, 0, 0, 1, 0, 1, 0, 0, 0, 1, 0, 0, 0, 0, 0, 1, 0, 0, 0, 0, 0, 0, 0, 1, 0, 0, 0, 0, 0, 1, 0, 0, 0, 0, 0, 1, 0, 0, 0, 1, 0, 0, 0, 0, 0, 1, 0, 0, 0, 0, 0, 0, 0, 1, 0, 0, 0, 1, 0, 0, 0, 0, 0, 0, 0, 1, 0, 0, 0, 0, 0, 0, 0, 0, 0, 1, 0, 1, 0, 0, 0, 0, 0, 0, 0, 0, 0, 1, 0, 1, 0, 0, 0, 0, 0, 1, 0, 0, 0, 1, 0, 0, 0, 0, 0, 1, 0, 0, 0, 0, 0, 0, 0, 1, 0, 0, 0, 1, 0, 1, 0, 0, 0, 1, 0, 0, 0, 0, 0, 0, 0, 0, 0, 0, 0, 1, 0, 0, 0, 0, 0, 0, 0, 1, 0, 0, 0, 1, 0, 0, 0, 0, 0, 0, 0, 1, 0, 0, 0, 1, 0, 0, 0, 0, 0, 1, 0, 0, 0, 0, 0, 0, 0, 0, 0, 0, 0, 1, 0, 1, 0, 0, 0, 0, 0, 0, 0, 0, 0, 0, 0, 0, 0, 0, 0, 0, 0, 1, 0, 0, 0, 0, 0, 1, 0, 0, 0, 0, 0, 0, 0, 0, 0, 1, 0, 0, 0, 0, 0, 1, 0, 0, 0, 0, 0, 1, 0, 1, 0, 0, 0, 0, 0, 1, 0, 0, 0, 0, 0, 0, 0, 0, 0, 1, 0, 0, 0, 0, 0, 1, 0, 0, 0, 0, 0, 1, 0, 1, 0, 0, 0, 0, 0, 1, 0, 0, 0, 0, 0, 1, 0, 0, 0, 1, 0, 1, 0, 0, 0, 0, 0, 0, 0, 0, 0, 0, 0, 1, 0, 0, 0, 0, 0, 0, 0, 0, 0, 1, 0, 1, 0, 0, 0, 1, 0, 0, 0, 0, 0, 1, 0, 0, 0, 0, 0, 1, 0, 1, 0, 0, 0, 0, 0, 0, 0, 0, 0, 0, 0, 1, 0, 0, 0, 1, 0, 0, 0, 0, 0, 1, 0, 0, 0, 0, 0, 0, 0, 1, 0, 0, 0, 0, 0, 0, 0, 0, 0, 1, 0, 0, 0, 0, 0, 0, 0, 1, 0, 0, 0, 0, 0, 0, 0, 0, 0, 1, 0, 0, 0, 0, 0, 0, 0, 1, 0, 0, 0, 0, 0, 1, 0, 0, 0, 0, 0, 1, 0, 0, 0, 1, 0, 0, 0, 0, 0, 0, 0, 1, 0, 0, 0, 0, 0, 1, 0, 0, 0, 1, 0, 0, 0, 0, 0, 0, 0, 1, 0, 0, 0, 1, 0, 0, 0, 0, 0, 0, 0, 0, 0, 0, 0, 0, 0, 1, 0, 0, 0, 0, 0, 0, 0, 0, 0, 1, 0, 0, 0, 0, 0, 0, 0, 0, 0, 0, 0, 1, 0, 1, 0, 0, 0, 0, 0, 0, 0, 0, 0, 1, 0, 1, 0, 0, 0, 1, 0, 1, 0, 0, 0, 0, 0, 0, 0, 0, 0, 1, 0, 0, 0, 0, 0, 0, 0, 0, 0, 0, 0, 0, 0, 1, 0, 0, 0, 1, 0, 1, 0, 0, 0, 1, 0, 0, 0, 0, 0, 0, 0, 0, 0, 0, 0, 0, 0, 1, 0, 0, 0, 1, 0, 1, 0, 0, 0, 1, 0, 0, 0, 0, 0, 0, 0, 0, 0, 0, 0, 0, 0, 0, 0, 0, 0, 0, 0, 1, 0, 0, 0, 1, 0, 0, 0, 0, 0, 0, 0, 1, 0, 0, 0, 0, 0, 0, 0, 0, 0, 1, 0, 0, 0, 0, 0, 0, 0, 1, 0, 0, 0, 1, 0, 0, 0, 0, 0, 1, 0, 0, 0, 0, 0, 1, 0, 0, 0, 0, 0, 0, 0, 0, 0, 0, 0, 0, 0, 1, 0, 0, 0, 1, 0, 0, 0, 0, 0, 1, 0, 0, 0, 0, 0, 1, 0, 0, 0, 0, 0, 0, 0, 1, 0, 0, 0, 0, 0, 1, 0, 0, 0, 0, 0, 0, 0, 0, 0, 0, 0, 1, 0, 0, 0, 1, 0, 0, 0, 0, 0, 1, 0, 1, 0, 0, 0, 0, 0, 0, 0, 0, 0, 1, 0, 1, 0, 0, 0, 0, 0, 1, 0, 0, 0, 0, 0, 0, 0, 0, 0, 1, 0, 1, 0, 0, 0, 0, 0, 0, 0, 0, 0, 1, 0, 1, 0, 0, 0, 0, 0, 1, 0, 0, 0, 0, 0, 0, 0, 0, 0, 0, 0, 0, 0, 0, 0, 0, 0, 1, 0, 0, 0, 1, 0, 1, 0, 0, 0, 1, 0, 0, 0, 0, 0, 1, 0, 0, 0, 0, 0, 1, 0, 0, 0, 0, 0, 0, 0, 1, 0, 0, 0, 0, 0, 1, 0, 0, 0, 0, 0, 1, 0, 0, 0, 0, 0, 0, 0, 0, 0, 0, 0, 0, 0, 0, 0, 0, 0, 0, 0, 0, 0, 1, 0, 1, 0, 0, 0, 0, 0, 0, 0, 0, 0, 1, 0, 0, 0, 0, 0, 0, 0, 1, 0, 0, 0, 0, 0, 0, 0, 0, 0, 1, 0, 0, 0, 0, 0, 1, 0, 0, 0, 0, 0, 1, 0, 0, 0, 0, 0, 0, 0, 1, 0, 0, 0, 0, 0, 0, 0, 0, 0, 0, 0, 1, 0, 0, 0, 1, 0, 0, 0, 0, 0, 1, 0, 0, 0, 0, 0, 1, 0, 1, 0, 0, 0, 0, 0, 1, 0, 0, 0, 0, 0, 0, 0, 0, 0, 0, 0, 1, 0, 0, 0, 0, 0, 0, 0, 0, 0, 1, 0, 0, 0, 0, 0, 0, 0, 0, 0, 0, 0, 0, 0, 0, 0, 0, 0, 1, 0, 1, 0, 0, 0, 1, 0, 0, 0, 0, 0, 1, 0, 1, 0, 0, 0, 0, 0, 1, 0, 0, 0, 1, 0, 1, 0, 0, 0, 1, 0, 0, 0, 0, 0, 0, 0, 0, 0, 0, 0, 1, 0, 1, 0, 0, 0, 0, 0, 1, 0, 0, 0, 0, 0, 0, 0, 0, 0, 0, 0, 0, 0, 0, 0, 0, 0, 0, 0, 0, 0, 0, 0, 0, 0, 0, 0, 0, 0, 0, 0, 0, 0, 1, 0, 0, 0, 0, 0, 1, 0, 0, 0, 0, 0, 1, 0, 0, 0, 0, 0, 0, 0, 1, 0, 0, 0, 0, 0, 0, 0, 0, 0, 0, 0, 0, 0, 0, 0, 0, 0, 1, 0, 0, 0, 0, 0, 0, 0, 0, 0, 1, 0, 0, 0, 0, 0, 0, 0, 0, 0, 0, 0, 0, 0, 1, 0, 0, 0, 1, 0, 1, 0, 0, 0, 1, 0, 0, 0, 0, 0, 1, 0, 0, 0, 0, 0, 0, 0, 1, 0, 0, 0, 1, 0, 1, 0, 0, 0, 0, 0, 1, 0, 0, 0, 0, 0, 0, 0, 0, 0, 0, 0, 1, 0, 0, 0, 0, 0, 0, 0, 0, 0, 1, 0, 1, 0, 0, 0, 1, 0, 1, 0, 0, 0, 1, 0, 0, 0, 0, 0, 1, 0, 0, 0, 0, 0, 0, 0, 0, 0, 0, 0, 1, 0, 0, 0, 0, 0, 0, 0, 0, 0, 0, 0, 1, 0, 0, 0, 0, 0, 0, 0, 1, 0, 0, 0, 0, 0, 0, 0, 0, 0, 0, 0, 1, 0, 0, 0, 0, 0, 1, 0, 0, 0, 1, 0, 0, 0, 0, 0, 1, 0, 0, 0, 0, 0, 0, 0, 1, 0, 0, 0, 1, 0, 0, 0, 0, 0, 0, 0, 1, 0, 0, 0, 1, 0, 0, 0, 0, 0, 0, 0, 0, 0, 0, 0, 0, 0, 1, 0, 0, 0, 1, 0, 0, 0, 0, 0, 1, 0, 1, 0, 0, 0, 1, 0, 0, 0, 0, 0, 1, 0, 1, 0, 0, 0, 0, 0, 1, 0, 0, 0, 0, 0, 0, 0, 0, 0, 1, 0, 0, 0, 0, 0, 0, 0, 0, 0, 0, 0, 0, 0, 0, 0, 0, 0, 0, 0, 1, 0, 0, 0, 0, 0, 1, 0, 0, 0, 1, 0, 1, 0, 0, 0, 0, 0, 0, 0, 0, 0, 0, 0, 0, 0, 0, 0, 0, 0, 0, 0, 0, 0, 0, 0, 1, 0, 0, 0, 1, 0, 1, 0, 0, 0, 0, 0, 0, 0, 0, 0, 1, 0, 0, 0, 0, 0, 0, 0, 0, 0, 0, 0, 1, 0, 1, 0, 0, 0, 0, 0, 0, 0, 0, 0, 1, 0, 0, 0, 0, 0, 0, 0, 1, 0, 0, 0, 0, 0, 1, 0, 0, 0, 0, 0, 1, 0, 0, 0, 0, 0, 1, 0, 0, 0, 0, 0, 0, 0, 0, 0, 0, 0, 0, 0, 0, 0, 0, 0, 1, 0, 0, 0, 0, 0, 1, 0, 0, 0, 1, 0, 1, 0, 0, 0, 0, 0, 0, 0, 0, 0, 0, 0, 1, 0, 0, 0, 0, 0, 0, 0, 0, 0, 1, 0, 0, 0, 0, 0, 0, 0, 0, 0, 0, 0, 1, 0, 0, 0, 0, 0, 0, 0, 1, 0, 0, 0, 0, 0, 0, 0, 0, 0, 0, 0, 0, 0, 0, 0, 1, 0, 0, 0, 0, 0, 0, 0, 0, 0, 0, 0, 0, 0, 1, 0, 0, 0, 0, 0, 1, 0, 0, 0, 1, 0, 1, 0, 0, 0, 1, 0, 1, 0, 0, 0, 0, 0, 0, 0, 0, 0, 1, 0, 0, 0, 0, 0, 0, 0, 0, 0, 0, 0, 1, 0, 0, 0, 0, 0, 1, 0, 0, 0, 0, 0, 1, 0, 0, 0, 0, 0, 0, 0, 0, 0, 0, 0, 0, 0, 0, 0, 0, 0, 1, 0, 1, 0, 0, 0, 0, 0, 0, 0, 0, 0, 0, 0, 0, 0, 0, 0, 1, 0, 1, 0, 0, 0, 0, 0, 0, 0, 0, 0, 0, 0, 0, 0, 0, 0, 0, 0, 0, 0, 0, 0, 1, 0, 0, 0, 0, 0, 1, 0, 0, 0, 0, 0, 0, 0, 1, 0, 0, 0, 0, 0, 1, 0, 0, 0, 1, 0, 1, 0, 0, 0, 1, 0, 0, 0, 0, 0, 0, 0, 1, 0, 0, 0, 0, 0, 1, 0, 0, 0, 0, 0, 0, 0, 0, 0, 1, 0, 1, 0, 0, 0, 0, 0, 0, 0, 0, 0, 1, 0, 0, 0, 0, 0, 0, 0, 0, 0, 0, 0, 0, 0, 1, 0, 0, 0, 0, 0, 0, 0, 0, 0, 1, 0, 0, 0, 0, 0, 1, 0, 0, 0, 0, 0, 0, 0, 0, 0, 0, 0, 1, 0, 1, 0, 0, 0, 1, 0, 1, 0, 0, 0, 0, 0, 0, 0, 0, 0, 1, 0, 0, 0, 0, 0, 0, 0, 0, 0, 0, 0, 1, 0, 1, 0, 0, 0, 0, 0, 0, 0, 0, 0, 0, 0, 0, 0, 0, 0, 1, 0, 1, 0, 0, 0, 0, 0, 1, 0, 0, 0, 1, 0, 1, 0, 0, 0, 0, 0, 0, 0, 0, 0, 1, 0, 0, 0, 0, 0, 0, 0, 1, 0, 0, 0, 0, 0, 0, 0, 0, 0, 0, 0, 0, 0, 0, 0, 0, 0, 1, 0, 0, 0, 0, 0, 0, 0, 0, 0, 0, 0, 0, 0, 0, 0, 0, 0, 0, 0, 0, 0, 0, 0, 1, 0, 0, 0, 1, 0, 0, 0, 0, 0, 1, 0, 0, 0, 0, 0, 0, 0, 1, 0, 0, 0, 0, 0, 0, 0, 0, 0, 0, 0, 0, 0, 0, 0, 1, 0, 1, 0, 0, 0, 1, 0, 0, 0, 0, 0, 0, 0, 1, 0, 0, 0, 0, 0, 0, 0, 0, 0, 0, 0, 0, 0, 0, 0, 1, 0, 1, 0, 0, 0, 1, 0, 0, 0, 0, 0, 0, 0, 1, 0, 0, 0, 0, 0, 1, 0, 0, 0, 0, 0, 1, 0, 0, 0, 1, 0, 0, 0, 0, 0, 0, 0, 0, 0, 0, 0, 1, 0, 1, 0, 0, 0, 0, 0, 0, 0, 0, 0, 0, 0, 0, 0, 0, 0, 0, 0, 0, 0, 0, 0, 1, 0, 0, 0, 0, 0, 1, 0, 1, 0, 0, 0, 0, 0, 1, 0, 0, 0, 1, 0, 0, 0, 0, 0, 1, 0, 0, 0, 0, 0, 0, 0, 0, 0, 0, 0, 0, 0, 1, 0, 0, 0, 0, 0, 1, 0, 0, 0, 1, 0, 1, 0, 0, 0, 0, 0, 1, 0, 0, 0, 1, 0, 0, 0, 0, 0, 1, 0, 0, 0, 0, 0, 0, 0, 0, 0, 0, 0, 1, 0, 0, 0, 0, 0, 1, 0, 0, 0, 0, 0, 1, 0, 0, 0, 0, 0, 0, 0, 0, 0, 0, 0, 0, 0, 1, 0, 0, 0, 1, 0, 0, 0, 0, 0, 1, 0, 0, 0, 0, 0, 0, 0, 0, 0, 0, 0, 1, 0, 0, 0, 0, 0, 0, 0, 1, 0, 0, 0, 0, 0, 1, 0, 0, 0, 1, 0, 0, 0, 0, 0, 0, 0, 0, 0, 0, 0, 0, 0, 0, 0, 0, 0, 0, 0, 0, 0, 0, 0, 0, 0, 1, 0, 0, 0, 0, 0, 0, 0, 0, 0, 0, 0, 0, 0, 0, 0, 0, 0, 1, 0, 0, 0, 0, 0, 0, 0, 0, 0, 1, 0, 0, 0, 0, 0, 0, 0, 1, 0, 0, 0, 1, 0, 0, 0, 0, 0, 1, 0, 1, 0, 0, 0, 0, 0, 1, 0, 0, 0, 0, 0, 0, 0, 0, 0, 0, 0, 0, 0, 0, 0, 0, 0, 0, 0, 0, 0, 1, 0, 0, 0, 0, 0, 0, 0, 0, 0, 0, 0, 1, 0, 1, 0, 0, 0, 0, 0, 0, 0, 0, 0, 0, 0, 0, 0, 0, 0, 1, 0, 0, 0, 0, 0, 0, 0, 1, 0, 0, 0, 1, 0, 0, 0, 0, 0, 0, 0, 0, 0, 0, 0, 1, 0, 0, 0, 0, 0, 0, 0, 0, 0, 0, 0, 0, 0, 1, 0, 0, 0, 0, 0, 0, 0, 0, 0, 1, 0, 1, 0, 0, 0, 1, 0, 0, 0, 0, 0, 0, 0, 1, 0, 0, 0, 0, 0, 1, 0, 0, 0, 0, 0, 1, 0, 0, 0, 1, 0, 1, 0, 0, 0, 1, 0, 0, 0, 0, 0, 1, 0, 0, 0, 0, 0, 0, 0, 1, 0, 0, 0, 1, 0, 1, 0, 0, 0, 0, 0, 1, 0, 0, 0, 0, 0, 0, 0, 0, 0, 1, 0, 1, 0, 0, 0, 0, 0, 0, 0, 0, 0, 1, 0, 0, 0, 0, 0, 0, 0, 1, 0, 0, 0, 1, 0, 0, 0, 0, 0, 0, 0, 0, 0, 0, 0, 0, 0, 1, 0, 0, 0, 0, 0, 0, 0, 0, 0, 1, 0, 0, 0, 0, 0, 0, 0, 0, 0, 0, 0, 1, 0, 1, 0, 0, 0, 0, 0, 1, 0, 0, 0, 1, 0, 1, 0, 0, 0, 0, 0, 0, 0, 0, 0, 0, 0, 0, 0, 0, 0, 1, 0, 0, 0, 0, 0, 0, 0, 0, 0, 0, 0, 0, 0, 1, 0, 0, 0, 1, 0, 0, 0, 0, 0, 1, 0, 0, 0, 0, 0, 0, 0, 1, 0, 0, 0, 0, 0, 1, 0, 0, 0, 1, 0, 0, 0, 0, 0, 0, 0, 0, 0, 0, 0, 0, 0, 0, 0, 0, 0, 1, 0, 0, 0, 0, 0, 0, 0, 1, 0, 0, 0, 0, 0, 0, 0, 0, 0, 1, 0, 0, 0, 0, 0, 1, 0, 0, 0, 0, 0, 1, 0, 0, 0, 0, 0, 0, 0, 1, 0, 0, 0, 0, 0, 0, 0, 0, 0, 1, 0, 0, 0, 0, 0, 0, 0, 0, 0, 0, 0, 1, 0, 0, 0, 0, 0, 0, 0, 0, 0, 0, 0, 0, 0, 1, 0, 0, 0, 1, 0, 0, 0, 0, 0, 1, 0, 0, 0, 0, 0, 1, 0, 1, 0, 0, 0, 0, 0, 0, 0, 0, 0, 0, 0, 0, 0, 0, 0, 0, 0, 0, 0, 0, 0, 0, 0, 0, 0, 0, 0, 1, 0, 1, 0, 0, 0, 0, 0, 0, 0, 0, 0, 1, 0, 0, 0, 0, 0, 0, 0, 1, 0, 0, 0, 1, 0, 0, 0, 0, 0, 0, 0, 0, 0, 0, 0, 0, 0, 1, 0, 0, 0, 1, 0, 0, 0, 0, 0, 0, 0, 1, 0, 0, 0, 0, 0, 0, 0, 0, 0, 0, 0, 1, 0, 0, 0, 0, 0, 1, 0, 0, 0, 0, 0, 0, 0, 0, 0, 0, 0, 1, 0, 0, 0, 1, 0, 0, 0, 0, 0, 1, 0, 0, 0, 0, 0, 0, 0, 0, 0, 0, 0, 0, 0, 0, 0, 0, 0, 0, 0, 1, 0, 0, 0, 0, 0, 0, 0, 0, 0, 1, 0, 1, 0, 0, 0, 0, 0, 0, 0, 0, 0, 0, 0, 0, 0, 0, 0, 1, 0, 0, 0, 0, 0, 0, 0, 0, 0, 0, 0, 0, 0, 0, 0, 0, 0, 0, 0, 0, 0, 0, 0, 0, 0, 1, 0, 0, 0, 1, 0, 1, 0, 0, 0, 0, 0, 0, 0, 0, 0, 0, 0, 1, 0, 0, 0, 0, 0, 1, 0, 0, 0, 1, 0, 0, 0, 0, 0, 0, 0, 0, 0, 0, 0, 1, 0, 0, 0, 0, 0, 1, 0, 0, 0, 0, 0, 0, 0, 1, 0, 0, 0, 1, 0, 0, 0, 0, 0, 0, 0, 1, 0, 0, 0, 0, 0, 0, 0, 0, 0, 0, 0, 0, 0, 0, 0, 0, 0, 0, 0, 0, 0, 1, 0, 1, 0, 0, 0, 1, 0, 1, 0, 0, 0, 0, 0, 0, 0, 0, 0, 0, 0, 1, 0, 0, 0, 0, 0, 0, 0, 0, 0, 0, 0, 0, 0, 0, 0, 0, 0, 0, 0, 0, 0, 0, 0, 0, 0, 0, 0, 1, 0, 1, 0, 0, 0, 0, 0, 1, 0, 0, 0, 0, 0, 1, 0, 0, 0, 0, 0, 1, 0, 0, 0, 1, 0, 0, 0, 0, 0, 1, 0, 1, 0, 0, 0, 0, 0, 0, 0, 0, 0, 0, 0, 1, 0, 0, 0, 1, 0, 0, 0, 0, 0, 0, 0, 0, 0, 0, 0, 1, 0, 1, 0, 0, 0, 0, 0, 0, 0, 0, 0, 1, 0, 1, 0, 0, 0, 0, 0, 0, 0, 0, 0, 0, 0, 0, 0, 0, 0, 1, 0, 1, 0, 0, 0, 0, 0, 0, 0, 0, 0, 0, 0, 0, 0, 0, 0, 1, 0, 0, 0, 0, 0, 1, 0, 0, 0, 0, 0, 0, 0, 0, 0, 0, 0, 0, 0, 0, 0, 0, 0, 0, 0, 1, 0, 0, 0, 0, 0, 0, 0, 0, 0, 0, 0, 0, 0, 0, 0, 1, 0, 0, 0, 0, 0, 0, 0, 1, 0, 0, 0, 1, 0, 1, 0, 0, 0, 1, 0, 1, 0, 0, 0, 0, 0, 0, 0, 0, 0, 0, 0, 0, 0, 0, 0, 0, 0, 0, 0, 0, 0, 1, 0, 0, 0, 0, 0, 0, 0, 1, 0, 0, 0, 0, 0, 0, 0, 0, 0, 0, 0, 1, 0, 0, 0, 0, 0, 1, 0, 0, 0, 0, 0, 0, 0, 0, 0, 1, 0, 1, 0, 0, 0, 1, 0, 0, 0, 0, 0, 1, 0, 1, 0, 0, 0, 0, 0, 1, 0, 0, 0, 0, 0, 0, 0, 0, 0, 1, 0, 1, 0, 0, 0, 0, 0, 0, 0, 0, 0, 0, 0, 1, 0, 0, 0, 0, 0, 0, 0, 0, 0, 1, 0, 1, 0, 0, 0, 0, 0, 0, 0, 0, 0, 1, 0, 0, 0, 0, 0, 0, 0, 0, 0, 0, 0, 0, 0, 1, 0, 0, 0, 0, 0, 1, 0, 0, 0, 1, 0, 0, 0, 0, 0, 1, 0, 0, 0, 0, 0, 0, 0, 1, 0, 0, 0, 0, 0, 1, 0, 0, 0, 0, 0, 1, 0, 0, 0, 0, 0, 0, 0, 0, 0, 0, 0, 0, 0, 0, 0, 1, 0, 0, 0, 0, 0, 0, 0, 0, 0, 0, 0, 1, 0, 1, 0, 0, 0, 1, 0, 0, 0, 0, 0, 0, 0, 0, 0, 0, 0, 0, 0, 1, 0, 0, 0, 0, 0, 1, 0, 0, 0, 1, 0, 0, 0, 0, 0, 0, 0, 1, 0, 0, 0, 0, 0, 0, 0, 0, 0, 1, 0, 0, 0, 0, 0, 0, 0, 1, 0, 0, 0, 0, 0, 1, 0, 0, 0, 0, 0, 1, 0, 0, 0, 0, 0, 0, 0, 0, 0, 0, 0, 0, 0, 0, 0, 0, 0, 0, 0, 0, 0, 1, 0, 0, 0, 0, 0, 1, 0, 1, 0, 0, 0, 0, 0, 0, 0, 0, 0, 1, 0, 0, 0, 0, 0, 0, 0, 0, 0, 0, 0, 0, 0, 1, 0, 0, 0, 1, 0, 0, 0, 0, 0, 1, 0, 0, 0, 0, 0, 0, 0, 0, 0, 0, 0, 0, 0, 0, 0, 0, 0, 1, 0, 1, 0, 0, 0, 0, 0, 0, 0, 0, 0, 1, 0, 0, 0, 0, 0, 0, 0, 0, 0, 0, 0, 0, 0, 1, 0, 0, 0, 1, 0, 1, 0, 0, 0, 0, 0, 0, 0, 0, 0, 1, 0, 0, 0, 0, 0, 0, 0, 0, 0, 0, 0, 0, 0, 1, 0, 0, 0, 1, 0, 0, 0, 0, 0, 0, 0, 1, 0, 0, 0, 0, 0, 0, 0, 0, 0, 0, 0, 0, 0, 0, 0, 0, 0, 1, 0, 0, 0, 1, 0, 0, 0, 0, 0, 1, 0, 1, 0, 0, 0, 1, 0, 0, 0, 0, 0, 1, 0, 1, 0, 0, 0, 0, 0, 0, 0, 0, 0, 0, 0, 1, 0, 0, 0, 1, 0, 0, 0, 0, 0, 0, 0, 0, 0, 0, 0, 0, 0, 0, 0, 0, 0, 0, 0, 1, 0, 0, 0, 0, 0, 0, 0, 0, 0, 0, 0, 0, 0, 0, 0, 0, 0, 0, 0, 0, 0, 1, 0, 0, 0, 0, 0, 0, 0, 0, 0, 0, 0, 
Factors:
1, 0, 1, 0, 1, 0, *, *, 1, 0, 1, 0, *, 0, 1, *, *, *, *, *, 1, 0, 1, 0, *, 0, 1, 0, *, *, 1, *, 1, *, 1, *, 1, 0, *, 0, 1, 0, 1, *, 1, *, *, 0, *, 0, *, *, *, *, *, *, *, 0, 1, *, 1, *, *, 0, *, 0, *, 0, *, 0, 1, *, 1, 0, 1, *, 1, *, *, 0, *, *, 1, *, 1, *, 1, 0, *, 0, 1, 0, 1, 0, *, 0, 1, 0, 1, *, 1, *, *, *, *, *, *, *, *, *, *, 0, 1, *, *, 0, *, 0, 1, *, 1, 0, 1, *, 1, 0, 1, 0, *, 0, 1, *, *, 0, *, *, *, *, 1, *, 1, *, *, *, 1, 0, *, 0, *, *, 1, *, *, *, 1, *, 1, *, *, *, *, 0, *, *, 1, *, 1, 0, *, *, 1, 0, *, 0, 1, *, *, 0, 1, 0, 1, *, 1, 0, *, *, *, *, 1, *, 1, 0, 1, *, 1, 0, *, *, *, *, *, 0, *, *, 1, *, 1, *, 1, *, *, 0, *, 0, *, *, *, *, 1, *, 1, *, 1, *, 1, *, 1, 0, 1, *, 1, *, *, 0, *, *, 1, 0, *, *, 1, *, *, *, *, *, *, *, *, *, 1, 0, *, *, *, *, 1, 0, 1, 0, *, 0, *, 0, 1, *, 1, 0, *, 0, 1, 0, 1, *, 1, 0, 1, 0, *, 0, 1, *, *, 0, 1, *, 1, 0, 1, 0, 1, *, 1, *, 1, 0, *, *, *, 0, 1, 0, *, 0, 1, 0, *, *, 1, *, 1, *, 1, *, *, 0, 1, 0, *, *, 1, 0, *, 0, *, *, 1, *, 1, 0, *, 0, *, 0, 1, *, *, 0, 1, 0, *, *, *, *, 1, 0, *, 0, 1, 0, *, *, 1, 0, 1, *, *, *, *, 0, *, 0, *, 0, 1, 0, *, 0, 1, *, *, *, 1, 0, 1, 0, 1, 0, 1, 0, *, 0, *, 0, 1, 0, 1, *, 1, *, 1, *, *, 0, 1, 0, 1, 0, *, *, *, 0, 1, 0, *, 0, 1, 0, *, *, *, 0, *, 0, 1, *, *, 0, *, *, *, 0, *, 0, *, *, *, 0, *, 0, 1, *, *, *, *, 0, 1, *, *, 0, *, *, *, 0, *, 0, *, *, *, *, 1, *, 1, 0, 1, 0, 1, 0, *, *, *, *, 1, 0, 1, 0, *, 0, *, *, *, *, *, 0, 1, 0, 1, 0, 1, 0, 1, *, 1, *, *, 0, 1, *, 1, *, *, *, *, 0, *, *, 1, *, *, 0, 1, 0, 1, 0, 1, 0, 1, 0, 1, *, *, 0, 1, 0, 1, *, 1, 0, *, *, *, *, *, 0, 1, 0, 1, *, 1, 0, 1, *, *, 0, *, 0, *, 0, *, 0, 1, *, 1, 0, 1, 0, *, 0, *, *, 1, *, 1, *, *, *, *, *, *, *, 1, 0, *, 0, *, *, 1, *, 1, *, 1, *, 1, 0, *, 0, 1, 0, *, 0, *, *, 1, *, *, 0, *, 0, *, 0, 1, *, 1, 0, 1, 0, 1, *, 1, 0, 1, 0, *, 0, *, *, *, *, *, *, *, *, *, *, 1, 0, *, *, 1, *, 1, 0, *, 0, 1, 0, *, 0, 1, 0, 1, *, 1, 0, *, *, 1, *, *, *, *, 0, *, 0, *, *, *, 0, 1, *, 1, *, *, 0, *, *, *, 0, *, 0, *, *, *, *, 1, *, *, 0, *, 0, 1, *, *, 0, 1, *, 1, 0, *, *, 1, 0, 1, 0, *, 0, 1, *, *, *, *, 0, *, 0, 1, 0, *, 0, 1, *, *, *, *, *, 1, *, *, 0, *, 0, *, 0, *, *, 1, *, 1, *, *, *, *, 0, *, 0, *, 0, *, 0, *, 0, 1, 0, *, 0, *, *, 1, *, *, 0, 1, *, *, 0, *, *, *, *, *, *, *, *, *, 0, 1, *, *, *, *, 0, 1, 0, 1, *, 1, *, 1, 0, *, 0, 1, *, 1, 0, 1, 0, *, 0, 1, 0, 1, *, 1, 0, *, *, 1, 0, *, 0, 1, 0, 1, 0, *, 0, *, 0, 1, *, *, *, 1, 0, 1, *, 1, 0, 1, *, *, 0, *, 0, *, 0, *, *, 1, 0, 1, *, *, 0, 1, *, 1, *, *, 0, *, 0, 1, *, 1, *, 1, 0, *, *, 1, 0, 1, *, *, *, *, 0, 1, *, 1, 0, 1, *, *, 0, 1, 0, *, *, *, *, 1, *, 1, *, 1, 0, 1, *, 1, 0, *, *, *, 0, 1, 0, 1, 0, 1, 0, 1, *, 1, *, 1, 0, 1, 0, *, 0, *, 0, *, *, 1, 0, 1, 0, 1, *, *, *, 1, 0, 1, *, 1, 0, 1, *, *, *, 1, *, 1, 0, *, *, 1, *, *, *, 1, *, 1, *, *, *, 1, *, 1, 0, *, *, *, *, 1, 0, *, *, 1, *, *, *, 1, *, 1, *, *, *, *, 0, *, 0, 1, 0, 1, 0, 1, *, *, *, *, 0, 1, 0, 1, *, 1, *, *, *, *, *, 1, 0, 1, 0, 1, 0, 1, 0, *, 0, *, *, 1, 0, *, 0, *, *, *, *, 1, *, *, 0, *, *, 1, 0, 1, 0, 1, 0, 1, 0, 1, 0, *, *, 1, 0, 1, 0, *, 0, 1, *, *, *, *, *, 1, 0, 1, 0, *, 0, 1, 0, *, *, 1, *, 1, *, 1, *, 1, 0, *, 0, 1, 0, 1, *, 1, *, *, 0, *, 0, *, *, *, *, *, *, *, 0, 1, *, 1, *, *, 0, *, 0, *, 0, *, 0, 1, *, 1, 0, 1, *, 1, *, *, 0, *, *, 1, *, 1, *, 1, 0, *, 0, 1, 0, 1, 0, *, 0, 1, 0, 1, *, 1, *, *, *, *, *, *, *, *, *, *, 0, 1, *, *, 0, *, 0, 1, *, 1, 0, 1, *, 1, 0, 1, 0, *, 0, 1, *, *, 0, *, *, *, *, 1, *, 1, *, *, *, 1, 0, *, 0, *, *, 1, *, *, *, 1, *, 1, *, *, *, *, 0, *, *, 1, *, 1, 0, *, *, 1, 0, *, 0, 1, *, *, 0, 1, 0, 1, *, 1, 0, *, *, *, *, 1, *, 1, 0, 1, *, 1, 0, *, *, *, *, *, 0, *, *, 1, *, 1, *, 1, *, *, 0, *, 0, *, *, *, *, 1, *, 1, *, 1, *, 1, *, 1, 0, 1, *, 1, *, *, 0, *, *, 1, 0, *, *, 1, *, *, *, *, *, *, *, *, *, 1, 0, *, *, *, *, 1, 0, 1, 0, *, 0, *, 0, 1, *, 1, 0, *, 0, 1, 0, 1, *, 1, 0, 1, 0, *, 0, 1, *, *, 0, 1, *, 1, 0, 1, 0, 1, *, 1, *, 1, 0, *, *, *, 0, 1, 0, *, 0, 1, 0, *, *, 1, *, 1, *, 1, *, *, 0, 1, 0, *, *, 1, 0, *, 0, *, *, 1, *, 1, 0, *, 0, *, 0, 1, *, *, 0, 1, 0, *, *, *, *, 1, 0, *, 0, 1, 0, *, *, 1, 0, 1, *, *, *, *, 0, *, 0, *, 0, 1, 0, *, 0, 1, *, *, *, 1, 0, 1, 0, 1, 0, 1, 0, *, 0, *, 0, 1, 0, 1, *, 1, *, 1, *, *, 0, 1, 0, 1, 0, *, *, *, 0, 1, 0, *, 0, 1, 0, *, *, *, 0, *, 0, 1, *, *, 0, *, *, *, 0, *, 0, *, *, *, 0, *, 0, 1, *, *, *, *, 0, 1, *, *, 0, *, *, *, 0, *, 0, *, *, *, *, 1, *, 1, 0, 1, 0, 1, 0, *, *, *, *, 1, 0, 1, 0, *, 0, *, *, *, *, *, 0, 1, 0, 1, 0, 1, 0, 1, *, 1, *, *, 0, 1, *, 1, *, *, *, *, 0, *, *, 1, *, *, 0, 1, 0, 1, 0, 1, 0, 1, 0, 1, *, *, 0, 1, 0, 1, *, 1, 0, *, *, *, *, *, 0, 1, 0, 1, *, 1, 0, 1, *, *, 0, *, 0, *, 0, *, 0, 1, *, 1, 0, 1, 0, *, 0, *, *, 1, *, 1, *, *, *, *, *, *, *, 1, 0, *, 0, *, *, 1, *, 1, *, 1, *, 1, 0, *, 0, 1, 0, *, 0, *, *, 1, *, *, 0, *, 0, *, 0, 1, *, 1, 0, 1, 0, 1, *, 1, 0, 1, 0, *, 0, *, *, *, *, *, *, *, *, *, *, 1, 0, *, *, 1, *, 1, 0, *, 0, 1, 0, *, 0, 1, 0, 1, *, 1, 0, *, *, 1, *, *, *, *, 0, *, 0, *, *, *, 0, 1, *, 1, *, *, 0, *, *, *, 0, *, 0, *, *, *, *, 1, *, *, 0, *, 0, 1, *, *, 0, 1, *, 1, 0, *, *, 1, 0, 1, 0, *, 0, 1, *, *, *, *, 0, *, 0, 1, 0, *, 0, 1, *, *, *, *, *, 1, *, *, 0, *, 0, *, 0, *, *, 1, *, 1, *, *, *, *, 0, *, 0, *, 0, *, 0, *, 0, 1, 0, *, 0, *, *, 1, *, *, 0, 1, *, *, 0, *, *, *, *, *, *, *, *, *, 0, 1, *, *, *, *, 0, 1, 0, 1, *, 1, *, 1, 0, *, 0, 1, *, 1, 0, 1, 0, *, 0, 1, 0, 1, *, 1, 0, *, *, 1, 0, *, 0, 1, 0, 1, 0, *, 0, *, 0, 1, *, *, *, 1, 0, 1, *, 1, 0, 1, *, *, 0, *, 0, *, 0, *, *, 1, 0, 1, *, *, 0, 1, *, 1, *, *, 0, *, 0, 1, *, 1, *, 1, 0, *, *, 1, 0, 1, *, *, *, *, 0, 1, *, 1, 0, 1, *, *, 0, 1, 0, *, *, *, *, 1, *, 1, *, 1, 0, 1, *, 1, 0, *, *, *, 0, 1, 0, 1, 0, 1, 0, 1, *, 1, *, 1, 0, 1, 0, *, 0, *, 0, *, *, 1, 0, 1, 0, 1, *, *, *, 1, 0, 1, *, 1, 0, 1, *, *, *, 1, *, 1, 0, *, *, 1, *, *, *, 1, *, 1, *, *, *, 1, *, 1, 0, *, *, *, *, 1, 0, *, *, 1, *, *, *, 1, *, 1, *, *, *, *, 0, *, 0, 1, 0, 1, 0, 1, *, *, *, *, 0, 1, 0, 1, *, 1, *, *, *, *, *, 1, 0, 1, 0, 1, 0, 1, 0, *, 0, *, *, 1, 0, *, 0, *, *, *, *, 1, *, *, 0, *, *, 1, 0, 1, 0, 1, 0, 1, 0, 1, 0, *, *, 1, 0, 1, 0, *, 0, 1, *, *, *, *, *, 1, 0, 1, 0, *, 0, 1, 0, *, *, 1, *, 1, *, 1, *, 1, 0, *, 0, 1, 0, 1, *, 1, *, *, 0, *, 0, *, *, *, *, *, *, *, 0, 1, *, 1, *, *, 0, *, 0, *, 0, *, 0, 1, *, 1, 0, 1, *, 1, *, *, 0, *, *, 1, *, 1, *, 1, 0, *, 0, 1, 0, 1, 0, *, 0, 1, 0, 1, *, 1, *, *, *, *, *, *, *, *, *, *, 0, 1, *, *, 0, *, 0, 1, *, 1, 0, 1, *, 1, 0, 1, 0, *, 0, 1, *, *, 0, *, *, *, *, 1, *, 1, *, *, *, 1, 0, *, 0, *, *, 1, *, *, *, 1, *, 1, *, *, *, *, 0, *, *, 1, *, 1, 0, *, *, 1, 0, *, 0, 1, *, *, 0, 1, 0, 1, *, 1, 0, *, *, *, *, 1, *, 1, 0, 1, *, 1, 0, *, *, *, *, *, 0, *, *, 1, *, 1, *, 1, *, *, 0, *, 0, *, *, *, *, 1, *, 1, *, 1, *, 1, *, 1, 0, 1, *, 1, *, *, 0, *, *, 1, 0, *, *, 1, *, *, *, *, *, *, *, *, *, 1, 0, *, *, *, *, 1, 0, 1, 0, *, 0, *, 0, 1, *, 1, 0, *, 0, 1, 0, 1, *, 1, 0, 1, 0, *, 0, 1, *, *, 0, 1, *, 1, 0, 1, 0, 1, *, 1, *, 1, 0, *, *, *, 0, 1, 0, *, 0, 1, 0, *, *, 1, *, 1, *, 1, *, *, 0, 1, 0, *, *, 1, 0, *, 0, *, *, 1, *, 1, 0, *, 0, *, 0, 1, *, *, 0, 1, 0, *, *, *, *, 1, 0, *, 0, 1, 0, *, *, 1, 0, 1, *, *, *, *, 0, *, 0, *, 0, 1, 0, *, 0, 1, *, *, *, 1, 0, 1, 0, 1, 0, 1, 0, *, 0, *, 0, 1, 0, 1, *, 1, *, 1, *, *, 0, 1, 0, 1, 0, *, *, *, 0, 1, 0, *, 0, 1, 0, *, *, *, 0, *, 0, 1, *, *, 0, *, *, *, 0, *, 0, *, *, *, 0, *, 0, 1, *, *, *, *, 0, 1, *, *, 0, *, *, *, 0, *, 0, *, *, *, *, 1, *, 1, 0, 1, 0, 1, 0, *, *, *, *, 1, 0, 1, 0, *, 0, *, *, *, *, *, 0, 1, 0, 1, 0, 1, 0, 1, *, 1, *, *, 0, 1, *, 1, *, *, *, *, 0, *, *, 1, *, *, 0, 1, 0, 1, 0, 1, 0, 1, 0, 1, *, *, 0, 1, 0, 1, *, 1, 0, *, *, *, *, *, 0, 1, 0, 1, *, 1, 0, 1, *, *, 0, *, 0, *, 0, *, 0, 1, *, 1, 0, 1, 0, *, 0, *, *, 1, *, 1, *, *, *, *, *, *, *, 1, 0, *, 0, *, *, 1, *, 1, *, 1, *, 1, 0, *, 0, 1, 0, *, 0, *, *, 1, *, *, 0, *, 0, *, 0, 1, *, 1, 0, 1, 0, 1, *, 1, 0, 1, 0, *, 0, *, *, *, *, *, *, *, *, *, *, 1, 0, *, *, 1, *, 1, 0, *, 0, 1, 0, *, 0, 1, 0, 1, *, 1, 0, *, *, 1, *, *, *, *, 0, *, 0, *, *, *, 0, 1, *, 1, *, *, 0, *, *, *, 0, *, 0, *, *, *, *, 1, *, *, 0, *, 0, 1, *, *, 0, 1, *, 1, 0, *, *, 1, 0, 1, 0, *, 0, 1, *, *, *, *, 0, *, 0, 1, 0, *, 0, 1, *, *, *, *, *, 1, *, *, 0, *, 0, *, 0, *, *, 1, *, 1, *, *, *, *, 0, *, 0, *, 0, *, 0, *, 0, 1, 0, *, 0, *, *, 1, *, *, 0, 1, *, *, 0, *, *, *, *, *, *, *, *, *, 0, 1, *, *, *, *, 0, 1, 0, 1, *, 1, *, 1, 0, *, 0, 1, *, 1, 0, 1, 0, *, 0, 1, 0, 1, *, 1, 0, *, *, 1, 0, *, 0, 1, 0, 1, 0, *, 0, *, 0, 1, *, *, *, 1, 0, 1, *, 1, 0, 1, *, *, 0, *, 0, *, 0, *, *, 1, 0, 1, *, *, 0, 1, *, 1, *, *, 0, *, 0, 1, *, 1, *, 1, 0, *, *, 1, 0, 1, *, *, *, *, 0, 1, *, 1, 0, 1, *, *, 0, 1, 0, *, *, *, *, 1, *, 1, *, 1, 0, 1, *, 1, 0, *, *, *, 0, 1, 0, 1, 0, 1, 0, 1, *, 1, *, 1, 0, 1, 0, *, 0, *, 0, *, *, 1, 0, 1, 0, 1, *, *, *, 1, 0, 1, *, 1, 0, 1, *, *, *, 1, *, 1, 0, *, *, 1, *, *, *, 1, *, 1, *, *, *, 1, *, 1, 0, *, *, *, *, 1, 0, *, *, 1, *, *, *, 1, *, 1, *, *, *, *, 0, *, 0, 1, 0, 1, 0, 1, *, *, *, *, 0, 1, 0, 1, *, 1, *, *, *, *, *, 1, 0, 1, 0, 1, 0, 1, 0, *, 0, *, *, 1, 0, *, 0, *, *, *, *, 1, *, *, 0, *, *, 1, 0, 1, 0, 1, 0, 1, 0, 1, 0, *, *, 1, 0, 1, 0, *, 0, 1, *, *, *, *, *, 1, 0, 1, 0, *, 0, 1, 0, *, *, 1, *, 1, *, 1, *, 1, 0, *, 0, 1, 0, 1, *, 1, *, *, 0, *, 0, *, *, *, *, *, *, *, 0, 1, *, 1, *, *, 0, *, 0, *, 0, *, 0, 1, *, 1, 0, 1, *, 1, *, *, 0, *, *, 1, *, 1, *, 1, 0, *, 0, 1, 0, 1, 0, *, 0, 1, 0, 1, *, 1, *, *, *, *, *, *, *, *, *, *, 0, 1, *, *, 0, *, 0, 1, *, 1, 0, 1, *, 1, 0, 1, 0, *, 0, 1, *, *, 0, *, *, *, *, 1, *, 1, *, *, *, 1, 0, *, 0, *, *, 1, *, *, *, 1, *, 1, *, *, *, *, 0, *, *, 1, *, 1, 0, *, *, 1, 0, *, 0, 1, *, *, 0, 1, 0, 1, *, 1, 0, *, *, *, *, 1, *, 1, 0, 1, *, 1, 0, *, *, *, *, *, 0, *, *, 1, *, 1, *, 1, *, *, 0, *, 0, *, *, *, *, 1, *, 1, *, 1, *, 1, *, 1, 0, 1, *, 1, *, *, 0, *, *, 1, 0, *, *, 1, *, *, *, *, *, *, *, *, *, 1, 0, *, *, *, *, 1, 0, 1, 0, *, 0, *, 0, 1, *, 1, 0, *, 0, 1, 0, 1, *, 1, 0, 1, 0, *, 0, 1, *, *, 0, 1, *, 1, 0, 1, 0, 1, *, 1, *, 1, 0, *, *, *, 0, 1, 0, *, 0, 1, 0, *, *, 1, *, 1, *, 1, *, *, 0, 1, 0, *, *, 1, 0, *, 0, *, *, 1, *, 1, 0, *, 0, *, 0, 1, *, *, 0, 1, 0, *, *, *, *, 1, 0, *, 0, 1, 0, *, *, 1, 0, 1, *, *, *, *, 0, *, 0, *, 0, 1, 0, *, 0, 1, *, *, *, 1, 0, 1, 0, 1, 0, 1, 0, *, 0, *, 0, 1, 0, 1, *, 1, *, 1, *, *, 0, 1, 0, 1, 0, *, *, *, 0, 1, 0, *, 0, 1, 0, *, *, *, 0, *, 0, 1, *, *, 0, *, *, *, 0, *, 0, *, *, *, 0, *, 0, 1, *, *, *, *, 0, 1, *, *, 0, *, *, *, 0, *, 0, *, *, *, *, 1, *, 1, 0, 1, 0, 1, 0, *, *, *, *, 1, 0, 1, 0, *, 0, *, *, *, *, *, 0, 1, 0, 1, 0, 1, 0, 1, *, 1, *, *, 0, 1, *, 1, *, *, *, *, 0, *, *, 1, *, *, 0, 1, 0, 1, 0, 1, 0, 1, 0, 1, *, *, 0, 1, 0, 1, *, 1, 0, *, *, *, *, *, 0, 1, 0, 1, *, 1, 0, 1, *, *, 0, *, 0, *, 0, *, 0, 1, *, 1, 0, 1, 0, *, 0, *, *, 1, *, 1, *, *, *, *, *, *, *, 1, 0, *, 0, *, *, 1, *, 1, *, 1, *, 1, 0, *, 0, 1, 0, *, 0, *, *, 1, *, *, 0, *, 0, *, 0, 1, *, 1, 0, 1, 0, 1, *, 1, 0, 1, 0, *, 0, *, *, *, *, *, *, *, *, *, *, 1, 0, *, *, 1, *, 1, 0, *, 0, 1, 0, *, 0, 1, 0, 1, *, 1, 0, *, *, 1, *, *, *, *, 0, *, 0, *, *, *, 0, 1, *, 1, *, *, 0, *, *, *, 0, *, 0, *, *, *, *, 1, *, *, 0, *, 0, 1, *, *, 0, 1, *, 1, 0, *, *, 1, 0, 1, 0, *, 0, 1, *, *, *, *, 0, *, 0, 1, 0, *, 0, 1, *, *, *, *, *, 1, *, *, 0, *, 0, *, 0, *, *, 1, *, 1, *, *, *, *, 0, *, 0, *, 0, *, 0, *, 0, 1, 0, *, 0, *, *, 1, *, *, 0, 1, *, *, 0, *, *, *, *, *, *, *, *, *, 0, 1, *, *, *, *, 0, 1, 0, 1, *, 1, *, 1, 0, *, 0, 1, *, 1, 0, 1, 0, *, 0, 1, 0, 1, *, 1, 0, *, *, 1, 0, *, 0, 1, 0, 1, 0, *, 0, *, 0, 1, *, *, *, 1, 0, 1, *, 1, 0, 1, *, *, 0, *, 0, *, 0, *, *, 1, 0, 1, *, *, 0, 1, *, 1, *, *, 0, *, 0, 1, *, 1, *, 1, 0, *, *, 1, 0, 1, *, *, *, *, 0, 1, *, 1, 0, 1, *, *, 0, 1, 0, *, *, *, *, 1, *, 1, *, 1, 0, 1, *, 1, 0, *, *, *, 0, 1, 0, 1, 0, 1, 0, 1, *, 1, *, 1, 0, 1, 0, *, 0, *, 0, *, *, 1, 0, 1, 0, 1, *, *, *, 1, 0, 1, *, 1, 0, 1, *, *, *, 1, *, 1, 0, *, *, 1, *, *, *, 1, *, 1, *, *, *, 1, *, 1, 0, *, *, *, *, 1, 0, *, *, 1, *, *, *, 1, *, 1, *, *, *, *, 0, *, 0, 1, 0, 1, 0, 1, *, *, *, *, 0, 1, 0, 1, *, 1, *, *, *, *, *, 1, 0, 1, 0, 1, 0, 
