Number entered was : 573181695279744040722752497796884110821668896088463474796253067616019746208059147411472008371938304999708139847530116878189382292605755823256464766762756966616982842171771354608594096868771461572886697

Primes:
0, 1, 1, 0, 1, 0, 1, 0, 0, 0, 1, 0, 1, 0, 0, 0, 1, 0, 1, 0, 0, 0, 1, 0, 0, 0, 0, 0, 1, 0, 1, 0, 0, 0, 0, 0, 1, 0, 0, 0, 1, 0, 1, 0, 0, 0, 1, 0, 0, 0, 0, 0, 1, 0, 0, 0, 0, 0, 1, 0, 1, 0, 0, 0, 0, 0, 1, 0, 0, 0, 1, 0, 1, 0, 0, 0, 0, 0, 1, 0, 0, 0, 1, 0, 0, 0, 0, 0, 1, 0, 0, 0, 0, 0, 0, 0, 1, 0, 0, 0, 1, 0, 1, 0, 0, 0, 1, 0, 1, 0, 0, 0, 1, 0, 0, 0, 0, 0, 0, 0, 0, 0, 0, 0, 0, 0, 1, 0, 0, 0, 1, 0, 0, 0, 0, 0, 1, 0, 1, 0, 0, 0, 0, 0, 0, 0, 0, 0, 1, 0, 1, 0, 0, 0, 0, 0, 1, 0, 0, 0, 0, 0, 1, 0, 0, 0, 1, 0, 0, 0, 0, 0, 1, 0, 0, 0, 0, 0, 1, 0, 1, 0, 0, 0, 0, 0, 0, 0, 0, 0, 1, 0, 1, 0, 0, 0, 1, 0, 1, 0, 0, 0, 0, 0, 0, 0, 0, 0, 0, 0, 1, 0, 0, 0, 0, 0, 0, 0, 0, 0, 0, 0, 1, 0, 0, 0, 1, 0, 1, 0, 0, 0, 1, 0, 0, 0, 0, 0, 1, 0, 1, 0, 0, 0, 0, 0, 0, 0, 0, 0, 1, 0, 0, 0, 0, 0, 1, 0, 0, 0, 0, 0, 1, 0, 0, 0, 0, 0, 1, 0, 1, 0, 0, 0, 0, 0, 1, 0, 0, 0, 1, 0, 1, 0, 0, 0, 0, 0, 0, 0, 0, 0, 1, 0, 0, 0, 0, 0, 0, 0, 0, 0, 0, 0, 0, 0, 1, 0, 0, 0, 1, 0, 1, 0, 0, 0, 1, 0, 0, 0, 0, 0, 0, 0, 0, 0, 0, 0, 0, 0, 1, 0, 0, 0, 0, 0, 1, 0, 0, 0, 0, 0, 0, 0, 0, 0, 1, 0, 1, 0, 0, 0, 1, 0, 0, 0, 0, 0, 1, 0, 0, 0, 0, 0, 0, 0, 1, 0, 0, 0, 0, 0, 1, 0, 0, 0, 0, 0, 1, 0, 0, 0, 1, 0, 0, 0, 0, 0, 1, 0, 0, 0, 0, 0, 0, 0, 1, 0, 0, 0, 1, 0, 0, 0, 0, 0, 0, 0, 1, 0, 0, 0, 0, 0, 0, 0, 0, 0, 1, 0, 1, 0, 0, 0, 0, 0, 0, 0, 0, 0, 1, 0, 1, 0, 0, 0, 0, 0, 1, 0, 0, 0, 1, 0, 0, 0, 0, 0, 1, 0, 0, 0, 0, 0, 0, 0, 1, 0, 0, 0, 1, 0, 1, 0, 0, 0, 1, 0, 0, 0, 0, 0, 0, 0, 0, 0, 0, 0, 1, 0, 0, 0, 0, 0, 0, 0, 1, 0, 0, 0, 1, 0, 0, 0, 0, 0, 0, 0, 1, 0, 0, 0, 1, 0, 0, 0, 0, 0, 1, 0, 0, 0, 0, 0, 0, 0, 0, 0, 0, 0, 1, 0, 1, 0, 0, 0, 0, 0, 0, 0, 0, 0, 0, 0, 0, 0, 0, 0, 0, 0, 1, 0, 0, 0, 0, 0, 1, 0, 0, 0, 0, 0, 0, 0, 0, 0, 1, 0, 0, 0, 0, 0, 1, 0, 0, 0, 0, 0, 1, 0, 1, 0, 0, 0, 0, 0, 1, 0, 0, 0, 0, 0, 0, 0, 0, 0, 1, 0, 0, 0, 0, 0, 1, 0, 0, 0, 0, 0, 1, 0, 1, 0, 0, 0, 0, 0, 1, 0, 0, 0, 0, 0, 1, 0, 0, 0, 1, 0, 1, 0, 0, 0, 0, 0, 0, 0, 0, 0, 0, 0, 1, 0, 0, 0, 0, 0, 0, 0, 0, 0, 1, 0, 1, 0, 0, 0, 1, 0, 0, 0, 0, 0, 1, 0, 0, 0, 0, 0, 1, 0, 1, 0, 0, 0, 0, 0, 0, 0, 0, 0, 0, 0, 1, 0, 0, 0, 1, 0, 0, 0, 0, 0, 1, 0, 0, 0, 0, 0, 0, 0, 1, 0, 0, 0, 0, 0, 0, 0, 0, 0, 1, 0, 0, 0, 0, 0, 0, 0, 1, 0, 0, 0, 0, 0, 0, 0, 0, 0, 1, 0, 0, 0, 0, 0, 0, 0, 1, 0, 0, 0, 0, 0, 1, 0, 0, 0, 0, 0, 1, 0, 0, 0, 1, 0, 0, 0, 0, 0, 0, 0, 1, 0, 0, 0, 0, 0, 1, 0, 0, 0, 1, 0, 0, 0, 0, 0, 0, 0, 1, 0, 0, 0, 1, 0, 0, 0, 0, 0, 0, 0, 0, 0, 0, 0, 0, 0, 1, 0, 0, 0, 0, 0, 0, 0, 0, 0, 1, 0, 0, 0, 0, 0, 0, 0, 0, 0, 0, 0, 1, 0, 1, 0, 0, 0, 0, 0, 0, 0, 0, 0, 1, 0, 1, 0, 0, 0, 1, 0, 1, 0, 0, 0, 0, 0, 0, 0, 0, 0, 1, 0, 0, 0, 0, 0, 0, 0, 0, 0, 0, 0, 0, 0, 1, 0, 0, 0, 1, 0, 1, 0, 0, 0, 1, 0, 0, 0, 0, 0, 0, 0, 0, 0, 0, 0, 0, 0, 1, 0, 0, 0, 1, 0, 1, 0, 0, 0, 1, 0, 0, 0, 0, 0, 0, 0, 0, 0, 0, 0, 0, 0, 0, 0, 0, 0, 0, 0, 1, 0, 0, 0, 1, 0, 0, 0, 0, 0, 0, 0, 1, 0, 0, 0, 0, 0, 0, 0, 0, 0, 1, 0, 0, 0, 0, 0, 0, 0, 1, 0, 0, 0, 1, 0, 0, 0, 0, 0, 1, 0, 0, 0, 0, 0, 1, 0, 0, 0, 0, 0, 0, 0, 0, 0, 0, 0, 0, 0, 1, 0, 0, 0, 1, 0, 0, 0, 0, 0, 1, 0, 0, 0, 0, 0, 1, 0, 0, 0, 0, 0, 0, 0, 1, 0, 0, 0, 0, 0, 1, 0, 0, 0, 0, 0, 0, 0, 0, 0, 0, 0, 1, 0, 0, 0, 1, 0, 0, 0, 0, 0, 1, 0, 1, 0, 0, 0, 0, 0, 0, 0, 0, 0, 1, 0, 1, 0, 0, 0, 0, 0, 1, 0, 0, 0, 0, 0, 0, 0, 0, 0, 1, 0, 1, 0, 0, 0, 0, 0, 0, 0, 0, 0, 1, 0, 1, 0, 0, 0, 0, 0, 1, 0, 0, 0, 0, 0, 0, 0, 0, 0, 0, 0, 0, 0, 0, 0, 0, 0, 1, 0, 0, 0, 1, 0, 1, 0, 0, 0, 1, 0, 0, 0, 0, 0, 1, 0, 0, 0, 0, 0, 1, 0, 0, 0, 0, 0, 0, 0, 1, 0, 0, 0, 0, 0, 1, 0, 0, 0, 0, 0, 1, 0, 0, 0, 0, 0, 0, 0, 0, 0, 0, 0, 0, 0, 0, 0, 0, 0, 0, 0, 0, 0, 1, 0, 1, 0, 0, 0, 0, 0, 0, 0, 0, 0, 1, 0, 0, 0, 0, 0, 0, 0, 1, 0, 0, 0, 0, 0, 0, 0, 0, 0, 1, 0, 0, 0, 0, 0, 1, 0, 0, 0, 0, 0, 1, 0, 0, 0, 0, 0, 0, 0, 1, 0, 0, 0, 0, 0, 0, 0, 0, 0, 0, 0, 1, 0, 0, 0, 1, 0, 0, 0, 0, 0, 1, 0, 0, 0, 0, 0, 1, 0, 1, 0, 0, 0, 0, 0, 1, 0, 0, 0, 0, 0, 0, 0, 0, 0, 0, 0, 1, 0, 0, 0, 0, 0, 0, 0, 0, 0, 1, 0, 0, 0, 0, 0, 0, 0, 0, 0, 0, 0, 0, 0, 0, 0, 0, 0, 1, 0, 1, 0, 0, 0, 1, 0, 0, 0, 0, 0, 1, 0, 1, 0, 0, 0, 0, 0, 1, 0, 0, 0, 1, 0, 1, 0, 0, 0, 1, 0, 0, 0, 0, 0, 0, 0, 0, 0, 0, 0, 1, 0, 1, 0, 0, 0, 0, 0, 1, 0, 0, 0, 0, 0, 0, 0, 0, 0, 0, 0, 0, 0, 0, 0, 0, 0, 0, 0, 0, 0, 0, 0, 0, 0, 0, 0, 0, 0, 0, 0, 0, 0, 1, 0, 0, 0, 0, 0, 1, 0, 0, 0, 0, 0, 1, 0, 0, 0, 0, 0, 0, 0, 1, 0, 0, 0, 0, 0, 0, 0, 0, 0, 0, 0, 0, 0, 0, 0, 0, 0, 1, 0, 0, 0, 0, 0, 0, 0, 0, 0, 1, 0, 0, 0, 0, 0, 0, 0, 0, 0, 0, 0, 0, 0, 1, 0, 0, 0, 1, 0, 1, 0, 0, 0, 1, 0, 0, 0, 0, 0, 1, 0, 0, 0, 0, 0, 0, 0, 1, 0, 0, 0, 1, 0, 1, 0, 0, 0, 0, 0, 1, 0, 0, 0, 0, 0, 0, 0, 0, 0, 0, 0, 1, 0, 0, 0, 0, 0, 0, 0, 0, 0, 1, 0, 1, 0, 0, 0, 1, 0, 1, 0, 0, 0, 1, 0, 0, 0, 0, 0, 1, 0, 0, 0, 0, 0, 0, 0, 0, 0, 0, 0, 1, 0, 0, 0, 0, 0, 0, 0, 0, 0, 0, 0, 1, 0, 0, 0, 0, 0, 0, 0, 1, 0, 0, 0, 0, 0, 0, 0, 0, 0, 0, 0, 1, 0, 0, 0, 0, 0, 1, 0, 0, 0, 1, 0, 0, 0, 0, 0, 1, 0, 0, 0, 0, 0, 0, 0, 1, 0, 0, 0, 1, 0, 0, 0, 0, 0, 0, 0, 1, 0, 0, 0, 1, 0, 0, 0, 0, 0, 0, 0, 0, 0, 0, 0, 0, 0, 1, 0, 0, 0, 1, 0, 0, 0, 0, 0, 1, 0, 1, 0, 0, 0, 1, 0, 0, 0, 0, 0, 1, 0, 1, 0, 0, 0, 0, 0, 1, 0, 0, 0, 0, 0, 0, 0, 0, 0, 1, 0, 0, 0, 0, 0, 0, 0, 0, 0, 0, 0, 0, 0, 0, 0, 0, 0, 0, 0, 1, 0, 0, 0, 0, 0, 1, 0, 0, 0, 1, 0, 1, 0, 0, 0, 0, 0, 0, 0, 0, 0, 0, 0, 0, 0, 0, 0, 0, 0, 0, 0, 0, 0, 0, 0, 1, 0, 0, 0, 1, 0, 1, 0, 0, 0, 0, 0, 0, 0, 0, 0, 1, 0, 0, 0, 0, 0, 0, 0, 0, 0, 0, 0, 1, 0, 1, 0, 0, 0, 0, 0, 0, 0, 0, 0, 1, 0, 0, 0, 0, 0, 0, 0, 1, 0, 0, 0, 0, 0, 1, 0, 0, 0, 0, 0, 1, 0, 0, 0, 0, 0, 1, 0, 0, 0, 0, 0, 0, 0, 0, 0, 0, 0, 0, 0, 0, 0, 0, 0, 1, 0, 0, 0, 0, 0, 1, 0, 0, 0, 1, 0, 1, 0, 0, 0, 0, 0, 0, 0, 0, 0, 0, 0, 1, 0, 0, 0, 0, 0, 0, 0, 0, 0, 1, 0, 0, 0, 0, 0, 0, 0, 0, 0, 0, 0, 1, 0, 0, 0, 0, 0, 0, 0, 1, 0, 0, 0, 0, 0, 0, 0, 0, 0, 0, 0, 0, 0, 0, 0, 1, 0, 0, 0, 0, 0, 0, 0, 0, 0, 0, 0, 0, 0, 1, 0, 0, 0, 0, 0, 1, 0, 0, 0, 1, 0, 1, 0, 0, 0, 1, 0, 1, 0, 0, 0, 0, 0, 0, 0, 0, 0, 1, 0, 0, 0, 0, 0, 0, 0, 0, 0, 0, 0, 1, 0, 0, 0, 0, 0, 1, 0, 0, 0, 0, 0, 1, 0, 0, 0, 0, 0, 0, 0, 0, 0, 0, 0, 0, 0, 0, 0, 0, 0, 1, 0, 1, 0, 0, 0, 0, 0, 0, 0, 0, 0, 0, 0, 0, 0, 0, 0, 1, 0, 1, 0, 0, 0, 0, 0, 0, 0, 0, 0, 0, 0, 0, 0, 0, 0, 0, 0, 0, 0, 0, 0, 1, 0, 0, 0, 0, 0, 1, 0, 0, 0, 0, 0, 0, 0, 1, 0, 0, 0, 0, 0, 1, 0, 0, 0, 1, 0, 1, 0, 0, 0, 1, 0, 0, 0, 0, 0, 0, 0, 1, 0, 0, 0, 0, 0, 1, 0, 0, 0, 0, 0, 0, 0, 0, 0, 1, 0, 1, 0, 0, 0, 0, 0, 0, 0, 0, 0, 1, 0, 0, 0, 0, 0, 0, 0, 0, 0, 0, 0, 0, 0, 1, 0, 0, 0, 0, 0, 0, 0, 0, 0, 1, 0, 0, 0, 0, 0, 1, 0, 0, 0, 0, 0, 0, 0, 0, 0, 0, 0, 1, 0, 1, 0, 0, 0, 1, 0, 1, 0, 0, 0, 0, 0, 0, 0, 0, 0, 1, 0, 0, 0, 0, 0, 0, 0, 0, 0, 0, 0, 1, 0, 1, 0, 0, 0, 0, 0, 0, 0, 0, 0, 0, 0, 0, 0, 0, 0, 1, 0, 1, 0, 0, 0, 0, 0, 1, 0, 0, 0, 1, 0, 1, 0, 0, 0, 0, 0, 0, 0, 0, 0, 1, 0, 0, 0, 0, 0, 0, 0, 1, 0, 0, 0, 0, 0, 0, 0, 0, 0, 0, 0, 0, 0, 0, 0, 0, 0, 1, 0, 0, 0, 0, 0, 0, 0, 0, 0, 0, 0, 0, 0, 0, 0, 0, 0, 0, 0, 0, 0, 0, 0, 1, 0, 0, 0, 1, 0, 0, 0, 0, 0, 1, 0, 0, 0, 0, 0, 0, 0, 1, 0, 0, 0, 0, 0, 0, 0, 0, 0, 0, 0, 0, 0, 0, 0, 1, 0, 1, 0, 0, 0, 1, 0, 0, 0, 0, 0, 0, 0, 1, 0, 0, 0, 0, 0, 0, 0, 0, 0, 0, 0, 0, 0, 0, 0, 1, 0, 1, 0, 0, 0, 1, 0, 0, 0, 0, 0, 0, 0, 1, 0, 0, 0, 0, 0, 1, 0, 0, 0, 0, 0, 1, 0, 0, 0, 1, 0, 0, 0, 0, 0, 0, 0, 0, 0, 0, 0, 1, 0, 1, 0, 0, 0, 0, 0, 0, 0, 0, 0, 0, 0, 0, 0, 0, 0, 0, 0, 0, 0, 0, 0, 1, 0, 0, 0, 0, 0, 1, 0, 1, 0, 0, 0, 0, 0, 1, 0, 0, 0, 1, 0, 0, 0, 0, 0, 1, 0, 0, 0, 0, 0, 0, 0, 0, 0, 0, 0, 0, 0, 1, 0, 0, 0, 0, 0, 1, 0, 0, 0, 1, 0, 1, 0, 0, 0, 0, 0, 1, 0, 0, 0, 1, 0, 0, 0, 0, 0, 1, 0, 0, 0, 0, 0, 0, 0, 0, 0, 0, 0, 1, 0, 0, 0, 0, 0, 1, 0, 0, 0, 0, 0, 1, 0, 0, 0, 0, 0, 0, 0, 0, 0, 0, 0, 0, 0, 1, 0, 0, 0, 1, 0, 0, 0, 0, 0, 1, 0, 0, 0, 0, 0, 0, 0, 0, 0, 0, 0, 1, 0, 0, 0, 0, 0, 0, 0, 1, 0, 0, 0, 0, 0, 1, 0, 0, 0, 1, 0, 0, 0, 0, 0, 0, 0, 0, 0, 0, 0, 0, 0, 0, 0, 0, 0, 0, 0, 0, 0, 0, 0, 0, 0, 1, 0, 0, 0, 0, 0, 0, 0, 0, 0, 0, 0, 0, 0, 0, 0, 0, 0, 1, 0, 0, 0, 0, 0, 0, 0, 0, 0, 1, 0, 0, 0, 0, 0, 0, 0, 1, 0, 0, 0, 1, 0, 0, 0, 0, 0, 1, 0, 1, 0, 0, 0, 0, 0, 1, 0, 0, 0, 0, 0, 0, 0, 0, 0, 0, 0, 0, 0, 0, 0, 0, 0, 0, 0, 0, 0, 1, 0, 0, 0, 0, 0, 0, 0, 0, 0, 0, 0, 1, 0, 1, 0, 0, 0, 0, 0, 0, 0, 0, 0, 0, 0, 0, 0, 0, 0, 1, 0, 0, 0, 0, 0, 0, 0, 1, 0, 0, 0, 1, 0, 0, 0, 0, 0, 0, 0, 0, 0, 0, 0, 1, 0, 0, 0, 0, 0, 0, 0, 0, 0, 0, 0, 0, 0, 1, 0, 0, 0, 0, 0, 0, 0, 0, 0, 1, 0, 1, 0, 0, 0, 1, 0, 0, 0, 0, 0, 0, 0, 1, 0, 0, 0, 0, 0, 1, 0, 0, 0, 0, 0, 1, 0, 0, 0, 1, 0, 1, 0, 0, 0, 1, 0, 0, 0, 0, 0, 1, 0, 0, 0, 0, 0, 0, 0, 1, 0, 0, 0, 1, 0, 1, 0, 0, 0, 0, 0, 1, 0, 0, 0, 0, 0, 0, 0, 0, 0, 1, 0, 1, 0, 0, 0, 0, 0, 0, 0, 0, 0, 1, 0, 0, 0, 0, 0, 0, 0, 1, 0, 0, 0, 1, 0, 0, 0, 0, 0, 0, 0, 0, 0, 0, 0, 0, 0, 1, 0, 0, 0, 0, 0, 0, 0, 0, 0, 1, 0, 0, 0, 0, 0, 0, 0, 0, 0, 0, 0, 1, 0, 1, 0, 0, 0, 0, 0, 1, 0, 0, 0, 1, 0, 1, 0, 0, 0, 0, 0, 0, 0, 0, 0, 0, 0, 0, 0, 0, 0, 1, 0, 0, 0, 0, 0, 0, 0, 0, 0, 0, 0, 0, 0, 1, 0, 0, 0, 1, 0, 0, 0, 0, 0, 1, 0, 0, 0, 0, 0, 0, 0, 1, 0, 0, 0, 0, 0, 1, 0, 0, 0, 1, 0, 0, 0, 0, 0, 0, 0, 0, 0, 0, 0, 0, 0, 0, 0, 0, 0, 1, 0, 0, 0, 0, 0, 0, 0, 1, 0, 0, 0, 0, 0, 0, 0, 0, 0, 1, 0, 0, 0, 0, 0, 1, 0, 0, 0, 0, 0, 1, 0, 0, 0, 0, 0, 0, 0, 1, 0, 0, 0, 0, 0, 0, 0, 0, 0, 1, 0, 0, 0, 0, 0, 0, 0, 0, 0, 0, 0, 1, 0, 0, 0, 0, 0, 0, 0, 0, 0, 0, 0, 0, 0, 1, 0, 0, 0, 1, 0, 0, 0, 0, 0, 1, 0, 0, 0, 0, 0, 1, 0, 1, 0, 0, 0, 0, 0, 0, 0, 0, 0, 0, 0, 0, 0, 0, 0, 0, 0, 0, 0, 0, 0, 0, 0, 0, 0, 0, 0, 1, 0, 1, 0, 0, 0, 0, 0, 0, 0, 0, 0, 1, 0, 0, 0, 0, 0, 0, 0, 1, 0, 0, 0, 1, 0, 0, 0, 0, 0, 0, 0, 0, 0, 0, 0, 0, 0, 1, 0, 0, 0, 1, 0, 0, 0, 0, 0, 0, 0, 1, 0, 0, 0, 0, 0, 0, 0, 0, 0, 0, 0, 1, 0, 0, 0, 0, 0, 1, 0, 0, 0, 0, 0, 0, 0, 0, 0, 0, 0, 1, 0, 0, 0, 1, 0, 0, 0, 0, 0, 1, 0, 0, 0, 0, 0, 0, 0, 0, 0, 0, 0, 0, 0, 0, 0, 0, 0, 0, 0, 1, 0, 0, 0, 0, 0, 0, 0, 0, 0, 1, 0, 1, 0, 0, 0, 0, 0, 0, 0, 0, 0, 0, 0, 0, 0, 0, 0, 1, 0, 0, 0, 0, 0, 0, 0, 0, 0, 0, 0, 0, 0, 0, 0, 0, 0, 0, 0, 0, 0, 0, 0, 0, 0, 1, 0, 0, 0, 1, 0, 1, 0, 0, 0, 0, 0, 0, 0, 0, 0, 0, 0, 1, 0, 0, 0, 0, 0, 1, 0, 0, 0, 1, 0, 0, 0, 0, 0, 0, 0, 0, 0, 0, 0, 1, 0, 0, 0, 0, 0, 1, 0, 0, 0, 0, 0, 0, 0, 1, 0, 0, 0, 1, 0, 0, 0, 0, 0, 0, 0, 1, 0, 0, 0, 0, 0, 0, 0, 0, 0, 0, 0, 0, 0, 0, 0, 0, 0, 0, 0, 0, 0, 1, 0, 1, 0, 0, 0, 1, 0, 1, 0, 0, 0, 0, 0, 0, 0, 0, 0, 0, 0, 1, 0, 0, 0, 0, 0, 0, 0, 0, 0, 0, 0, 0, 0, 0, 0, 0, 0, 0, 0, 0, 0, 0, 0, 0, 0, 0, 0, 1, 0, 1, 0, 0, 0, 0, 0, 1, 0, 0, 0, 0, 0, 1, 0, 0, 0, 0, 0, 1, 0, 0, 0, 1, 0, 0, 0, 0, 0, 1, 0, 1, 0, 0, 0, 0, 0, 0, 0, 0, 0, 0, 0, 1, 0, 0, 0, 1, 0, 0, 0, 0, 0, 0, 0, 0, 0, 0, 0, 1, 0, 1, 0, 0, 0, 0, 0, 0, 0, 0, 0, 1, 0, 1, 0, 0, 0, 0, 0, 0, 0, 0, 0, 0, 0, 0, 0, 0, 0, 1, 0, 1, 0, 0, 0, 0, 0, 0, 0, 0, 0, 0, 0, 0, 0, 0, 0, 1, 0, 0, 0, 0, 0, 1, 0, 0, 0, 0, 0, 0, 0, 0, 0, 0, 0, 0, 0, 0, 0, 0, 0, 0, 0, 1, 0, 0, 0, 0, 0, 0, 0, 0, 0, 0, 0, 0, 0, 0, 0, 1, 0, 0, 0, 0, 0, 0, 0, 1, 0, 0, 0, 1, 0, 1, 0, 0, 0, 1, 0, 1, 0, 0, 0, 0, 0, 0, 0, 0, 0, 0, 0, 0, 0, 0, 0, 0, 0, 0, 0, 0, 0, 1, 0, 0, 0, 0, 0, 0, 0, 1, 0, 0, 0, 0, 0, 0, 0, 0, 0, 0, 0, 1, 0, 0, 0, 0, 0, 1, 0, 0, 0, 0, 0, 0, 0, 0, 0, 1, 0, 1, 0, 0, 0, 1, 0, 0, 0, 0, 0, 1, 0, 1, 0, 0, 0, 0, 0, 1, 0, 0, 0, 0, 0, 0, 0, 0, 0, 1, 0, 1, 0, 0, 0, 0, 0, 0, 0, 0, 0, 0, 0, 1, 0, 0, 0, 0, 0, 0, 0, 0, 0, 1, 0, 1, 0, 0, 0, 0, 0, 0, 0, 0, 0, 1, 0, 0, 0, 0, 0, 0, 0, 0, 0, 0, 0, 0, 0, 1, 0, 0, 0, 0, 0, 1, 0, 0, 0, 1, 0, 0, 0, 0, 0, 1, 0, 0, 0, 0, 0, 0, 0, 1, 0, 0, 0, 0, 0, 1, 0, 0, 0, 0, 0, 1, 0, 0, 0, 0, 0, 0, 0, 0, 0, 0, 0, 0, 0, 0, 0, 1, 0, 0, 0, 0, 0, 0, 0, 0, 0, 0, 0, 1, 0, 1, 0, 0, 0, 1, 0, 0, 0, 0, 0, 0, 0, 0, 0, 0, 0, 0, 0, 1, 0, 0, 0, 0, 0, 1, 0, 0, 0, 1, 0, 0, 0, 0, 0, 0, 0, 1, 0, 0, 0, 0, 0, 0, 0, 0, 0, 1, 0, 0, 0, 0, 0, 0, 0, 1, 0, 0, 0, 0, 0, 1, 0, 0, 0, 0, 0, 1, 0, 0, 0, 0, 0, 0, 0, 0, 0, 0, 0, 0, 0, 0, 0, 0, 0, 0, 0, 0, 0, 1, 0, 0, 0, 0, 0, 1, 0, 1, 0, 0, 0, 0, 0, 0, 0, 0, 0, 1, 0, 0, 0, 0, 0, 0, 0, 0, 0, 0, 0, 0, 0, 1, 0, 0, 0, 1, 0, 0, 0, 0, 0, 1, 0, 0, 0, 0, 0, 0, 0, 0, 0, 0, 0, 0, 0, 0, 0, 0, 0, 1, 0, 1, 0, 0, 0, 0, 0, 0, 0, 0, 0, 1, 0, 0, 0, 0, 0, 0, 0, 0, 0, 0, 0, 0, 0, 1, 0, 0, 0, 1, 0, 1, 0, 0, 0, 0, 0, 0, 0, 0, 0, 1, 0, 0, 0, 0, 0, 0, 0, 0, 0, 0, 0, 0, 0, 1, 0, 0, 0, 1, 0, 0, 0, 0, 0, 0, 0, 1, 0, 0, 0, 0, 0, 0, 0, 0, 0, 0, 0, 0, 0, 0, 0, 0, 0, 1, 0, 0, 0, 1, 0, 0, 0, 0, 0, 1, 0, 1, 0, 0, 0, 1, 0, 0, 0, 0, 0, 1, 0, 1, 0, 0, 0, 0, 0, 0, 0, 0, 0, 0, 0, 1, 0, 0, 0, 1, 0, 0, 0, 0, 0, 0, 0, 0, 0, 0, 0, 0, 0, 0, 0, 0, 0, 0, 0, 1, 0, 0, 0, 0, 0, 0, 0, 0, 0, 0, 0, 0, 0, 0, 0, 0, 0, 0, 0, 0, 0, 1, 0, 0, 0, 0, 0, 0, 0, 0, 0, 0, 0, 
Factors:
1, 0, 1, *, *, *, *, *, *, 0, *, *, *, *, *, *, 1, *, 1, *, 1, 0, *, 0, *, *, *, *, *, 0, 1, *, *, *, 1, 0, 1, 0, *, 0, 1, 0, 1, *, 1, *, 1, 0, *, 0, 1, 0, 1, *, 1, *, *, 0, 1, 0, *, *, 1, *, *, *, *, *, 1, 0, 1, *, *, *, 1, 0, *, *, 1, *, 1, 0, *, 0, *, 0, *, 0, *, *, *, 0, 1, *, 1, 0, 1, 0, *, *, *, 0, *, *, *, 0, 1, *, *, *, *, *, 1, 0, *, 0, 1, *, 1, 0, *, *, 1, *, *, 0, 1, 0, *, *, 1, *, 1, 0, 1, 0, 1, 0, 1, *, 1, *, 1, 0, 1, 0, 1, *, 1, 0, *, *, *, *, 1, *, *, 0, 1, *, *, 0, 1, 0, *, *, 1, *, *, 0, *, *, 1, 0, *, *, *, 0, *, 0, *, 0, 1, *, 1, 0, *, *, 1, *, *, *, 1, *, *, *, 1, *, *, 0, 1, *, 1, *, *, *, *, *, *, *, 1, 0, 1, 0, *, 0, *, 0, *, 0, *, *, *, 0, *, 0, *, *, *, 0, 1, 0, 1, *, *, *, *, *, *, 0, 1, 0, *, *, *, *, 1, 0, 1, 0, *, 0, 1, *, 1, *, *, *, 1, *, 1, 0, *, 0, 1, *, *, *, 1, 0, *, 0, 1, *, *, 0, *, *, *, 0, 1, 0, *, *, 1, *, *, *, *, 0, *, *, 1, 0, *, *, *, *, *, *, 1, *, 1, *, 1, 0, 1, 0, *, 0, *, 0, *, 0, *, *, *, 0, *, *, 1, *, 1, *, 1, 0, *, 0, *, 0, 1, 0, *, *, 1, 0, 1, 0, 1, *, 1, 0, 1, *, *, *, *, *, 1, 0, 1, *, 1, *, 1, *, 1, *, *, *, 1, 0, 1, 0, *, *, *, 0, 1, *, 1, *, *, *, 1, 0, *, 0, 1, 0, 1, 0, *, *, 1, *, 1, *, *, *, *, 0, 1, 0, 1, 0, 1, 0, 1, *, *, *, 1, *, *, *, *, *, *, 0, *, *, *, *, *, 0, 1, *, 1, 0, 1, 0, *, *, *, 0, 1, *, *, 0, 1, *, 1, 0, 1, 0, 1, *, *, *, *, 0, 1, 0, 1, 0, *, 0, 1, 0, *, 0, *, *, 1, *, *, 0, *, *, *, *, 1, *, 1, 0, 1, *, 1, 0, *, *, *, 0, 1, 0, *, *, *, 0, 1, *, *, 0, *, *, *, *, 1, *, *, 0, 1, 0, 1, 0, 1, *, 1, 0, *, *, *, 0, 1, 0, *, *, *, 0, 1, *, 1, *, *, *, *, 0, *, 0, *, 0, 1, *, *, 0, 1, 0, *, *, 1, *, *, *, 1, *, 1, 0, *, 0, 1, 0, 1, 0, 1, 0, *, 0, *, *, 1, 0, 1, *, 1, 0, 1, *, *, 0, 1, 0, 1, *, 1, *, 1, *, 1, *, *, *, 1, *, 1, 0, *, *, 1, 0, *, 0, 1, *, 1, 0, *, *, *, *, *, *, 1, 0, 1, 0, *, 0, *, *, *, 0, *, 0, 1, *, *, *, *, 0, 1, *, *, *, *, *, 1, 0, 1, 0, 1, 0, 1, *, 1, *, *, *, *, *, 1, 0, *, *, *, *, *, 0, 1, 0, *, *, 1, 0, 1, *, 1, 0, 1, *, 1, 0, *, 0, *, 0, *, 0, *, *, 1, 0, *, *, 1, *, *, *, *, *, 1, 0, 1, 0, 1, 0, *, 0, 1, 0, 1, 0, 1, *, 1, *, 1, *, *, 0, *, 0, 1, 0, 1, 0, *, *, 1, 0, 1, *, *, *, *, 0, *, *, *, *, 1, *, 1, *, *, 0, *, *, *, *, 1, *, 1, 0, *, *, *, 0, 1, *, 1, 0, 1, 0, 1, *, *, *, 1, 0, 1, *, *, 0, 1, *, 1, *, *, 0, *, 0, *, 0, *, 0, 1, 0, *, *, 1, *, *, *, *, 0, 1, 0, *, 0, 1, 0, *, *, 1, 0, 1, 0, 1, *, *, 0, *, *, 1, *, *, 0, 1, *, 1, 0, *, *, *, 0, 1, *, 1, *, *, *, *, *, *, *, 1, *, 1, *, *, *, *, *, 1, *, *, 0, 1, 0, 1, *, 1, 0, *, *, 1, 0, *, *, *, 0, 1, *, 1, 0, *, 0, 1, *, *, 0, 1, 0, *, 0, *, 0, *, *, 1, *, *, 0, 1, *, 1, 0, 1, *, 1, 0, 1, *, 1, 0, *, *, 1, *, 1, 0, 1, 0, 1, 0, 1, *, *, *, *, 0, *, 0, *, 0, *, 0, 1, 0, *, 0, *, 0, 1, 0, *, *, *, *, 1, 0, 1, 0, 1, 0, *, *, *, 0, 1, 0, 1, *, *, *, *, 0, *, *, 1, *, 1, 0, 1, *, 1, *, *, 0, *, *, 1, 0, 1, *, *, 0, *, *, 1, 0, *, 0, 1, 0, *, *, *, 0, 1, *, 1, 0, 1, 0, *, 0, 1, *, *, 0, 1, 0, 1, 0, 1, *, 1, *, 1, *, *, *, *, 0, *, 0, *, 0, *, 0, 1, 0, *, 0, 1, *, 1, *, 1, *, *, 0, *, 0, *, *, *, 0, 1, *, *, *, *, *, 1, *, *, *, 1, 0, 1, 0, 1, *, *, *, 1, *, 1, *, 1, *, 1, 0, 1, *, *, *, *, 0, 1, 0, *, *, 1, *, 1, 0, 1, *, *, 0, *, *, *, *, *, 0, 1, *, 1, *, 1, 0, 1, 0, *, *, *, *, *, *, *, *, 1, 0, 1, *, 1, 0, 1, 0, 1, 0, *, 0, 1, 0, 1, 0, *, *, 1, *, *, *, *, 0, 1, 0, *, *, 1, 0, *, *, 1, *, *, *, *, *, 1, 0, 1, 0, *, *, *, *, *, 0, *, *, *, 0, *, 0, 1, *, 1, 0, *, 0, 1, 0, 1, *, 1, *, *, *, 1, *, *, 0, 1, 0, *, *, *, 0, 1, 0, *, *, 1, 0, *, 0, 1, 0, 1, *, 1, 0, *, *, *, *, *, *, 1, *, *, 0, 1, 0, *, *, *, 0, 1, 0, *, *, 1, *, 1, 0, 1, 0, *, 0, *, 0, *, *, 1, 0, *, *, *, 0, 1, *, 1, 0, 1, *, 1, *, *, 0, *, *, *, *, *, *, *, 0, *, 0, 1, *, *, *, 1, *, *, *, 1, 0, *, *, *, *, 1, *, 1, *, 1, *, 1, 0, 1, *, 1, *, *, 0, 1, *, *, 0, *, *, 1, *, *, 0, 1, 0, 1, 0, 1, *, *, *, *, 0, *, 0, 1, 0, *, 0, *, *, 1, 0, 1, 0, *, *, 1, 0, 1, 0, 1, *, *, *, *, *, *, *, 1, *, 1, 0, 1, 0, 1, *, *, 0, 1, 0, 1, 0, *, *, *, 0, 1, *, *, *, 1, *, *, *, 1, *, *, 0, *, 0, *, 0, *, 0, 1, *, *, 0, 1, *, 1, 0, 1, 0, 1, *, *, *, *, *, *, 0, *, *, *, *, *, *, 1, *, 1, *, 1, 0, *, 0, *, *, *, *, *, 0, 1, *, *, *, 1, 0, 1, 0, *, 0, 1, 0, 1, *, 1, *, 1, 0, *, 0, 1, 0, 1, *, 1, *, *, 0, 1, 0, *, *, 1, *, *, *, *, *, 1, 0, 1, *, *, *, 1, 0, *, *, 1, *, 1, 0, *, 0, *, 0, *, 0, *, *, *, 0, 1, *, 1, 0, 1, 0, *, *, *, 0, *, *, *, 0, 1, *, *, *, *, *, 1, 0, *, 0, 1, *, 1, 0, *, *, 1, *, *, 0, 1, 0, *, *, 1, *, 1, 0, 1, 0, 1, 0, 1, *, 1, *, 1, 0, 1, 0, 1, *, 1, 0, *, *, *, *, 1, *, *, 0, 1, *, *, 0, 1, 0, *, *, 1, *, *, 0, *, *, 1, 0, *, *, *, 0, *, 0, *, 0, 1, *, 1, 0, *, *, 1, *, *, *, 1, *, *, *, 1, *, *, 0, 1, *, 1, *, *, *, *, *, *, *, 1, 0, 1, 0, *, 0, *, 0, *, 0, *, *, *, 0, *, 0, *, *, *, 0, 1, 0, 1, *, *, *, *, *, *, 0, 1, 0, *, *, *, *, 1, 0, 1, 0, *, 0, 1, *, 1, *, *, *, 1, *, 1, 0, *, 0, 1, *, *, *, 1, 0, *, 0, 1, *, *, 0, *, *, *, 0, 1, 0, *, *, 1, *, *, *, *, 0, *, *, 1, 0, *, *, *, *, *, *, 1, *, 1, *, 1, 0, 1, 0, *, 0, *, 0, *, 0, *, *, *, 0, *, *, 1, *, 1, *, 1, 0, *, 0, *, 0, 1, 0, *, *, 1, 0, 1, 0, 1, *, 1, 0, 1, *, *, *, *, *, 1, 0, 1, *, 1, *, 1, *, 1, *, *, *, 1, 0, 1, 0, *, *, *, 0, 1, *, 1, *, *, *, 1, 0, *, 0, 1, 0, 1, 0, *, *, 1, *, 1, *, *, *, *, 0, 1, 0, 1, 0, 1, 0, 1, *, *, *, 1, *, *, *, *, *, *, 0, *, *, *, *, *, 0, 1, *, 1, 0, 1, 0, *, *, *, 0, 1, *, *, 0, 1, *, 1, 0, 1, 0, 1, *, *, *, *, 0, 1, 0, 1, 0, *, 0, 1, 0, *, 0, *, *, 1, *, *, 0, *, *, *, *, 1, *, 1, 0, 1, *, 1, 0, *, *, *, 0, 1, 0, *, *, *, 0, 1, *, *, 0, *, *, *, *, 1, *, *, 0, 1, 0, 1, 0, 1, *, 1, 0, *, *, *, 0, 1, 0, *, *, *, 0, 1, *, 1, *, *, *, *, 0, *, 0, *, 0, 1, *, *, 0, 1, 0, *, *, 1, *, *, *, 1, *, 1, 0, *, 0, 1, 0, 1, 0, 1, 0, *, 0, *, *, 1, 0, 1, *, 1, 0, 1, *, *, 0, 1, 0, 1, *, 1, *, 1, *, 1, *, *, *, 1, *, 1, 0, *, *, 1, 0, *, 0, 1, *, 1, 0, *, *, *, *, *, *, 1, 0, 1, 0, *, 0, *, *, *, 0, *, 0, 1, *, *, *, *, 0, 1, *, *, *, *, *, 1, 0, 1, 0, 1, 0, 1, *, 1, *, *, *, *, *, 1, 0, *, *, *, *, *, 0, 1, 0, *, *, 1, 0, 1, *, 1, 0, 1, *, 1, 0, *, 0, *, 0, *, 0, *, *, 1, 0, *, *, 1, *, *, *, *, *, 1, 0, 1, 0, 1, 0, *, 0, 1, 0, 1, 0, 1, *, 1, *, 1, *, *, 0, *, 0, 1, 0, 1, 0, *, *, 1, 0, 1, *, *, *, *, 0, *, *, *, *, 1, *, 1, *, *, 0, *, *, *, *, 1, *, 1, 0, *, *, *, 0, 1, *, 1, 0, 1, 0, 1, *, *, *, 1, 0, 1, *, *, 0, 1, *, 1, *, *, 0, *, 0, *, 0, *, 0, 1, 0, *, *, 1, *, *, *, *, 0, 1, 0, *, 0, 1, 0, *, *, 1, 0, 1, 0, 1, *, *, 0, *, *, 1, *, *, 0, 1, *, 1, 0, *, *, *, 0, 1, *, 1, *, *, *, *, *, *, *, 1, *, 1, *, *, *, *, *, 1, *, *, 0, 1, 0, 1, *, 1, 0, *, *, 1, 0, *, *, *, 0, 1, *, 1, 0, *, 0, 1, *, *, 0, 1, 0, *, 0, *, 0, *, *, 1, *, *, 0, 1, *, 1, 0, 1, *, 1, 0, 1, *, 1, 0, *, *, 1, *, 1, 0, 1, 0, 1, 0, 1, *, *, *, *, 0, *, 0, *, 0, *, 0, 1, 0, *, 0, *, 0, 1, 0, *, *, *, *, 1, 0, 1, 0, 1, 0, *, *, *, 0, 1, 0, 1, *, *, *, *, 0, *, *, 1, *, 1, 0, 1, *, 1, *, *, 0, *, *, 1, 0, 1, *, *, 0, *, *, 1, 0, *, 0, 1, 0, *, *, *, 0, 1, *, 1, 0, 1, 0, *, 0, 1, *, *, 0, 1, 0, 1, 0, 1, *, 1, *, 1, *, *, *, *, 0, *, 0, *, 0, *, 0, 1, 0, *, 0, 1, *, 1, *, 1, *, *, 0, *, 0, *, *, *, 0, 1, *, *, *, *, *, 1, *, *, *, 1, 0, 1, 0, 1, *, *, *, 1, *, 1, *, 1, *, 1, 0, 1, *, *, *, *, 0, 1, 0, *, *, 1, *, 1, 0, 1, *, *, 0, *, *, *, *, *, 0, 1, *, 1, *, 1, 0, 1, 0, *, *, *, *, *, *, *, *, 1, 0, 1, *, 1, 0, 1, 0, 1, 0, *, 0, 1, 0, 1, 0, *, *, 1, *, *, *, *, 0, 1, 0, *, *, 1, 0, *, *, 1, *, *, *, *, *, 1, 0, 1, 0, *, *, *, *, *, 0, *, *, *, 0, *, 0, 1, *, 1, 0, *, 0, 1, 0, 1, *, 1, *, *, *, 1, *, *, 0, 1, 0, *, *, *, 0, 1, 0, *, *, 1, 0, *, 0, 1, 0, 1, *, 1, 0, *, *, *, *, *, *, 1, *, *, 0, 1, 0, *, *, *, 0, 1, 0, *, *, 1, *, 1, 0, 1, 0, *, 0, *, 0, *, *, 1, 0, *, *, *, 0, 1, *, 1, 0, 1, *, 1, *, *, 0, *, *, *, *, *, *, *, 0, *, 0, 1, *, *, *, 1, *, *, *, 1, 0, *, *, *, *, 1, *, 1, *, 1, *, 1, 0, 1, *, 1, *, *, 0, 1, *, *, 0, *, *, 1, *, *, 0, 1, 0, 1, 0, 1, *, *, *, *, 0, *, 0, 1, 0, *, 0, *, *, 1, 0, 1, 0, *, *, 1, 0, 1, 0, 1, *, *, *, *, *, *, *, 1, *, 1, 0, 1, 0, 1, *, *, 0, 1, 0, 1, 0, *, *, *, 0, 1, *, *, *, 1, *, *, *, 1, *, *, 0, *, 0, *, 0, *, 0, 1, *, *, 0, 1, *, 1, 0, 1, 0, 1, *, *, *, *, *, *, 0, *, *, *, *, *, *, 1, *, 1, *, 1, 0, *, 0, *, *, *, *, *, 0, 1, *, *, *, 1, 0, 1, 0, *, 0, 1, 0, 1, *, 1, *, 1, 0, *, 0, 1, 0, 1, *, 1, *, *, 0, 1, 0, *, *, 1, *, *, *, *, *, 1, 0, 1, *, *, *, 1, 0, *, *, 1, *, 1, 0, *, 0, *, 0, *, 0, *, *, *, 0, 1, *, 1, 0, 1, 0, *, *, *, 0, *, *, *, 0, 1, *, *, *, *, *, 1, 0, *, 0, 1, *, 1, 0, *, *, 1, *, *, 0, 1, 0, *, *, 1, *, 1, 0, 1, 0, 1, 0, 1, *, 1, *, 1, 0, 1, 0, 1, *, 1, 0, *, *, *, *, 1, *, *, 0, 1, *, *, 0, 1, 0, *, *, 1, *, *, 0, *, *, 1, 0, *, *, *, 0, *, 0, *, 0, 1, *, 1, 0, *, *, 1, *, *, *, 1, *, *, *, 1, *, *, 0, 1, *, 1, *, *, *, *, *, *, *, 1, 0, 1, 0, *, 0, *, 0, *, 0, *, *, *, 0, *, 0, *, *, *, 0, 1, 0, 1, *, *, *, *, *, *, 0, 1, 0, *, *, *, *, 1, 0, 1, 0, *, 0, 1, *, 1, *, *, *, 1, *, 1, 0, *, 0, 1, *, *, *, 1, 0, *, 0, 1, *, *, 0, *, *, *, 0, 1, 0, *, *, 1, *, *, *, *, 0, *, *, 1, 0, *, *, *, *, *, *, 1, *, 1, *, 1, 0, 1, 0, *, 0, *, 0, *, 0, *, *, *, 0, *, *, 1, *, 1, *, 1, 0, *, 0, *, 0, 1, 0, *, *, 1, 0, 1, 0, 1, *, 1, 0, 1, *, *, *, *, *, 1, 0, 1, *, 1, *, 1, *, 1, *, *, *, 1, 0, 1, 0, *, *, *, 0, 1, *, 1, *, *, *, 1, 0, *, 0, 1, 0, 1, 0, *, *, 1, *, 1, *, *, *, *, 0, 1, 0, 1, 0, 1, 0, 1, *, *, *, 1, *, *, *, *, *, *, 0, *, *, *, *, *, 0, 1, *, 1, 0, 1, 0, *, *, *, 0, 1, *, *, 0, 1, *, 1, 0, 1, 0, 1, *, *, *, *, 0, 1, 0, 1, 0, *, 0, 1, 0, *, 0, *, *, 1, *, *, 0, *, *, *, *, 1, *, 1, 0, 1, *, 1, 0, *, *, *, 0, 1, 0, *, *, *, 0, 1, *, *, 0, *, *, *, *, 1, *, *, 0, 1, 0, 1, 0, 1, *, 1, 0, *, *, *, 0, 1, 0, *, *, *, 0, 1, *, 1, *, *, *, *, 0, *, 0, *, 0, 1, *, *, 0, 1, 0, *, *, 1, *, *, *, 1, *, 1, 0, *, 0, 1, 0, 1, 0, 1, 0, *, 0, *, *, 1, 0, 1, *, 1, 0, 1, *, *, 0, 1, 0, 1, *, 1, *, 1, *, 1, *, *, *, 1, *, 1, 0, *, *, 1, 0, *, 0, 1, *, 1, 0, *, *, *, *, *, *, 1, 0, 1, 0, *, 0, *, *, *, 0, *, 0, 1, *, *, *, *, 0, 1, *, *, *, *, *, 1, 0, 1, 0, 1, 0, 1, *, 1, *, *, *, *, *, 1, 0, *, *, *, *, *, 0, 1, 0, *, *, 1, 0, 1, *, 1, 0, 1, *, 1, 0, *, 0, *, 0, *, 0, *, *, 1, 0, *, *, 1, *, *, *, *, *, 1, 0, 1, 0, 1, 0, *, 0, 1, 0, 1, 0, 1, *, 1, *, 1, *, *, 0, *, 0, 1, 0, 1, 0, *, *, 1, 0, 1, *, *, *, *, 0, *, *, *, *, 1, *, 1, *, *, 0, *, *, *, *, 1, *, 1, 0, *, *, *, 0, 1, *, 1, 0, 1, 0, 1, *, *, *, 1, 0, 1, *, *, 0, 1, *, 1, *, *, 0, *, 0, *, 0, *, 0, 1, 0, *, *, 1, *, *, *, *, 0, 1, 0, *, 0, 1, 0, *, *, 1, 0, 1, 0, 1, *, *, 0, *, *, 1, *, *, 0, 1, *, 1, 0, *, *, *, 0, 1, *, 1, *, *, *, *, *, *, *, 1, *, 1, *, *, *, *, *, 1, *, *, 0, 1, 0, 1, *, 1, 0, *, *, 1, 0, *, *, *, 0, 1, *, 1, 0, *, 0, 1, *, *, 0, 1, 0, *, 0, *, 0, *, *, 1, *, *, 0, 1, *, 1, 0, 1, *, 1, 0, 1, *, 1, 0, *, *, 1, *, 1, 0, 1, 0, 1, 0, 1, *, *, *, *, 0, *, 0, *, 0, *, 0, 1, 0, *, 0, *, 0, 1, 0, *, *, *, *, 1, 0, 1, 0, 1, 0, *, *, *, 0, 1, 0, 1, *, *, *, *, 0, *, *, 1, *, 1, 0, 1, *, 1, *, *, 0, *, *, 1, 0, 1, *, *, 0, *, *, 1, 0, *, 0, 1, 0, *, *, *, 0, 1, *, 1, 0, 1, 0, *, 0, 1, *, *, 0, 1, 0, 1, 0, 1, *, 1, *, 1, *, *, *, *, 0, *, 0, *, 0, *, 0, 1, 0, *, 0, 1, *, 1, *, 1, *, *, 0, *, 0, *, *, *, 0, 1, *, *, *, *, *, 1, *, *, *, 1, 0, 1, 0, 1, *, *, *, 1, *, 1, *, 1, *, 1, 0, 1, *, *, *, *, 0, 1, 0, *, *, 1, *, 1, 0, 1, *, *, 0, *, *, *, *, *, 0, 1, *, 1, *, 1, 0, 1, 0, *, *, *, *, *, *, *, *, 1, 0, 1, *, 1, 0, 1, 0, 1, 0, *, 0, 1, 0, 1, 0, *, *, 1, *, *, *, *, 0, 1, 0, *, *, 1, 0, *, *, 1, *, *, *, *, *, 1, 0, 1, 0, *, *, *, *, *, 0, *, *, *, 0, *, 0, 1, *, 1, 0, *, 0, 1, 0, 1, *, 1, *, *, *, 1, *, *, 0, 1, 0, *, *, *, 0, 1, 0, *, *, 1, 0, *, 0, 1, 0, 1, *, 1, 0, *, *, *, *, *, *, 1, *, *, 0, 1, 0, *, *, *, 0, 1, 0, *, *, 1, *, 1, 0, 1, 0, *, 0, *, 0, *, *, 1, 0, *, *, *, 0, 1, *, 1, 0, 1, *, 1, *, *, 0, *, *, *, *, *, *, *, 0, *, 0, 1, *, *, *, 1, *, *, *, 1, 0, *, *, *, *, 1, *, 1, *, 1, *, 1, 0, 1, *, 1, *, *, 0, 1, *, *, 0, *, *, 1, *, *, 0, 1, 0, 1, 0, 1, *, *, *, *, 0, *, 0, 1, 0, *, 0, *, *, 1, 0, 1, 0, *, *, 1, 0, 1, 0, 1, *, *, *, *, *, *, *, 1, *, 1, 0, 1, 0, 1, *, *, 0, 1, 0, 1, 0, *, *, *, 0, 1, *, *, *, 1, *, *, *, 1, *, *, 0, *, 0, *, 0, *, 0, 1, *, *, 0, 1, *, 
