Number entered was : 503101950159622969952446047309310939150092467494340777144862735827978251450552943258928042129554342321

Primes:
0, 1, 1, 0, 1, 0, 1, 0, 0, 0, 1, 0, 1, 0, 0, 0, 1, 0, 1, 0, 0, 0, 1, 0, 0, 0, 0, 0, 1, 0, 1, 0, 0, 0, 0, 0, 1, 0, 0, 0, 1, 0, 1, 0, 0, 0, 1, 0, 0, 0, 0, 0, 1, 0, 0, 0, 0, 0, 1, 0, 1, 0, 0, 0, 0, 0, 1, 0, 0, 0, 1, 0, 1, 0, 0, 0, 0, 0, 1, 0, 0, 0, 1, 0, 0, 0, 0, 0, 1, 0, 0, 0, 0, 0, 0, 0, 1, 0, 0, 0, 1, 0, 1, 0, 0, 0, 1, 0, 1, 0, 0, 0, 1, 0, 0, 0, 0, 0, 0, 0, 0, 0, 0, 0, 0, 0, 1, 0, 0, 0, 1, 0, 0, 0, 0, 0, 1, 0, 1, 0, 0, 0, 0, 0, 0, 0, 0, 0, 1, 0, 1, 0, 0, 0, 0, 0, 1, 0, 0, 0, 0, 0, 1, 0, 0, 0, 1, 0, 0, 0, 0, 0, 1, 0, 0, 0, 0, 0, 1, 0, 1, 0, 0, 0, 0, 0, 0, 0, 0, 0, 1, 0, 1, 0, 0, 0, 1, 0, 1, 0, 0, 0, 0, 0, 0, 0, 0, 0, 0, 0, 1, 0, 0, 0, 0, 0, 0, 0, 0, 0, 0, 0, 1, 0, 0, 0, 1, 0, 1, 0, 0, 0, 1, 0, 0, 0, 0, 0, 1, 0, 1, 0, 0, 0, 0, 0, 0, 0, 0, 0, 1, 0, 0, 0, 0, 0, 1, 0, 0, 0, 0, 0, 1, 0, 0, 0, 0, 0, 1, 0, 1, 0, 0, 0, 0, 0, 1, 0, 0, 0, 1, 0, 1, 0, 0, 0, 0, 0, 0, 0, 0, 0, 1, 0, 0, 0, 0, 0, 0, 0, 0, 0, 0, 0, 0, 0, 1, 0, 0, 0, 1, 0, 1, 0, 0, 0, 1, 0, 0, 0, 0, 0, 0, 0, 0, 0, 0, 0, 0, 0, 1, 0, 0, 0, 0, 0, 1, 0, 0, 0, 0, 0, 0, 0, 0, 0, 1, 0, 1, 0, 0, 0, 1, 0, 0, 0, 0, 0, 1, 0, 0, 0, 0, 0, 0, 0, 1, 0, 0, 0, 0, 0, 1, 0, 0, 0, 0, 0, 1, 0, 0, 0, 1, 0, 0, 0, 0, 0, 1, 0, 0, 0, 0, 0, 0, 0, 1, 0, 0, 0, 1, 0, 0, 0, 0, 0, 0, 0, 1, 0, 0, 0, 0, 0, 0, 0, 0, 0, 1, 0, 1, 0, 0, 0, 0, 0, 0, 0, 0, 0, 1, 0, 1, 0, 0, 0, 0, 0, 1, 0, 0, 0, 1, 0, 0, 0, 0, 0, 1, 0, 0, 0, 0, 0, 0, 0, 1, 0, 0, 0, 1, 0, 1, 0, 0, 0, 1, 0, 0, 0, 0, 0, 0, 0, 0, 0, 0, 0, 1, 0, 0, 0, 0, 0, 0, 0, 1, 0, 0, 0, 1, 0, 0, 0, 0, 0, 0, 0, 1, 0, 0, 0, 1, 0, 0, 0, 0, 0, 1, 0, 0, 0, 0, 0, 0, 0, 0, 0, 0, 0, 1, 0, 1, 0, 0, 0, 0, 0, 0, 0, 0, 0, 0, 0, 0, 0, 0, 0, 0, 0, 1, 0, 0, 0, 0, 0, 1, 0, 0, 0, 0, 0, 0, 0, 0, 0, 1, 0, 0, 0, 0, 0, 1, 0, 0, 0, 0, 0, 1, 0, 1, 0, 0, 0, 0, 0, 1, 0, 0, 0, 0, 0, 0, 0, 0, 0, 1, 0, 0, 0, 0, 0, 1, 0, 0, 0, 0, 0, 1, 0, 1, 0, 0, 0, 0, 0, 1, 0, 0, 0, 0, 0, 1, 0, 0, 0, 1, 0, 1, 0, 0, 0, 0, 0, 0, 0, 0, 0, 0, 0, 1, 0, 0, 0, 0, 0, 0, 0, 0, 0, 1, 0, 1, 0, 0, 0, 1, 0, 0, 0, 0, 0, 1, 0, 0, 0, 0, 0, 1, 0, 1, 0, 0, 0, 0, 0, 0, 0, 0, 0, 0, 0, 1, 0, 0, 0, 1, 0, 0, 0, 0, 0, 1, 0, 0, 0, 0, 0, 0, 0, 1, 0, 0, 0, 0, 0, 0, 0, 0, 0, 1, 0, 0, 0, 0, 0, 0, 0, 1, 0, 0, 0, 0, 0, 0, 0, 0, 0, 1, 0, 0, 0, 0, 0, 0, 0, 1, 0, 0, 0, 0, 0, 1, 0, 0, 0, 0, 0, 1, 0, 0, 0, 1, 0, 0, 0, 0, 0, 0, 0, 1, 0, 0, 0, 0, 0, 1, 0, 0, 0, 1, 0, 0, 0, 0, 0, 0, 0, 1, 0, 0, 0, 1, 0, 0, 0, 0, 0, 0, 0, 0, 0, 0, 0, 0, 0, 1, 0, 0, 0, 0, 0, 0, 0, 0, 0, 1, 0, 0, 0, 0, 0, 0, 0, 0, 0, 0, 0, 1, 0, 1, 0, 0, 0, 0, 0, 0, 0, 0, 0, 1, 0, 1, 0, 0, 0, 1, 0, 1, 0, 0, 0, 0, 0, 0, 0, 0, 0, 1, 0, 0, 0, 0, 0, 0, 0, 0, 0, 0, 0, 0, 0, 1, 0, 0, 0, 1, 0, 1, 0, 0, 0, 1, 0, 0, 0, 0, 0, 0, 0, 0, 0, 0, 0, 0, 0, 1, 0, 0, 0, 1, 0, 1, 0, 0, 0, 1, 0, 0, 0, 0, 0, 0, 0, 0, 0, 0, 0, 0, 0, 0, 0, 0, 0, 0, 0, 1, 0, 0, 0, 1, 0, 0, 0, 0, 0, 0, 0, 1, 0, 0, 0, 0, 0, 0, 0, 0, 0, 1, 0, 0, 0, 0, 0, 0, 0, 1, 0, 0, 0, 1, 0, 0, 0, 0, 0, 1, 0, 0, 0, 0, 0, 1, 0, 0, 0, 0, 0, 0, 0, 0, 0, 0, 0, 0, 0, 1, 0, 0, 0, 1, 0, 0, 0, 0, 0, 1, 0, 0, 0, 0, 0, 1, 0, 0, 0, 0, 0, 0, 0, 1, 0, 0, 0, 0, 0, 1, 0, 0, 0, 0, 0, 0, 0, 0, 0, 0, 0, 1, 0, 0, 0, 1, 0, 0, 0, 0, 0, 1, 0, 1, 0, 0, 0, 0, 0, 0, 0, 0, 0, 1, 0, 1, 0, 0, 0, 0, 0, 1, 0, 0, 0, 0, 0, 0, 0, 0, 0, 1, 0, 1, 0, 0, 0, 0, 0, 0, 0, 0, 0, 1, 0, 1, 0, 0, 0, 0, 0, 1, 0, 0, 0, 0, 0, 0, 0, 0, 0, 0, 0, 0, 0, 0, 0, 0, 0, 1, 0, 0, 0, 1, 0, 1, 0, 0, 0, 1, 0, 0, 0, 0, 0, 1, 0, 0, 0, 0, 0, 1, 0, 0, 0, 0, 0, 0, 0, 1, 0, 0, 0, 0, 0, 1, 0, 0, 0, 0, 0, 1, 0, 0, 0, 0, 0, 0, 0, 0, 0, 0, 0, 0, 0, 0, 0, 0, 0, 0, 0, 0, 0, 1, 0, 1, 0, 0, 0, 0, 0, 0, 0, 0, 0, 1, 0, 0, 0, 0, 0, 0, 0, 1, 0, 0, 0, 0, 0, 0, 0, 0, 0, 1, 0, 0, 0, 0, 0, 1, 0, 0, 0, 0, 0, 1, 0, 0, 0, 0, 0, 0, 0, 1, 0, 0, 0, 0, 0, 0, 0, 0, 0, 0, 0, 1, 0, 0, 0, 1, 0, 0, 0, 0, 0, 1, 0, 0, 0, 0, 0, 1, 0, 1, 0, 0, 0, 0, 0, 1, 0, 0, 0, 0, 0, 0, 0, 0, 0, 0, 0, 1, 0, 0, 0, 0, 0, 0, 0, 0, 0, 1, 0, 0, 0, 0, 0, 0, 0, 0, 0, 0, 0, 0, 0, 0, 0, 0, 0, 1, 0, 1, 0, 0, 0, 1, 0, 0, 0, 0, 0, 1, 0, 1, 0, 0, 0, 0, 0, 1, 0, 0, 0, 1, 0, 1, 0, 0, 0, 1, 0, 0, 0, 0, 0, 0, 0, 0, 0, 0, 0, 1, 0, 1, 0, 0, 0, 0, 0, 1, 0, 0, 0, 0, 0, 0, 0, 0, 0, 0, 0, 0, 0, 0, 0, 0, 0, 0, 0, 0, 0, 0, 0, 0, 0, 0, 0, 0, 0, 0, 0, 0, 0, 1, 0, 0, 0, 0, 0, 1, 0, 0, 0, 0, 0, 1, 0, 0, 0, 0, 0, 0, 0, 1, 0, 0, 0, 0, 0, 0, 0, 0, 0, 0, 0, 0, 0, 0, 0, 0, 0, 1, 0, 0, 0, 0, 0, 0, 0, 0, 0, 1, 0, 0, 0, 0, 0, 0, 0, 0, 0, 0, 0, 0, 0, 1, 0, 0, 0, 1, 0, 1, 0, 0, 0, 1, 0, 0, 0, 0, 0, 1, 0, 0, 0, 0, 0, 0, 0, 1, 0, 0, 0, 1, 0, 1, 0, 0, 0, 0, 0, 1, 0, 0, 0, 0, 0, 0, 0, 0, 0, 0, 0, 1, 0, 0, 0, 0, 0, 0, 0, 0, 0, 1, 0, 1, 0, 0, 0, 1, 0, 1, 0, 0, 0, 1, 0, 0, 0, 0, 0, 1, 0, 0, 0, 0, 0, 0, 0, 0, 0, 0, 0, 1, 0, 0, 0, 0, 0, 0, 0, 0, 0, 0, 0, 1, 0, 0, 0, 0, 0, 0, 0, 1, 0, 0, 0, 0, 0, 0, 0, 0, 0, 0, 0, 1, 0, 0, 0, 0, 0, 1, 0, 0, 0, 1, 0, 0, 0, 0, 0, 1, 0, 0, 0, 0, 0, 0, 0, 1, 0, 0, 0, 1, 0, 0, 0, 0, 0, 0, 0, 1, 0, 0, 0, 1, 0, 0, 0, 0, 0, 0, 0, 0, 0, 0, 0, 0, 0, 1, 0, 0, 0, 1, 0, 0, 0, 0, 0, 1, 0, 1, 0, 0, 0, 1, 0, 0, 0, 0, 0, 1, 0, 1, 0, 0, 0, 0, 0, 1, 0, 0, 0, 0, 0, 0, 0, 0, 0, 1, 0, 0, 0, 0, 0, 0, 0, 0, 0, 0, 0, 0, 0, 0, 0, 0, 0, 0, 0, 1, 0, 0, 0, 0, 0, 1, 0, 0, 0, 1, 0, 1, 0, 0, 0, 0, 0, 0, 0, 0, 0, 0, 0, 0, 0, 0, 0, 0, 0, 0, 0, 0, 0, 0, 0, 1, 0, 0, 0, 1, 0, 1, 0, 0, 0, 0, 0, 0, 0, 0, 0, 1, 0, 0, 0, 0, 0, 0, 0, 0, 0, 0, 0, 1, 0, 1, 0, 0, 0, 0, 0, 0, 0, 0, 0, 1, 0, 0, 0, 0, 0, 0, 0, 1, 0, 0, 0, 0, 0, 1, 0, 0, 0, 0, 0, 1, 0, 0, 0, 0, 0, 1, 0, 0, 0, 0, 0, 0, 0, 0, 0, 0, 0, 0, 0, 0, 0, 0, 0, 1, 0, 0, 0, 0, 0, 1, 0, 0, 0, 1, 0, 1, 0, 0, 0, 0, 0, 0, 0, 0, 0, 0, 0, 1, 0, 0, 0, 0, 0, 0, 0, 0, 0, 1, 0, 0, 0, 0, 0, 0, 0, 0, 0, 0, 0, 1, 0, 0, 0, 0, 0, 0, 0, 1, 0, 0, 0, 0, 0, 0, 0, 0, 0, 0, 0, 0, 0, 0, 0, 1, 0, 0, 0, 0, 0, 0, 0, 0, 0, 0, 0, 0, 0, 1, 0, 0, 0, 0, 0, 1, 0, 0, 0, 1, 0, 1, 0, 0, 0, 1, 0, 1, 0, 0, 0, 0, 0, 0, 0, 0, 0, 1, 0, 0, 0, 0, 0, 0, 0, 0, 0, 0, 0, 1, 0, 0, 0, 0, 0, 1, 0, 0, 0, 0, 0, 1, 0, 0, 0, 0, 0, 0, 0, 0, 0, 0, 0, 0, 0, 0, 0, 0, 0, 1, 0, 1, 0, 0, 0, 0, 0, 0, 0, 0, 0, 0, 0, 0, 0, 0, 0, 1, 0, 1, 0, 0, 0, 0, 0, 0, 0, 0, 0, 0, 0, 0, 0, 0, 0, 0, 0, 0, 0, 0, 0, 1, 0, 0, 0, 0, 0, 1, 0, 0, 0, 0, 0, 0, 0, 1, 0, 0, 0, 0, 0, 1, 0, 0, 0, 1, 0, 1, 0, 0, 0, 1, 0, 0, 0, 0, 0, 0, 0, 1, 0, 0, 0, 0, 0, 1, 0, 0, 0, 0, 0, 0, 0, 0, 0, 1, 0, 1, 0, 0, 0, 0, 0, 0, 0, 0, 0, 1, 0, 0, 0, 0, 0, 0, 0, 0, 0, 0, 0, 0, 0, 1, 0, 0, 0, 0, 0, 0, 0, 0, 0, 1, 0, 0, 0, 0, 0, 1, 0, 0, 0, 0, 0, 0, 0, 0, 0, 0, 0, 1, 0, 1, 0, 0, 0, 1, 0, 1, 0, 0, 0, 0, 0, 0, 0, 0, 0, 1, 0, 0, 0, 0, 0, 0, 0, 0, 0, 0, 0, 1, 0, 1, 0, 0, 0, 0, 0, 0, 0, 0, 0, 0, 0, 0, 0, 0, 0, 1, 0, 1, 0, 0, 0, 0, 0, 1, 0, 0, 0, 1, 0, 1, 0, 0, 0, 0, 0, 0, 0, 0, 0, 1, 0, 0, 0, 0, 0, 0, 0, 1, 0, 0, 0, 0, 0, 0, 0, 0, 0, 0, 0, 0, 0, 0, 0, 0, 0, 1, 0, 0, 0, 0, 0, 0, 0, 0, 0, 0, 0, 0, 0, 0, 0, 0, 0, 0, 0, 0, 0, 0, 0, 1, 0, 0, 0, 1, 0, 0, 0, 0, 0, 1, 0, 0, 0, 0, 0, 0, 0, 1, 0, 0, 0, 0, 0, 0, 0, 0, 0, 0, 0, 0, 0, 0, 0, 1, 0, 1, 0, 0, 0, 1, 0, 0, 0, 0, 0, 0, 0, 1, 0, 0, 0, 0, 0, 0, 0, 0, 0, 0, 0, 0, 0, 0, 0, 1, 0, 1, 0, 0, 0, 1, 0, 0, 0, 0, 0, 0, 0, 1, 0, 0, 0, 0, 0, 1, 0, 0, 0, 0, 0, 1, 0, 0, 0, 1, 0, 0, 0, 0, 0, 0, 0, 0, 0, 0, 0, 1, 0, 1, 0, 0, 0, 0, 0, 0, 0, 0, 0, 0, 0, 0, 0, 0, 0, 0, 0, 0, 0, 0, 0, 1, 0, 0, 0, 0, 0, 1, 0, 1, 0, 0, 0, 0, 0, 1, 0, 0, 0, 1, 0, 0, 0, 0, 0, 1, 0, 0, 0, 0, 0, 0, 0, 0, 0, 0, 0, 0, 0, 1, 0, 0, 0, 0, 0, 1, 0, 0, 0, 1, 0, 1, 0, 0, 0, 0, 0, 1, 0, 0, 0, 1, 0, 0, 0, 0, 0, 1, 0, 0, 0, 0, 0, 0, 0, 0, 0, 0, 0, 1, 0, 0, 0, 0, 0, 1, 0, 0, 0, 0, 0, 1, 0, 0, 0, 0, 0, 0, 0, 0, 0, 0, 0, 0, 0, 1, 0, 0, 0, 1, 0, 0, 0, 0, 0, 1, 0, 0, 0, 0, 0, 0, 0, 0, 0, 0, 0, 1, 0, 0, 0, 0, 0, 0, 0, 1, 0, 0, 0, 0, 0, 1, 0, 0, 0, 1, 0, 0, 0, 0, 0, 0, 0, 0, 0, 0, 0, 0, 0, 0, 0, 0, 0, 0, 0, 0, 0, 0, 0, 0, 0, 1, 0, 0, 0, 0, 0, 0, 0, 0, 0, 0, 0, 0, 0, 0, 0, 0, 0, 1, 0, 0, 0, 0, 0, 0, 0, 0, 0, 1, 0, 0, 0, 0, 0, 0, 0, 1, 0, 0, 0, 1, 0, 0, 0, 0, 0, 1, 0, 1, 0, 0, 0, 0, 0, 1, 0, 0, 0, 0, 0, 0, 0, 0, 0, 0, 0, 0, 0, 0, 0, 0, 0, 0, 0, 0, 0, 1, 0, 0, 0, 0, 0, 0, 0, 0, 0, 0, 0, 1, 0, 1, 0, 0, 0, 0, 0, 0, 0, 0, 0, 0, 0, 0, 0, 0, 0, 1, 0, 0, 0, 0, 0, 0, 0, 1, 0, 0, 0, 1, 0, 0, 0, 0, 0, 0, 0, 0, 0, 0, 0, 1, 0, 0, 0, 0, 0, 0, 0, 0, 0, 0, 0, 0, 0, 1, 0, 0, 0, 0, 0, 0, 0, 0, 0, 1, 0, 1, 0, 0, 0, 1, 0, 0, 0, 0, 0, 0, 0, 1, 0, 0, 0, 0, 0, 1, 0, 0, 0, 0, 0, 1, 0, 0, 0, 1, 0, 1, 0, 0, 0, 1, 0, 0, 0, 0, 0, 1, 0, 0, 0, 0, 0, 0, 0, 1, 0, 0, 0, 1, 0, 1, 0, 0, 0, 0, 0, 1, 0, 0, 0, 0, 0, 0, 0, 0, 0, 1, 0, 1, 0, 0, 0, 0, 0, 0, 0, 0, 0, 1, 0, 0, 0, 0, 0, 0, 0, 1, 0, 0, 0, 1, 0, 0, 0, 0, 0, 0, 0, 0, 0, 0, 0, 0, 0, 1, 0, 0, 0, 0, 0, 0, 0, 0, 0, 1, 0, 0, 0, 0, 0, 0, 0, 0, 0, 0, 0, 1, 0, 1, 0, 0, 0, 0, 0, 1, 0, 0, 0, 1, 0, 1, 0, 0, 0, 0, 0, 0, 0, 0, 0, 0, 0, 0, 0, 0, 0, 1, 0, 0, 0, 0, 0, 0, 0, 0, 0, 0, 0, 0, 0, 1, 0, 0, 0, 1, 0, 0, 0, 0, 0, 1, 0, 0, 0, 0, 0, 0, 0, 1, 0, 0, 0, 0, 0, 1, 0, 0, 0, 1, 0, 0, 0, 0, 0, 0, 0, 0, 0, 0, 0, 0, 0, 0, 0, 0, 0, 1, 0, 0, 0, 0, 0, 0, 0, 1, 0, 0, 0, 0, 0, 0, 0, 0, 0, 1, 0, 0, 0, 0, 0, 1, 0, 0, 0, 0, 0, 1, 0, 0, 0, 0, 0, 0, 0, 1, 0, 0, 0, 0, 0, 0, 0, 0, 0, 1, 0, 0, 0, 0, 0, 0, 0, 0, 0, 0, 0, 1, 0, 0, 0, 0, 0, 0, 0, 0, 0, 0, 0, 0, 0, 1, 0, 0, 0, 1, 0, 0, 0, 0, 0, 1, 0, 0, 0, 0, 0, 1, 0, 1, 0, 0, 0, 0, 0, 0, 0, 0, 0, 0, 0, 0, 0, 0, 0, 0, 0, 0, 0, 0, 0, 0, 0, 0, 0, 0, 0, 1, 0, 1, 0, 0, 0, 0, 0, 0, 0, 0, 0, 1, 0, 0, 0, 0, 0, 0, 0, 1, 0, 0, 0, 1, 0, 0, 0, 0, 0, 0, 0, 0, 0, 0, 0, 0, 0, 1, 0, 0, 0, 1, 0, 0, 0, 0, 0, 0, 0, 1, 0, 0, 0, 0, 0, 0, 0, 0, 0, 0, 0, 1, 0, 0, 0, 0, 0, 1, 0, 0, 0, 0, 0, 0, 0, 0, 0, 0, 0, 1, 0, 0, 0, 1, 0, 0, 0, 0, 0, 1, 0, 0, 0, 0, 0, 0, 0, 0, 0, 0, 0, 0, 0, 0, 0, 0, 0, 0, 0, 1, 0, 0, 0, 0, 0, 0, 0, 0, 0, 1, 0, 1, 0, 0, 0, 0, 0, 0, 0, 0, 0, 0, 0, 0, 0, 0, 0, 1, 0, 0, 0, 0, 0, 0, 0, 0, 0, 0, 0, 0, 0, 0, 0, 0, 0, 0, 0, 0, 0, 0, 0, 0, 0, 1, 0, 0, 0, 1, 0, 1, 0, 0, 0, 0, 0, 0, 0, 0, 0, 0, 0, 1, 0, 0, 0, 0, 0, 1, 0, 0, 0, 1, 0, 0, 0, 0, 0, 0, 0, 0, 0, 0, 0, 1, 0, 0, 0, 0, 0, 1, 0, 0, 0, 0, 0, 0, 0, 1, 0, 0, 0, 1, 0, 0, 0, 0, 0, 0, 0, 1, 0, 0, 0, 0, 0, 0, 0, 0, 0, 0, 0, 0, 0, 0, 0, 0, 0, 0, 0, 0, 0, 1, 0, 1, 0, 0, 0, 1, 0, 1, 0, 0, 0, 0, 0, 0, 0, 0, 0, 0, 0, 1, 0, 0, 0, 0, 0, 0, 0, 0, 0, 0, 0, 0, 0, 0, 0, 0, 0, 0, 0, 0, 0, 0, 0, 0, 0, 0, 0, 1, 0, 1, 0, 0, 0, 0, 0, 1, 0, 0, 0, 0, 0, 1, 0, 0, 0, 0, 0, 1, 0, 0, 0, 1, 0, 0, 0, 0, 0, 1, 0, 1, 0, 0, 0, 0, 0, 0, 0, 0, 0, 0, 0, 1, 0, 0, 0, 1, 0, 0, 0, 0, 0, 0, 0, 0, 0, 0, 0, 1, 0, 1, 0, 0, 0, 0, 0, 0, 0, 0, 0, 1, 0, 1, 0, 0, 0, 0, 0, 0, 0, 0, 0, 0, 0, 0, 0, 0, 0, 1, 0, 1, 0, 0, 0, 0, 0, 0, 0, 0, 0, 0, 0, 0, 0, 0, 0, 1, 0, 0, 0, 0, 0, 1, 0, 0, 0, 0, 0, 0, 0, 0, 0, 0, 0, 0, 0, 0, 0, 0, 0, 0, 0, 1, 0, 0, 0, 0, 0, 0, 0, 0, 0, 0, 0, 0, 0, 0, 0, 1, 0, 0, 0, 0, 0, 0, 0, 1, 0, 0, 0, 1, 0, 1, 0, 0, 0, 1, 0, 1, 0, 0, 0, 0, 0, 0, 0, 0, 0, 0, 0, 0, 0, 0, 0, 0, 0, 0, 0, 0, 0, 1, 0, 0, 0, 0, 0, 0, 0, 1, 0, 0, 0, 0, 0, 0, 0, 0, 0, 0, 0, 1, 0, 0, 0, 0, 0, 1, 0, 0, 0, 0, 0, 0, 0, 0, 0, 1, 0, 1, 0, 0, 0, 1, 0, 0, 0, 0, 0, 1, 0, 1, 0, 0, 0, 0, 0, 1, 0, 0, 0, 0, 0, 0, 0, 0, 0, 1, 0, 1, 0, 0, 0, 0, 0, 0, 0, 0, 0, 0, 0, 1, 0, 0, 0, 0, 0, 0, 0, 0, 0, 1, 0, 1, 0, 0, 0, 0, 0, 0, 0, 0, 0, 1, 0, 0, 0, 0, 0, 0, 0, 0, 0, 0, 0, 0, 0, 1, 0, 0, 0, 0, 0, 1, 0, 0, 0, 1, 0, 0, 0, 0, 0, 1, 0, 0, 0, 0, 0, 0, 0, 1, 0, 0, 0, 0, 0, 1, 0, 0, 0, 0, 0, 1, 0, 0, 0, 0, 0, 0, 0, 0, 0, 0, 0, 0, 0, 0, 0, 1, 0, 0, 0, 0, 0, 0, 0, 0, 0, 0, 0, 1, 0, 1, 0, 0, 0, 1, 0, 0, 0, 0, 0, 0, 0, 0, 0, 0, 0, 0, 0, 1, 0, 0, 0, 0, 0, 1, 0, 0, 0, 1, 0, 0, 0, 0, 0, 0, 0, 1, 0, 0, 0, 0, 0, 0, 0, 0, 0, 1, 0, 0, 0, 0, 0, 0, 0, 1, 0, 0, 0, 0, 0, 1, 0, 0, 0, 0, 0, 1, 0, 0, 0, 0, 0, 0, 0, 0, 0, 0, 0, 0, 0, 0, 0, 0, 0, 0, 0, 0, 0, 1, 0, 0, 0, 0, 0, 1, 0, 1, 0, 0, 0, 0, 0, 0, 0, 0, 0, 1, 0, 0, 0, 0, 0, 0, 0, 0, 0, 0, 0, 0, 0, 1, 0, 0, 0, 1, 0, 0, 0, 0, 0, 1, 0, 0, 0, 0, 0, 0, 0, 0, 0, 0, 0, 0, 0, 0, 0, 0, 0, 1, 0, 1, 0, 0, 0, 0, 0, 0, 0, 0, 0, 1, 0, 0, 0, 0, 0, 0, 0, 0, 0, 0, 0, 0, 0, 1, 0, 0, 0, 1, 0, 1, 0, 0, 0, 0, 0, 0, 0, 0, 0, 1, 0, 0, 0, 0, 0, 0, 0, 0, 0, 0, 0, 0, 0, 1, 0, 0, 0, 1, 0, 0, 0, 0, 0, 0, 0, 1, 0, 0, 0, 0, 0, 0, 0, 0, 0, 0, 0, 0, 0, 0, 0, 0, 0, 1, 0, 0, 0, 1, 0, 0, 0, 0, 0, 1, 0, 1, 0, 0, 0, 1, 0, 0, 0, 0, 0, 1, 0, 1, 0, 0, 0, 0, 0, 0, 0, 0, 0, 0, 0, 1, 0, 0, 0, 1, 0, 0, 0, 0, 0, 0, 0, 0, 0, 0, 0, 0, 0, 0, 0, 0, 0, 0, 0, 1, 0, 0, 0, 0, 0, 0, 0, 0, 0, 0, 0, 0, 0, 0, 0, 0, 0, 0, 0, 0, 0, 1, 0, 0, 0, 0, 0, 0, 0, 0, 0, 0, 0, 
Factors:
1, 0, 1, *, 1, 0, 1, *, 1, *, 1, *, 1, 0, *, 0, *, 0, *, 0, *, 0, 1, 0, *, 0, 1, 0, 1, *, 1, 0, 1, 0, *, *, *, 0, 1, *, *, *, 1, 0, 1, *, *, *, *, *, *, 0, 1, *, *, *, 1, *, 1, *, *, 0, 1, 0, 1, *, 1, *, *, *, 1, *, 1, *, 1, 0, *, 0, *, 0, *, *, 1, *, 1, *, *, *, *, 0, *, *, *, 0, *, *, *, *, *, 0, *, *, 1, *, *, *, 1, 0, 1, *, *, *, 1, 0, *, *, *, *, 1, 0, 1, *, *, *, *, *, *, 0, 1, *, *, *, 1, *, 1, *, *, 0, *, *, 1, *, *, 0, 1, 0, 1, 0, *, 0, 1, *, 1, 0, 1, *, 1, *, *, *, *, 0, 1, 0, 1, *, *, *, *, *, 1, 0, 1, 0, 1, 0, *, 0, *, 0, 1, 0, 1, *, *, *, *, *, 1, 0, *, 0, *, *, *, *, *, *, 1, 0, 1, *, *, *, 1, 0, 1, 0, *, *, 1, *, 1, *, *, *, *, *, *, *, *, 0, *, 0, 1, *, *, *, 1, 0, *, 0, 1, 0, 1, 0, *, *, 1, 0, *, *, 1, *, 1, *, *, 0, *, 0, 1, 0, *, 0, *, 0, 1, *, *, *, *, *, 1, *, 1, *, *, *, *, *, 1, *, 1, *, 1, 0, *, *, 1, *, *, *, 1, 0, *, 0, 1, 0, *, *, *, 0, *, *, 1, 0, *, 0, 1, 0, *, *, 1, 0, 1, 0, 1, 0, *, *, 1, 0, 1, *, *, *, 1, 0, *, *, *, *, 1, *, 1, *, 1, *, 1, 0, 1, *, *, *, 1, *, 1, 0, 1, 0, 1, *, 1, 0, 1, *, 1, *, 1, *, 1, 0, *, 0, *, 0, *, 0, *, 0, 1, 0, *, 0, 1, 0, 1, *, 1, 0, 1, 0, *, *, *, 0, 1, *, *, *, 1, 0, 1, *, *, *, *, *, *, 0, 1, *, *, *, 1, *, 1, *, *, 0, 1, 0, 1, *, 1, *, *, *, 1, *, 1, *, 1, 0, *, 0, *, 0, *, *, 1, *, 1, *, *, *, *, 0, *, *, *, 0, *, *, *, *, *, 0, *, *, 1, *, *, *, 1, 0, 1, *, *, *, 1, 0, *, *, *, *, 1, 0, 1, *, *, *, *, *, *, 0, 1, *, *, *, 1, *, 1, *, *, 0, *, *, 1, *, *, 0, 1, 0, 1, 0, *, 0, 1, *, 1, 0, 1, *, 1, *, *, *, *, 0, 1, 0, 1, *, *, *, *, *, 1, 0, 1, 0, 1, 0, *, 0, *, 0, 1, 0, 1, *, *, *, *, *, 1, 0, *, 0, *, *, *, *, *, *, 1, 0, 1, *, *, *, 1, 0, 1, 0, *, *, 1, *, 1, *, *, *, *, *, *, *, *, 0, *, 0, 1, *, *, *, 1, 0, *, 0, 1, 0, 1, 0, *, *, 1, 0, *, *, 1, *, 1, *, *, 0, *, 0, 1, 0, *, 0, *, 0, 1, *, *, *, *, *, 1, *, 1, *, *, *, *, *, 1, *, 1, *, 1, 0, *, *, 1, *, *, *, 1, 0, *, 0, 1, 0, *, *, *, 0, *, *, 1, 0, *, 0, 1, 0, *, *, 1, 0, 1, 0, 1, 0, *, *, 1, 0, 1, *, *, *, 1, 0, *, *, *, *, 1, *, 1, *, 1, *, 1, 0, 1, *, *, *, 1, *, 1, 0, 1, 0, 1, *, 1, 0, 1, *, 1, *, 1, *, 1, 0, *, 0, *, 0, *, 0, *, 0, 1, 0, *, 0, 1, 0, 1, *, 1, 0, 1, 0, *, *, *, 0, 1, *, *, *, 1, 0, 1, *, *, *, *, *, *, 0, 1, *, *, *, 1, *, 1, *, *, 0, 1, 0, 1, *, 1, *, *, *, 1, *, 1, *, 1, 0, *, 0, *, 0, *, *, 1, *, 1, *, *, *, *, 0, *, *, *, 0, *, *, *, *, *, 0, *, *, 1, *, *, *, 1, 0, 1, *, *, *, 1, 0, *, *, *, *, 1, 0, 1, *, *, *, *, *, *, 0, 1, *, *, *, 1, *, 1, *, *, 0, *, *, 1, *, *, 0, 1, 0, 1, 0, *, 0, 1, *, 1, 0, 1, *, 1, *, *, *, *, 0, 1, 0, 1, *, *, *, *, *, 1, 0, 1, 0, 1, 0, *, 0, *, 0, 1, 0, 1, *, *, *, *, *, 1, 0, *, 0, *, *, *, *, *, *, 1, 0, 1, *, *, *, 1, 0, 1, 0, *, *, 1, *, 1, *, *, *, *, *, *, *, *, 0, *, 0, 1, *, *, *, 1, 0, *, 0, 1, 0, 1, 0, *, *, 1, 0, *, *, 1, *, 1, *, *, 0, *, 0, 1, 0, *, 0, *, 0, 1, *, *, *, *, *, 1, *, 1, *, *, *, *, *, 1, *, 1, *, 1, 0, *, *, 1, *, *, *, 1, 0, *, 0, 1, 0, *, *, *, 0, *, *, 1, 0, *, 0, 1, 0, *, *, 1, 0, 1, 0, 1, 0, *, *, 1, 0, 1, *, *, *, 1, 0, *, *, *, *, 1, *, 1, *, 1, *, 1, 0, 1, *, *, *, 1, *, 1, 0, 1, 0, 1, *, 1, 0, 1, *, 1, *, 1, *, 1, 0, *, 0, *, 0, *, 0, *, 0, 1, 0, *, 0, 1, 0, 1, *, 1, 0, 1, 0, *, *, *, 0, 1, *, *, *, 1, 0, 1, *, *, *, *, *, *, 0, 1, *, *, *, 1, *, 1, *, *, 0, 1, 0, 1, *, 1, *, *, *, 1, *, 1, *, 1, 0, *, 0, *, 0, *, *, 1, *, 1, *, *, *, *, 0, *, *, *, 0, *, *, *, *, *, 0, *, *, 1, *, *, *, 1, 0, 1, *, *, *, 1, 0, *, *, *, *, 1, 0, 1, *, *, *, *, *, *, 0, 1, *, *, *, 1, *, 1, *, *, 0, *, *, 1, *, *, 0, 1, 0, 1, 0, *, 0, 1, *, 1, 0, 1, *, 1, *, *, *, *, 0, 1, 0, 1, *, *, *, *, *, 1, 0, 1, 0, 1, 0, *, 0, *, 0, 1, 0, 1, *, *, *, *, *, 1, 0, *, 0, *, *, *, *, *, *, 1, 0, 1, *, *, *, 1, 0, 1, 0, *, *, 1, *, 1, *, *, *, *, *, *, *, *, 0, *, 0, 1, *, *, *, 1, 0, *, 0, 1, 0, 1, 0, *, *, 1, 0, *, *, 1, *, 1, *, *, 0, *, 0, 1, 0, *, 0, *, 0, 1, *, *, *, *, *, 1, *, 1, *, *, *, *, *, 1, *, 1, *, 1, 0, *, *, 1, *, *, *, 1, 0, *, 0, 1, 0, *, *, *, 0, *, *, 1, 0, *, 0, 1, 0, *, *, 1, 0, 1, 0, 1, 0, *, *, 1, 0, 1, *, *, *, 1, 0, *, *, *, *, 1, *, 1, *, 1, *, 1, 0, 1, *, *, *, 1, *, 1, 0, 1, 0, 1, *, 1, 0, 1, *, 1, *, 1, *, 1, 0, *, 0, *, 0, *, 0, *, 0, 1, 0, *, 0, 1, 0, 1, *, 1, 0, 1, 0, *, *, *, 0, 1, *, *, *, 1, 0, 1, *, *, *, *, *, *, 0, 1, *, *, *, 1, *, 1, *, *, 0, 1, 0, 1, *, 1, *, *, *, 1, *, 1, *, 1, 0, *, 0, *, 0, *, *, 1, *, 1, *, *, *, *, 0, *, *, *, 0, *, *, *, *, *, 0, *, *, 1, *, *, *, 1, 0, 1, *, *, *, 1, 0, *, *, *, *, 1, 0, 1, *, *, *, *, *, *, 0, 1, *, *, *, 1, *, 1, *, *, 0, *, *, 1, *, *, 0, 1, 0, 1, 0, *, 0, 1, *, 1, 0, 1, *, 1, *, *, *, *, 0, 1, 0, 1, *, *, *, *, *, 1, 0, 1, 0, 1, 0, *, 0, *, 0, 1, 0, 1, *, *, *, *, *, 1, 0, *, 0, *, *, *, *, *, *, 1, 0, 1, *, *, *, 1, 0, 1, 0, *, *, 1, *, 1, *, *, *, *, *, *, *, *, 0, *, 0, 1, *, *, *, 1, 0, *, 0, 1, 0, 1, 0, *, *, 1, 0, *, *, 1, *, 1, *, *, 0, *, 0, 1, 0, *, 0, *, 0, 1, *, *, *, *, *, 1, *, 1, *, *, *, *, *, 1, *, 1, *, 1, 0, *, *, 1, *, *, *, 1, 0, *, 0, 1, 0, *, *, *, 0, *, *, 1, 0, *, 0, 1, 0, *, *, 1, 0, 1, 0, 1, 0, *, *, 1, 0, 1, *, *, *, 1, 0, *, *, *, *, 1, *, 1, *, 1, *, 1, 0, 1, *, *, *, 1, *, 1, 0, 1, 0, 1, *, 1, 0, 1, *, 1, *, 1, *, 1, 0, *, 0, *, 0, *, 0, *, 0, 1, 0, *, 0, 1, 0, 1, *, 1, 0, 1, 0, *, *, *, 0, 1, *, *, *, 1, 0, 1, *, *, *, *, *, *, 0, 1, *, *, *, 1, *, 1, *, *, 0, 1, 0, 1, *, 1, *, *, *, 1, *, 1, *, 1, 0, *, 0, *, 0, *, *, 1, *, 1, *, *, *, *, 0, *, *, *, 0, *, *, *, *, *, 0, *, *, 1, *, *, *, 1, 0, 1, *, *, *, 1, 0, *, *, *, *, 1, 0, 1, *, *, *, *, *, *, 0, 1, *, *, *, 1, *, 1, *, *, 0, *, *, 1, *, *, 0, 1, 0, 1, 0, *, 0, 1, *, 1, 0, 1, *, 1, *, *, *, *, 0, 1, 0, 1, *, *, *, *, *, 1, 0, 1, 0, 1, 0, *, 0, *, 0, 1, 0, 1, *, *, *, *, *, 1, 0, *, 0, *, *, *, *, *, *, 1, 0, 1, *, *, *, 1, 0, 1, 0, *, *, 1, *, 1, *, *, *, *, *, *, *, *, 0, *, 0, 1, *, *, *, 1, 0, *, 0, 1, 0, 1, 0, *, *, 1, 0, *, *, 1, *, 1, *, *, 0, *, 0, 1, 0, *, 0, *, 0, 1, *, *, *, *, *, 1, *, 1, *, *, *, *, *, 1, *, 1, *, 1, 0, *, *, 1, *, *, *, 1, 0, *, 0, 1, 0, *, *, *, 0, *, *, 1, 0, *, 0, 1, 0, *, *, 1, 0, 1, 0, 1, 0, *, *, 1, 0, 1, *, *, *, 1, 0, *, *, *, *, 1, *, 1, *, 1, *, 1, 0, 1, *, *, *, 1, *, 1, 0, 1, 0, 1, *, 1, 0, 1, *, 1, *, 1, *, 1, 0, *, 0, *, 0, *, 0, *, 0, 1, 0, *, 0, 1, 0, 1, *, 1, 0, 1, 0, *, *, *, 0, 1, *, *, *, 1, 0, 1, *, *, *, *, *, *, 0, 1, *, *, *, 1, *, 1, *, *, 0, 1, 0, 1, *, 1, *, *, *, 1, *, 1, *, 1, 0, *, 0, *, 0, *, *, 1, *, 1, *, *, *, *, 0, *, *, *, 0, *, *, *, *, *, 0, *, *, 1, *, *, *, 1, 0, 1, *, *, *, 1, 0, *, *, *, *, 1, 0, 1, *, *, *, *, *, *, 0, 1, *, *, *, 1, *, 1, *, *, 0, *, *, 1, *, *, 0, 1, 0, 1, 0, *, 0, 1, *, 1, 0, 1, *, 1, *, *, *, *, 0, 1, 0, 1, *, *, *, *, *, 1, 0, 1, 0, 1, 0, *, 0, *, 0, 1, 0, 1, *, *, *, *, *, 1, 0, *, 0, *, *, *, *, *, *, 1, 0, 1, *, *, *, 1, 0, 1, 0, *, *, 1, *, 1, *, *, *, *, *, *, *, *, 0, *, 0, 1, *, *, *, 1, 0, *, 0, 1, 0, 1, 0, *, *, 1, 0, *, *, 1, *, 1, *, *, 0, *, 0, 1, 0, *, 0, *, 0, 1, *, *, *, *, *, 1, *, 1, *, *, *, *, *, 1, *, 1, *, 1, 0, *, *, 1, *, *, *, 1, 0, *, 0, 1, 0, *, *, *, 0, *, *, 1, 0, *, 0, 1, 0, *, *, 1, 0, 1, 0, 1, 0, *, *, 1, 0, 1, *, *, *, 1, 0, *, *, *, *, 1, *, 1, *, 1, *, 1, 0, 1, *, *, *, 1, *, 1, 0, 1, 0, 1, *, 1, 0, 1, *, 1, *, 1, *, 1, 0, *, 0, *, 0, *, 0, *, 0, 1, 0, *, 0, 1, 0, 1, *, 1, 0, 1, 0, *, *, *, 0, 1, *, *, *, 1, 0, 1, *, *, *, *, *, *, 0, 1, *, *, *, 1, *, 1, *, *, 0, 1, 0, 1, *, 1, *, *, *, 1, *, 1, *, 1, 0, *, 0, *, 0, *, *, 1, *, 1, *, *, *, *, 0, *, *, *, 0, *, *, *, *, *, 0, *, *, 1, *, *, *, 1, 0, 1, *, *, *, 1, 0, *, *, *, *, 1, 0, 1, *, *, *, *, *, *, 0, 1, *, *, *, 1, *, 1, *, *, 0, *, *, 1, *, *, 0, 1, 0, 1, 0, *, 0, 1, *, 1, 0, 1, *, 1, *, *, *, *, 0, 1, 0, 1, *, *, *, *, *, 1, 0, 1, 0, 1, 0, *, 0, *, 0, 1, 0, 1, *, *, *, *, *, 1, 0, *, 0, *, *, *, *, *, *, 1, 0, 1, *, *, *, 1, 0, 1, 0, *, *, 1, *, 1, *, *, *, *, *, *, *, *, 0, *, 0, 1, *, *, *, 1, 0, *, 0, 1, 0, 1, 0, *, *, 1, 0, *, *, 1, *, 1, *, *, 0, *, 0, 1, 0, *, 0, *, 0, 1, *, *, *, *, *, 1, *, 1, *, *, *, *, *, 1, *, 1, *, 1, 0, *, *, 1, *, *, *, 1, 0, *, 0, 1, 0, *, *, *, 0, *, *, 1, 0, *, 0, 1, 0, *, *, 1, 0, 1, 0, 1, 0, *, *, 1, 0, 1, *, *, *, 1, 0, *, *, *, *, 1, *, 1, *, 1, *, 1, 0, 1, *, *, *, 1, *, 1, 0, 1, 0, 1, *, 1, 0, 1, *, 1, *, 1, *, 1, 0, *, 0, *, 0, *, 0, *, 0, 1, 0, *, 0, 1, 0, 1, *, 1, 0, 1, 0, *, *, *, 0, 1, *, *, *, 1, 0, 1, *, *, *, *, *, *, 0, 1, *, *, *, 1, *, 1, *, *, 0, 1, 0, 1, *, 1, *, *, *, 1, *, 1, *, 1, 0, *, 0, *, 0, *, *, 1, *, 1, *, *, *, *, 0, *, *, *, 0, *, *, *, *, *, 0, *, *, 1, *, *, *, 1, 0, 1, *, *, *, 1, 0, *, *, *, *, 1, 0, 1, *, *, *, *, *, *, 0, 1, *, *, *, 1, *, 1, *, *, 0, *, *, 1, *, *, 0, 1, 0, 1, 0, *, 0, 1, *, 1, 0, 1, *, 1, *, *, *, *, 0, 1, 0, 1, *, *, *, *, *, 1, 0, 1, 0, 1, 0, *, 0, *, 0, 1, 0, 1, *, *, *, *, *, 1, 0, *, 0, *, *, *, *, *, *, 1, 0, 1, *, *, *, 1, 0, 1, 0, *, *, 1, *, 1, *, *, *, *, *, *, *, *, 0, *, 0, 1, *, *, *, 1, 0, *, 0, 1, 0, 1, 0, *, *, 1, 0, *, *, 1, *, 1, *, *, 0, *, 0, 1, 0, *, 0, *, 0, 1, *, *, *, *, *, 1, *, 1, *, *, *, *, *, 1, *, 1, *, 1, 0, *, *, 1, *, *, *, 1, 0, *, 0, 1, 0, *, *, *, 0, *, *, 1, 0, *, 0, 1, 0, *, *, 1, 0, 1, 0, 1, 0, *, *, 1, 0, 1, *, *, *, 1, 0, *, *, *, *, 1, *, 1, *, 1, *, 1, 0, 1, *, *, *, 1, *, 1, 0, 1, 0, 1, *, 1, 0, 1, *, 1, *, 1, *, 1, 0, *, 0, *, 0, *, 0, *, 0, 1, 0, *, 0, 1, 0, 1, *, 1, 0, 1, 0, *, *, *, 0, 1, *, *, *, 1, 0, 1, *, *, *, *, *, *, 0, 1, *, *, *, 1, *, 1, *, *, 0, 1, 0, 1, *, 1, *, *, *, 1, *, 1, *, 1, 0, *, 0, *, 0, *, *, 1, *, 1, *, *, *, *, 0, *, *, *, 0, *, *, *, *, *, 0, *, *, 1, *, *, *, 1, 0, 1, *, *, *, 1, 0, *, *, *, *, 1, 0, 1, *, *, *, *, *, *, 0, 1, *, *, *, 1, *, 1, *, *, 0, *, *, 1, *, *, 0, 1, 0, 1, 0, *, 0, 1, *, 1, 0, 1, *, 1, *, *, *, *, 0, 1, 0, 1, *, *, *, *, *, 1, 0, 1, 0, 1, 0, *, 0, *, 0, 1, 0, 1, *, *, *, *, *, 1, 0, *, 0, *, *, *, *, *, *, 1, 0, 1, *, *, *, 1, 0, 1, 0, *, *, 1, *, 1, *, *, *, *, *, *, *, *, 0, *, 0, 1, *, *, *, 1, 0, *, 0, 1, 0, 1, 0, *, *, 1, 0, *, *, 1, *, 1, *, *, 0, *, 0, 1, 0, *, 0, *, 0, 1, *, *, *, *, *, 1, *, 1, *, *, *, *, *, 1, *, 1, *, 1, 0, *, *, 1, *, *, *, 1, 0, *, 0, 1, 0, *, *, *, 0, *, *, 1, 0, *, 0, 1, 0, *, *, 1, 0, 1, 0, 1, 0, *, *, 1, 0, 1, *, *, *, 1, 0, *, *, *, *, 1, *, 1, *, 1, *, 1, 0, 1, *, *, *, 1, *, 1, 0, 1, 0, 1, *, 1, 0, 1, *, 1, *, 1, *, 1, 0, *, 0, *, 0, *, 0, *, 0, 1, 0, *, 0, 1, 0, 1, *, 1, 0, 1, 0, *, *, *, 0, 1, *, *, *, 1, 0, 1, *, *, *, *, *, *, 0, 1, *, *, *, 1, *, 1, *, *, 0, 1, 0, 1, *, 1, *, *, *, 1, *, 1, *, 1, 0, *, 0, *, 0, *, *, 1, *, 1, *, *, *, *, 0, *, *, *, 0, *, *, *, *, *, 0, *, *, 1, *, *, *, 1, 0, 1, *, *, *, 1, 0, *, *, *, *, 1, 0, 1, *, *, *, *, *, *, 0, 1, *, *, *, 1, *, 1, *, *, 0, *, *, 1, *, *, 0, 1, 0, 1, 0, *, 0, 1, *, 1, 0, 1, *, 1, *, *, *, *, 0, 1, 0, 1, *, *, *, *, *, 1, 0, 1, 0, 1, 0, *, 0, *, 0, 1, 0, 1, *, *, *, *, *, 1, 0, *, 0, *, *, *, *, *, *, 1, 0, 1, *, *, *, 1, 0, 1, 0, *, *, 1, *, 1, *, *, *, *, *, *, *, *, 0, *, 0, 1, *, *, *, 1, 0, *, 0, 1, 0, 1, 0, *, *, 1, 0, *, *, 1, *, 1, *, *, 0, *, 0, 1, 0, *, 0, *, 0, 1, *, *, *, *, *, 1, *, 1, *, *, *, *, *, 1, *, 1, *, 1, 0, *, *, 1, *, *, *, 1, 0, *, 0, 1, 0, *, *, *, 0, *, *, 1, 0, *, 0, 1, 0, *, *, 1, 0, 1, 0, 1, 0, *, *, 1, 0, 1, *, *, *, 1, 0, *, *, *, *, 1, *, 1, *, 1, *, 1, 0, 1, *, *, *, 1, *, 1, 0, 1, 0, 1, *, 1, 0, 1, *, 1, *, 1, *, 1, 0, *, 0, *, 0, *, 0, *, 0, 1, 0, *, 0, 1, 0, 1, *, 1, 0, 1, 0, *, *, *, 0, 1, *, *, *, 1, 0, 1, *, *, *, *, *, *, 0, 1, *, *, *, 1, *, 1, *, *, 0, 1, 0, 1, *, 1, *, *, *, 1, *, 1, *, 1, 0, *, 0, *, 0, *, *, 1, *, 1, *, *, *, *, 0, *, *, *, 0, *, *, *, *, *, 0, *, *, 1, *, *, *, 1, 0, 1, *, *, *, 1, 0, *, *, *, *, 1, 0, 1, *, *, *, *, *, *, 0, 1, *, *, *, 1, *, 1, *, *, 0, *, *, 1, *, *, 0, 1, 0, 1, 0, *, 0, 1, *, 1, 0, 1, *, 1, *, *, *, *, 0, 1, 0, 1, *, *, *, *, *, 1, 0, 1, 0, 1, 0, *, 0, *, 0, 1, 0, 1, *, *, *, *, *, 1, 0, *, 0, *, *, *, *, *, *, 1, 0, 1, *, *, *, 1, 0, 1, 0, *, *, 1, *, 1, *, *, *, *, *, *, *, *, 0, *, 0, 1, *, *, *, 1, 0, *, 0, 1, 0, 1, 0, *, *, 1, 0, *, *, 1, *, 1, *, *, 0, *, 0, 1, 0, *, 0, *, 0, 1, *, *, *, *, *, 1, *, 1, *, *, *, *, *, 1, *, 1, *, 1, 0, *, *, 1, *, *, *, 
