Number entered was : 80444029193978510570752980664935673401980708829726416321125477454662231373587578975163947485892022939840092091114294098841

Primes:
0, 1, 1, 0, 1, 0, 1, 0, 0, 0, 1, 0, 1, 0, 0, 0, 1, 0, 1, 0, 0, 0, 1, 0, 0, 0, 0, 0, 1, 0, 1, 0, 0, 0, 0, 0, 1, 0, 0, 0, 1, 0, 1, 0, 0, 0, 1, 0, 0, 0, 0, 0, 1, 0, 0, 0, 0, 0, 1, 0, 1, 0, 0, 0, 0, 0, 1, 0, 0, 0, 1, 0, 1, 0, 0, 0, 0, 0, 1, 0, 0, 0, 1, 0, 0, 0, 0, 0, 1, 0, 0, 0, 0, 0, 0, 0, 1, 0, 0, 0, 1, 0, 1, 0, 0, 0, 1, 0, 1, 0, 0, 0, 1, 0, 0, 0, 0, 0, 0, 0, 0, 0, 0, 0, 0, 0, 1, 0, 0, 0, 1, 0, 0, 0, 0, 0, 1, 0, 1, 0, 0, 0, 0, 0, 0, 0, 0, 0, 1, 0, 1, 0, 0, 0, 0, 0, 1, 0, 0, 0, 0, 0, 1, 0, 0, 0, 1, 0, 0, 0, 0, 0, 1, 0, 0, 0, 0, 0, 1, 0, 1, 0, 0, 0, 0, 0, 0, 0, 0, 0, 1, 0, 1, 0, 0, 0, 1, 0, 1, 0, 0, 0, 0, 0, 0, 0, 0, 0, 0, 0, 1, 0, 0, 0, 0, 0, 0, 0, 0, 0, 0, 0, 1, 0, 0, 0, 1, 0, 1, 0, 0, 0, 1, 0, 0, 0, 0, 0, 1, 0, 1, 0, 0, 0, 0, 0, 0, 0, 0, 0, 1, 0, 0, 0, 0, 0, 1, 0, 0, 0, 0, 0, 1, 0, 0, 0, 0, 0, 1, 0, 1, 0, 0, 0, 0, 0, 1, 0, 0, 0, 1, 0, 1, 0, 0, 0, 0, 0, 0, 0, 0, 0, 1, 0, 0, 0, 0, 0, 0, 0, 0, 0, 0, 0, 0, 0, 1, 0, 0, 0, 1, 0, 1, 0, 0, 0, 1, 0, 0, 0, 0, 0, 0, 0, 0, 0, 0, 0, 0, 0, 1, 0, 0, 0, 0, 0, 1, 0, 0, 0, 0, 0, 0, 0, 0, 0, 1, 0, 1, 0, 0, 0, 1, 0, 0, 0, 0, 0, 1, 0, 0, 0, 0, 0, 0, 0, 1, 0, 0, 0, 0, 0, 1, 0, 0, 0, 0, 0, 1, 0, 0, 0, 1, 0, 0, 0, 0, 0, 1, 0, 0, 0, 0, 0, 0, 0, 1, 0, 0, 0, 1, 0, 0, 0, 0, 0, 0, 0, 1, 0, 0, 0, 0, 0, 0, 0, 0, 0, 1, 0, 1, 0, 0, 0, 0, 0, 0, 0, 0, 0, 1, 0, 1, 0, 0, 0, 0, 0, 1, 0, 0, 0, 1, 0, 0, 0, 0, 0, 1, 0, 0, 0, 0, 0, 0, 0, 1, 0, 0, 0, 1, 0, 1, 0, 0, 0, 1, 0, 0, 0, 0, 0, 0, 0, 0, 0, 0, 0, 1, 0, 0, 0, 0, 0, 0, 0, 1, 0, 0, 0, 1, 0, 0, 0, 0, 0, 0, 0, 1, 0, 0, 0, 1, 0, 0, 0, 0, 0, 1, 0, 0, 0, 0, 0, 0, 0, 0, 0, 0, 0, 1, 0, 1, 0, 0, 0, 0, 0, 0, 0, 0, 0, 0, 0, 0, 0, 0, 0, 0, 0, 1, 0, 0, 0, 0, 0, 1, 0, 0, 0, 0, 0, 0, 0, 0, 0, 1, 0, 0, 0, 0, 0, 1, 0, 0, 0, 0, 0, 1, 0, 1, 0, 0, 0, 0, 0, 1, 0, 0, 0, 0, 0, 0, 0, 0, 0, 1, 0, 0, 0, 0, 0, 1, 0, 0, 0, 0, 0, 1, 0, 1, 0, 0, 0, 0, 0, 1, 0, 0, 0, 0, 0, 1, 0, 0, 0, 1, 0, 1, 0, 0, 0, 0, 0, 0, 0, 0, 0, 0, 0, 1, 0, 0, 0, 0, 0, 0, 0, 0, 0, 1, 0, 1, 0, 0, 0, 1, 0, 0, 0, 0, 0, 1, 0, 0, 0, 0, 0, 1, 0, 1, 0, 0, 0, 0, 0, 0, 0, 0, 0, 0, 0, 1, 0, 0, 0, 1, 0, 0, 0, 0, 0, 1, 0, 0, 0, 0, 0, 0, 0, 1, 0, 0, 0, 0, 0, 0, 0, 0, 0, 1, 0, 0, 0, 0, 0, 0, 0, 1, 0, 0, 0, 0, 0, 0, 0, 0, 0, 1, 0, 0, 0, 0, 0, 0, 0, 1, 0, 0, 0, 0, 0, 1, 0, 0, 0, 0, 0, 1, 0, 0, 0, 1, 0, 0, 0, 0, 0, 0, 0, 1, 0, 0, 0, 0, 0, 1, 0, 0, 0, 1, 0, 0, 0, 0, 0, 0, 0, 1, 0, 0, 0, 1, 0, 0, 0, 0, 0, 0, 0, 0, 0, 0, 0, 0, 0, 1, 0, 0, 0, 0, 0, 0, 0, 0, 0, 1, 0, 0, 0, 0, 0, 0, 0, 0, 0, 0, 0, 1, 0, 1, 0, 0, 0, 0, 0, 0, 0, 0, 0, 1, 0, 1, 0, 0, 0, 1, 0, 1, 0, 0, 0, 0, 0, 0, 0, 0, 0, 1, 0, 0, 0, 0, 0, 0, 0, 0, 0, 0, 0, 0, 0, 1, 0, 0, 0, 1, 0, 1, 0, 0, 0, 1, 0, 0, 0, 0, 0, 0, 0, 0, 0, 0, 0, 0, 0, 1, 0, 0, 0, 1, 0, 1, 0, 0, 0, 1, 0, 0, 0, 0, 0, 0, 0, 0, 0, 0, 0, 0, 0, 0, 0, 0, 0, 0, 0, 1, 0, 0, 0, 1, 0, 0, 0, 0, 0, 0, 0, 1, 0, 0, 0, 0, 0, 0, 0, 0, 0, 1, 0, 0, 0, 0, 0, 0, 0, 1, 0, 0, 0, 1, 0, 0, 0, 0, 0, 1, 0, 0, 0, 0, 0, 1, 0, 0, 0, 0, 0, 0, 0, 0, 0, 0, 0, 0, 0, 1, 0, 0, 0, 1, 0, 0, 0, 0, 0, 1, 0, 0, 0, 0, 0, 1, 0, 0, 0, 0, 0, 0, 0, 1, 0, 0, 0, 0, 0, 1, 0, 0, 0, 0, 0, 0, 0, 0, 0, 0, 0, 1, 0, 0, 0, 1, 0, 0, 0, 0, 0, 1, 0, 1, 0, 0, 0, 0, 0, 0, 0, 0, 0, 1, 0, 1, 0, 0, 0, 0, 0, 1, 0, 0, 0, 0, 0, 0, 0, 0, 0, 1, 0, 1, 0, 0, 0, 0, 0, 0, 0, 0, 0, 1, 0, 1, 0, 0, 0, 0, 0, 1, 0, 0, 0, 0, 0, 0, 0, 0, 0, 0, 0, 0, 0, 0, 0, 0, 0, 1, 0, 0, 0, 1, 0, 1, 0, 0, 0, 1, 0, 0, 0, 0, 0, 1, 0, 0, 0, 0, 0, 1, 0, 0, 0, 0, 0, 0, 0, 1, 0, 0, 0, 0, 0, 1, 0, 0, 0, 0, 0, 1, 0, 0, 0, 0, 0, 0, 0, 0, 0, 0, 0, 0, 0, 0, 0, 0, 0, 0, 0, 0, 0, 1, 0, 1, 0, 0, 0, 0, 0, 0, 0, 0, 0, 1, 0, 0, 0, 0, 0, 0, 0, 1, 0, 0, 0, 0, 0, 0, 0, 0, 0, 1, 0, 0, 0, 0, 0, 1, 0, 0, 0, 0, 0, 1, 0, 0, 0, 0, 0, 0, 0, 1, 0, 0, 0, 0, 0, 0, 0, 0, 0, 0, 0, 1, 0, 0, 0, 1, 0, 0, 0, 0, 0, 1, 0, 0, 0, 0, 0, 1, 0, 1, 0, 0, 0, 0, 0, 1, 0, 0, 0, 0, 0, 0, 0, 0, 0, 0, 0, 1, 0, 0, 0, 0, 0, 0, 0, 0, 0, 1, 0, 0, 0, 0, 0, 0, 0, 0, 0, 0, 0, 0, 0, 0, 0, 0, 0, 1, 0, 1, 0, 0, 0, 1, 0, 0, 0, 0, 0, 1, 0, 1, 0, 0, 0, 0, 0, 1, 0, 0, 0, 1, 0, 1, 0, 0, 0, 1, 0, 0, 0, 0, 0, 0, 0, 0, 0, 0, 0, 1, 0, 1, 0, 0, 0, 0, 0, 1, 0, 0, 0, 0, 0, 0, 0, 0, 0, 0, 0, 0, 0, 0, 0, 0, 0, 0, 0, 0, 0, 0, 0, 0, 0, 0, 0, 0, 0, 0, 0, 0, 0, 1, 0, 0, 0, 0, 0, 1, 0, 0, 0, 0, 0, 1, 0, 0, 0, 0, 0, 0, 0, 1, 0, 0, 0, 0, 0, 0, 0, 0, 0, 0, 0, 0, 0, 0, 0, 0, 0, 1, 0, 0, 0, 0, 0, 0, 0, 0, 0, 1, 0, 0, 0, 0, 0, 0, 0, 0, 0, 0, 0, 0, 0, 1, 0, 0, 0, 1, 0, 1, 0, 0, 0, 1, 0, 0, 0, 0, 0, 1, 0, 0, 0, 0, 0, 0, 0, 1, 0, 0, 0, 1, 0, 1, 0, 0, 0, 0, 0, 1, 0, 0, 0, 0, 0, 0, 0, 0, 0, 0, 0, 1, 0, 0, 0, 0, 0, 0, 0, 0, 0, 1, 0, 1, 0, 0, 0, 1, 0, 1, 0, 0, 0, 1, 0, 0, 0, 0, 0, 1, 0, 0, 0, 0, 0, 0, 0, 0, 0, 0, 0, 1, 0, 0, 0, 0, 0, 0, 0, 0, 0, 0, 0, 1, 0, 0, 0, 0, 0, 0, 0, 1, 0, 0, 0, 0, 0, 0, 0, 0, 0, 0, 0, 1, 0, 0, 0, 0, 0, 1, 0, 0, 0, 1, 0, 0, 0, 0, 0, 1, 0, 0, 0, 0, 0, 0, 0, 1, 0, 0, 0, 1, 0, 0, 0, 0, 0, 0, 0, 1, 0, 0, 0, 1, 0, 0, 0, 0, 0, 0, 0, 0, 0, 0, 0, 0, 0, 1, 0, 0, 0, 1, 0, 0, 0, 0, 0, 1, 0, 1, 0, 0, 0, 1, 0, 0, 0, 0, 0, 1, 0, 1, 0, 0, 0, 0, 0, 1, 0, 0, 0, 0, 0, 0, 0, 0, 0, 1, 0, 0, 0, 0, 0, 0, 0, 0, 0, 0, 0, 0, 0, 0, 0, 0, 0, 0, 0, 1, 0, 0, 0, 0, 0, 1, 0, 0, 0, 1, 0, 1, 0, 0, 0, 0, 0, 0, 0, 0, 0, 0, 0, 0, 0, 0, 0, 0, 0, 0, 0, 0, 0, 0, 0, 1, 0, 0, 0, 1, 0, 1, 0, 0, 0, 0, 0, 0, 0, 0, 0, 1, 0, 0, 0, 0, 0, 0, 0, 0, 0, 0, 0, 1, 0, 1, 0, 0, 0, 0, 0, 0, 0, 0, 0, 1, 0, 0, 0, 0, 0, 0, 0, 1, 0, 0, 0, 0, 0, 1, 0, 0, 0, 0, 0, 1, 0, 0, 0, 0, 0, 1, 0, 0, 0, 0, 0, 0, 0, 0, 0, 0, 0, 0, 0, 0, 0, 0, 0, 1, 0, 0, 0, 0, 0, 1, 0, 0, 0, 1, 0, 1, 0, 0, 0, 0, 0, 0, 0, 0, 0, 0, 0, 1, 0, 0, 0, 0, 0, 0, 0, 0, 0, 1, 0, 0, 0, 0, 0, 0, 0, 0, 0, 0, 0, 1, 0, 0, 0, 0, 0, 0, 0, 1, 0, 0, 0, 0, 0, 0, 0, 0, 0, 0, 0, 0, 0, 0, 0, 1, 0, 0, 0, 0, 0, 0, 0, 0, 0, 0, 0, 0, 0, 1, 0, 0, 0, 0, 0, 1, 0, 0, 0, 1, 0, 1, 0, 0, 0, 1, 0, 1, 0, 0, 0, 0, 0, 0, 0, 0, 0, 1, 0, 0, 0, 0, 0, 0, 0, 0, 0, 0, 0, 1, 0, 0, 0, 0, 0, 1, 0, 0, 0, 0, 0, 1, 0, 0, 0, 0, 0, 0, 0, 0, 0, 0, 0, 0, 0, 0, 0, 0, 0, 1, 0, 1, 0, 0, 0, 0, 0, 0, 0, 0, 0, 0, 0, 0, 0, 0, 0, 1, 0, 1, 0, 0, 0, 0, 0, 0, 0, 0, 0, 0, 0, 0, 0, 0, 0, 0, 0, 0, 0, 0, 0, 1, 0, 0, 0, 0, 0, 1, 0, 0, 0, 0, 0, 0, 0, 1, 0, 0, 0, 0, 0, 1, 0, 0, 0, 1, 0, 1, 0, 0, 0, 1, 0, 0, 0, 0, 0, 0, 0, 1, 0, 0, 0, 0, 0, 1, 0, 0, 0, 0, 0, 0, 0, 0, 0, 1, 0, 1, 0, 0, 0, 0, 0, 0, 0, 0, 0, 1, 0, 0, 0, 0, 0, 0, 0, 0, 0, 0, 0, 0, 0, 1, 0, 0, 0, 0, 0, 0, 0, 0, 0, 1, 0, 0, 0, 0, 0, 1, 0, 0, 0, 0, 0, 0, 0, 0, 0, 0, 0, 1, 0, 1, 0, 0, 0, 1, 0, 1, 0, 0, 0, 0, 0, 0, 0, 0, 0, 1, 0, 0, 0, 0, 0, 0, 0, 0, 0, 0, 0, 1, 0, 1, 0, 0, 0, 0, 0, 0, 0, 0, 0, 0, 0, 0, 0, 0, 0, 1, 0, 1, 0, 0, 0, 0, 0, 1, 0, 0, 0, 1, 0, 1, 0, 0, 0, 0, 0, 0, 0, 0, 0, 1, 0, 0, 0, 0, 0, 0, 0, 1, 0, 0, 0, 0, 0, 0, 0, 0, 0, 0, 0, 0, 0, 0, 0, 0, 0, 1, 0, 0, 0, 0, 0, 0, 0, 0, 0, 0, 0, 0, 0, 0, 0, 0, 0, 0, 0, 0, 0, 0, 0, 1, 0, 0, 0, 1, 0, 0, 0, 0, 0, 1, 0, 0, 0, 0, 0, 0, 0, 1, 0, 0, 0, 0, 0, 0, 0, 0, 0, 0, 0, 0, 0, 0, 0, 1, 0, 1, 0, 0, 0, 1, 0, 0, 0, 0, 0, 0, 0, 1, 0, 0, 0, 0, 0, 0, 0, 0, 0, 0, 0, 0, 0, 0, 0, 1, 0, 1, 0, 0, 0, 1, 0, 0, 0, 0, 0, 0, 0, 1, 0, 0, 0, 0, 0, 1, 0, 0, 0, 0, 0, 1, 0, 0, 0, 1, 0, 0, 0, 0, 0, 0, 0, 0, 0, 0, 0, 1, 0, 1, 0, 0, 0, 0, 0, 0, 0, 0, 0, 0, 0, 0, 0, 0, 0, 0, 0, 0, 0, 0, 0, 1, 0, 0, 0, 0, 0, 1, 0, 1, 0, 0, 0, 0, 0, 1, 0, 0, 0, 1, 0, 0, 0, 0, 0, 1, 0, 0, 0, 0, 0, 0, 0, 0, 0, 0, 0, 0, 0, 1, 0, 0, 0, 0, 0, 1, 0, 0, 0, 1, 0, 1, 0, 0, 0, 0, 0, 1, 0, 0, 0, 1, 0, 0, 0, 0, 0, 1, 0, 0, 0, 0, 0, 0, 0, 0, 0, 0, 0, 1, 0, 0, 0, 0, 0, 1, 0, 0, 0, 0, 0, 1, 0, 0, 0, 0, 0, 0, 0, 0, 0, 0, 0, 0, 0, 1, 0, 0, 0, 1, 0, 0, 0, 0, 0, 1, 0, 0, 0, 0, 0, 0, 0, 0, 0, 0, 0, 1, 0, 0, 0, 0, 0, 0, 0, 1, 0, 0, 0, 0, 0, 1, 0, 0, 0, 1, 0, 0, 0, 0, 0, 0, 0, 0, 0, 0, 0, 0, 0, 0, 0, 0, 0, 0, 0, 0, 0, 0, 0, 0, 0, 1, 0, 0, 0, 0, 0, 0, 0, 0, 0, 0, 0, 0, 0, 0, 0, 0, 0, 1, 0, 0, 0, 0, 0, 0, 0, 0, 0, 1, 0, 0, 0, 0, 0, 0, 0, 1, 0, 0, 0, 1, 0, 0, 0, 0, 0, 1, 0, 1, 0, 0, 0, 0, 0, 1, 0, 0, 0, 0, 0, 0, 0, 0, 0, 0, 0, 0, 0, 0, 0, 0, 0, 0, 0, 0, 0, 1, 0, 0, 0, 0, 0, 0, 0, 0, 0, 0, 0, 1, 0, 1, 0, 0, 0, 0, 0, 0, 0, 0, 0, 0, 0, 0, 0, 0, 0, 1, 0, 0, 0, 0, 0, 0, 0, 1, 0, 0, 0, 1, 0, 0, 0, 0, 0, 0, 0, 0, 0, 0, 0, 1, 0, 0, 0, 0, 0, 0, 0, 0, 0, 0, 0, 0, 0, 1, 0, 0, 0, 0, 0, 0, 0, 0, 0, 1, 0, 1, 0, 0, 0, 1, 0, 0, 0, 0, 0, 0, 0, 1, 0, 0, 0, 0, 0, 1, 0, 0, 0, 0, 0, 1, 0, 0, 0, 1, 0, 1, 0, 0, 0, 1, 0, 0, 0, 0, 0, 1, 0, 0, 0, 0, 0, 0, 0, 1, 0, 0, 0, 1, 0, 1, 0, 0, 0, 0, 0, 1, 0, 0, 0, 0, 0, 0, 0, 0, 0, 1, 0, 1, 0, 0, 0, 0, 0, 0, 0, 0, 0, 1, 0, 0, 0, 0, 0, 0, 0, 1, 0, 0, 0, 1, 0, 0, 0, 0, 0, 0, 0, 0, 0, 0, 0, 0, 0, 1, 0, 0, 0, 0, 0, 0, 0, 0, 0, 1, 0, 0, 0, 0, 0, 0, 0, 0, 0, 0, 0, 1, 0, 1, 0, 0, 0, 0, 0, 1, 0, 0, 0, 1, 0, 1, 0, 0, 0, 0, 0, 0, 0, 0, 0, 0, 0, 0, 0, 0, 0, 1, 0, 0, 0, 0, 0, 0, 0, 0, 0, 0, 0, 0, 0, 1, 0, 0, 0, 1, 0, 0, 0, 0, 0, 1, 0, 0, 0, 0, 0, 0, 0, 1, 0, 0, 0, 0, 0, 1, 0, 0, 0, 1, 0, 0, 0, 0, 0, 0, 0, 0, 0, 0, 0, 0, 0, 0, 0, 0, 0, 1, 0, 0, 0, 0, 0, 0, 0, 1, 0, 0, 0, 0, 0, 0, 0, 0, 0, 1, 0, 0, 0, 0, 0, 1, 0, 0, 0, 0, 0, 1, 0, 0, 0, 0, 0, 0, 0, 1, 0, 0, 0, 0, 0, 0, 0, 0, 0, 1, 0, 0, 0, 0, 0, 0, 0, 0, 0, 0, 0, 1, 0, 0, 0, 0, 0, 0, 0, 0, 0, 0, 0, 0, 0, 1, 0, 0, 0, 1, 0, 0, 0, 0, 0, 1, 0, 0, 0, 0, 0, 1, 0, 1, 0, 0, 0, 0, 0, 0, 0, 0, 0, 0, 0, 0, 0, 0, 0, 0, 0, 0, 0, 0, 0, 0, 0, 0, 0, 0, 0, 1, 0, 1, 0, 0, 0, 0, 0, 0, 0, 0, 0, 1, 0, 0, 0, 0, 0, 0, 0, 1, 0, 0, 0, 1, 0, 0, 0, 0, 0, 0, 0, 0, 0, 0, 0, 0, 0, 1, 0, 0, 0, 1, 0, 0, 0, 0, 0, 0, 0, 1, 0, 0, 0, 0, 0, 0, 0, 0, 0, 0, 0, 1, 0, 0, 0, 0, 0, 1, 0, 0, 0, 0, 0, 0, 0, 0, 0, 0, 0, 1, 0, 0, 0, 1, 0, 0, 0, 0, 0, 1, 0, 0, 0, 0, 0, 0, 0, 0, 0, 0, 0, 0, 0, 0, 0, 0, 0, 0, 0, 1, 0, 0, 0, 0, 0, 0, 0, 0, 0, 1, 0, 1, 0, 0, 0, 0, 0, 0, 0, 0, 0, 0, 0, 0, 0, 0, 0, 1, 0, 0, 0, 0, 0, 0, 0, 0, 0, 0, 0, 0, 0, 0, 0, 0, 0, 0, 0, 0, 0, 0, 0, 0, 0, 1, 0, 0, 0, 1, 0, 1, 0, 0, 0, 0, 0, 0, 0, 0, 0, 0, 0, 1, 0, 0, 0, 0, 0, 1, 0, 0, 0, 1, 0, 0, 0, 0, 0, 0, 0, 0, 0, 0, 0, 1, 0, 0, 0, 0, 0, 1, 0, 0, 0, 0, 0, 0, 0, 1, 0, 0, 0, 1, 0, 0, 0, 0, 0, 0, 0, 1, 0, 0, 0, 0, 0, 0, 0, 0, 0, 0, 0, 0, 0, 0, 0, 0, 0, 0, 0, 0, 0, 1, 0, 1, 0, 0, 0, 1, 0, 1, 0, 0, 0, 0, 0, 0, 0, 0, 0, 0, 0, 1, 0, 0, 0, 0, 0, 0, 0, 0, 0, 0, 0, 0, 0, 0, 0, 0, 0, 0, 0, 0, 0, 0, 0, 0, 0, 0, 0, 1, 0, 1, 0, 0, 0, 0, 0, 1, 0, 0, 0, 0, 0, 1, 0, 0, 0, 0, 0, 1, 0, 0, 0, 1, 0, 0, 0, 0, 0, 1, 0, 1, 0, 0, 0, 0, 0, 0, 0, 0, 0, 0, 0, 1, 0, 0, 0, 1, 0, 0, 0, 0, 0, 0, 0, 0, 0, 0, 0, 1, 0, 1, 0, 0, 0, 0, 0, 0, 0, 0, 0, 1, 0, 1, 0, 0, 0, 0, 0, 0, 0, 0, 0, 0, 0, 0, 0, 0, 0, 1, 0, 1, 0, 0, 0, 0, 0, 0, 0, 0, 0, 0, 0, 0, 0, 0, 0, 1, 0, 0, 0, 0, 0, 1, 0, 0, 0, 0, 0, 0, 0, 0, 0, 0, 0, 0, 0, 0, 0, 0, 0, 0, 0, 1, 0, 0, 0, 0, 0, 0, 0, 0, 0, 0, 0, 0, 0, 0, 0, 1, 0, 0, 0, 0, 0, 0, 0, 1, 0, 0, 0, 1, 0, 1, 0, 0, 0, 1, 0, 1, 0, 0, 0, 0, 0, 0, 0, 0, 0, 0, 0, 0, 0, 0, 0, 0, 0, 0, 0, 0, 0, 1, 0, 0, 0, 0, 0, 0, 0, 1, 0, 0, 0, 0, 0, 0, 0, 0, 0, 0, 0, 1, 0, 0, 0, 0, 0, 1, 0, 0, 0, 0, 0, 0, 0, 0, 0, 1, 0, 1, 0, 0, 0, 1, 0, 0, 0, 0, 0, 1, 0, 1, 0, 0, 0, 0, 0, 1, 0, 0, 0, 0, 0, 0, 0, 0, 0, 1, 0, 1, 0, 0, 0, 0, 0, 0, 0, 0, 0, 0, 0, 1, 0, 0, 0, 0, 0, 0, 0, 0, 0, 1, 0, 1, 0, 0, 0, 0, 0, 0, 0, 0, 0, 1, 0, 0, 0, 0, 0, 0, 0, 0, 0, 0, 0, 0, 0, 1, 0, 0, 0, 0, 0, 1, 0, 0, 0, 1, 0, 0, 0, 0, 0, 1, 0, 0, 0, 0, 0, 0, 0, 1, 0, 0, 0, 0, 0, 1, 0, 0, 0, 0, 0, 1, 0, 0, 0, 0, 0, 0, 0, 0, 0, 0, 0, 0, 0, 0, 0, 1, 0, 0, 0, 0, 0, 0, 0, 0, 0, 0, 0, 1, 0, 1, 0, 0, 0, 1, 0, 0, 0, 0, 0, 0, 0, 0, 0, 0, 0, 0, 0, 1, 0, 0, 0, 0, 0, 1, 0, 0, 0, 1, 0, 0, 0, 0, 0, 0, 0, 1, 0, 0, 0, 0, 0, 0, 0, 0, 0, 1, 0, 0, 0, 0, 0, 0, 0, 1, 0, 0, 0, 0, 0, 1, 0, 0, 0, 0, 0, 1, 0, 0, 0, 0, 0, 0, 0, 0, 0, 0, 0, 0, 0, 0, 0, 0, 0, 0, 0, 0, 0, 1, 0, 0, 0, 0, 0, 1, 0, 1, 0, 0, 0, 0, 0, 0, 0, 0, 0, 1, 0, 0, 0, 0, 0, 0, 0, 0, 0, 0, 0, 0, 0, 1, 0, 0, 0, 1, 0, 0, 0, 0, 0, 1, 0, 0, 0, 0, 0, 0, 0, 0, 0, 0, 0, 0, 0, 0, 0, 0, 0, 1, 0, 1, 0, 0, 0, 0, 0, 0, 0, 0, 0, 1, 0, 0, 0, 0, 0, 0, 0, 0, 0, 0, 0, 0, 0, 1, 0, 0, 0, 1, 0, 1, 0, 0, 0, 0, 0, 0, 0, 0, 0, 1, 0, 0, 0, 0, 0, 0, 0, 0, 0, 0, 0, 0, 0, 1, 0, 0, 0, 1, 0, 0, 0, 0, 0, 0, 0, 1, 0, 0, 0, 0, 0, 0, 0, 0, 0, 0, 0, 0, 0, 0, 0, 0, 0, 1, 0, 0, 0, 1, 0, 0, 0, 0, 0, 1, 0, 1, 0, 0, 0, 1, 0, 0, 0, 0, 0, 1, 0, 1, 0, 0, 0, 0, 0, 0, 0, 0, 0, 0, 0, 1, 0, 0, 0, 1, 0, 0, 0, 0, 0, 0, 0, 0, 0, 0, 0, 0, 0, 0, 0, 0, 0, 0, 0, 1, 0, 0, 0, 0, 0, 0, 0, 0, 0, 0, 0, 0, 0, 0, 0, 0, 0, 0, 0, 0, 0, 1, 0, 0, 0, 0, 0, 0, 0, 0, 0, 0, 0, 
Factors:
1, 0, 1, 0, 1, *, 1, 0, *, 0, 1, 0, 1, *, 1, *, *, 0, 1, 0, *, *, 1, 0, *, *, *, 0, *, 0, *, *, 1, 0, *, *, *, 0, 1, *, *, *, 1, *, 1, *, *, 0, 1, 0, 1, 0, 1, 0, 1, *, *, *, *, 0, *, *, 1, *, 1, *, 1, *, 1, 0, 1, 0, *, *, 1, 0, 1, *, *, *, 1, *, *, *, *, 0, *, *, 1, 0, 1, 0, 1, *, 1, 0, 1, *, 1, *, 1, 0, 1, *, *, 0, *, *, 1, 0, 1, *, *, 0, 1, *, *, 0, *, 0, *, *, 1, *, 1, *, *, 0, 1, *, *, *, 1, 0, 1, 0, *, *, *, *, 1, *, 1, *, *, *, 1, *, *, *, *, 0, *, *, *, *, 1, *, 1, *, 1, *, 1, *, 1, *, 1, *, *, 0, *, *, 1, *, 1, 0, *, 0, *, *, 1, *, *, *, 1, 0, *, *, 1, *, 1, *, 1, 0, *, 0, 1, *, 1, *, *, *, 1, 0, 1, *, *, *, 1, *, *, *, 1, 0, *, 0, *, *, 1, 0, *, 0, 1, *, 1, 0, 1, 0, 1, 0, 1, 0, 1, *, 1, *, *, *, *, 0, 1, 0, *, 0, 1, 0, *, 0, 1, 0, 1, 0, 1, 0, *, 0, 1, *, 1, 0, *, 0, 1, 0, 1, 0, *, *, 1, 0, 1, *, *, 0, *, 0, *, *, *, 0, *, *, 1, *, 1, 0, 1, 0, 1, *, *, 0, *, *, *, *, 1, 0, 1, 0, *, *, *, 0, 1, 0, *, 0, 1, 0, *, 0, 1, 0, 1, *, 1, 0, *, 0, 1, 0, 1, *, *, 0, 1, *, *, *, 1, *, 1, *, 1, *, *, 0, *, 0, *, 0, 1, 0, *, 0, 1, *, 1, *, *, *, 1, 0, 1, 0, 1, *, *, *, 1, *, 1, 0, *, *, *, 0, *, 0, *, *, *, *, 1, 0, 1, *, *, 0, 1, *, *, *, *, *, 1, *, 1, *, 1, 0, 1, 0, *, *, *, *, 1, *, *, *, 1, *, *, *, *, *, *, *, 1, *, *, 0, *, *, *, *, 1, *, 1, 0, *, *, *, 0, 1, *, *, 0, 1, 0, *, 0, *, 0, 1, *, *, 0, 1, 0, *, *, 1, 0, 1, *, 1, *, 1, 0, *, *, *, *, *, *, *, *, 1, 0, 1, 0, *, 0, 1, *, 1, *, 1, *, 1, *, *, *, *, 0, 1, *, *, *, 1, 0, 1, *, 1, 0, 1, 0, *, 0, 1, *, *, *, *, *, 1, *, *, *, 1, *, 1, *, *, *, 1, 0, *, 0, 1, *, *, *, 1, 0, *, *, 1, 0, *, 0, *, 0, 1, *, 1, *, 1, 0, *, *, 1, 0, 1, *, *, *, *, 0, 1, 0, 1, *, 1, *, 1, 0, 1, *, 1, 0, 1, 0, *, 0, 1, 0, 1, *, 1, *, 1, *, 1, *, 1, *, 1, *, 1, 0, *, 0, 1, *, 1, *, *, 0, *, 0, 1, *, 1, 0, 1, *, *, 0, 1, *, 1, *, 1, *, *, 0, *, *, 1, *, 1, 0, 1, *, *, *, 1, 0, 1, *, 1, 0, 1, *, *, 0, *, 0, 1, *, *, 0, *, *, 1, *, *, *, *, *, *, *, *, *, 1, *, 1, 0, 1, 0, *, *, *, 0, *, *, *, 0, *, *, *, *, *, *, *, 0, *, *, 1, *, *, 0, *, *, *, *, *, 0, 1, *, *, *, 1, 0, *, 0, *, 0, 1, 0, *, 0, 1, *, 1, *, *, *, *, *, 1, 0, *, 0, 1, 0, 1, *, *, *, *, 0, 1, 0, *, *, *, 0, *, *, *, 0, *, *, *, *, 1, *, *, 0, *, *, *, *, 1, 0, *, *, 1, 0, 1, *, 1, *, 1, *, 1, 0, *, 0, *, 0, *, *, *, 0, *, *, 1, *, 1, 0, 1, *, *, *, *, *, 1, 0, 1, *, 1, *, *, 0, 1, 0, *, 0, *, 0, 1, 0, 1, *, *, *, 1, 0, *, *, 1, 0, 1, 0, 1, *, 1, *, 1, *, *, *, *, 0, 1, 0, 1, *, 1, 0, 1, *, 1, 0, 1, 0, 1, 0, 1, *, 1, 0, *, 0, 1, 0, 1, *, 1, *, *, 0, 1, 0, *, *, 1, 0, *, *, *, 0, *, 0, *, *, 1, 0, *, *, *, 0, 1, *, *, *, 1, *, 1, *, *, 0, 1, 0, 1, 0, 1, 0, 1, *, *, *, *, 0, *, *, 1, *, 1, *, 1, *, 1, 0, 1, 0, *, *, 1, 0, 1, *, *, *, 1, *, *, *, *, 0, *, *, 1, 0, 1, 0, 1, *, 1, 0, 1, *, 1, *, 1, 0, 1, *, *, 0, *, *, 1, 0, 1, *, *, 0, 1, *, *, 0, *, 0, *, *, 1, *, 1, *, *, 0, 1, *, *, *, 1, 0, 1, 0, *, *, *, *, 1, *, 1, *, *, *, 1, *, *, *, *, 0, *, *, *, *, 1, *, 1, *, 1, *, 1, *, 1, *, 1, *, *, 0, *, *, 1, *, 1, 0, *, 0, *, *, 1, *, *, *, 1, 0, *, *, 1, *, 1, *, 1, 0, *, 0, 1, *, 1, *, *, *, 1, 0, 1, *, *, *, 1, *, *, *, 1, 0, *, 0, *, *, 1, 0, *, 0, 1, *, 1, 0, 1, 0, 1, 0, 1, 0, 1, *, 1, *, *, *, *, 0, 1, 0, *, 0, 1, 0, *, 0, 1, 0, 1, 0, 1, 0, *, 0, 1, *, 1, 0, *, 0, 1, 0, 1, 0, *, *, 1, 0, 1, *, *, 0, *, 0, *, *, *, 0, *, *, 1, *, 1, 0, 1, 0, 1, *, *, 0, *, *, *, *, 1, 0, 1, 0, *, *, *, 0, 1, 0, *, 0, 1, 0, *, 0, 1, 0, 1, *, 1, 0, *, 0, 1, 0, 1, *, *, 0, 1, *, *, *, 1, *, 1, *, 1, *, *, 0, *, 0, *, 0, 1, 0, *, 0, 1, *, 1, *, *, *, 1, 0, 1, 0, 1, *, *, *, 1, *, 1, 0, *, *, *, 0, *, 0, *, *, *, *, 1, 0, 1, *, *, 0, 1, *, *, *, *, *, 1, *, 1, *, 1, 0, 1, 0, *, *, *, *, 1, *, *, *, 1, *, *, *, *, *, *, *, 1, *, *, 0, *, *, *, *, 1, *, 1, 0, *, *, *, 0, 1, *, *, 0, 1, 0, *, 0, *, 0, 1, *, *, 0, 1, 0, *, *, 1, 0, 1, *, 1, *, 1, 0, *, *, *, *, *, *, *, *, 1, 0, 1, 0, *, 0, 1, *, 1, *, 1, *, 1, *, *, *, *, 0, 1, *, *, *, 1, 0, 1, *, 1, 0, 1, 0, *, 0, 1, *, *, *, *, *, 1, *, *, *, 1, *, 1, *, *, *, 1, 0, *, 0, 1, *, *, *, 1, 0, *, *, 1, 0, *, 0, *, 0, 1, *, 1, *, 1, 0, *, *, 1, 0, 1, *, *, *, *, 0, 1, 0, 1, *, 1, *, 1, 0, 1, *, 1, 0, 1, 0, *, 0, 1, 0, 1, *, 1, *, 1, *, 1, *, 1, *, 1, *, 1, 0, *, 0, 1, *, 1, *, *, 0, *, 0, 1, *, 1, 0, 1, *, *, 0, 1, *, 1, *, 1, *, *, 0, *, *, 1, *, 1, 0, 1, *, *, *, 1, 0, 1, *, 1, 0, 1, *, *, 0, *, 0, 1, *, *, 0, *, *, 1, *, *, *, *, *, *, *, *, *, 1, *, 1, 0, 1, 0, *, *, *, 0, *, *, *, 0, *, *, *, *, *, *, *, 0, *, *, 1, *, *, 0, *, *, *, *, *, 0, 1, *, *, *, 1, 0, *, 0, *, 0, 1, 0, *, 0, 1, *, 1, *, *, *, *, *, 1, 0, *, 0, 1, 0, 1, *, *, *, *, 0, 1, 0, *, *, *, 0, *, *, *, 0, *, *, *, *, 1, *, *, 0, *, *, *, *, 1, 0, *, *, 1, 0, 1, *, 1, *, 1, *, 1, 0, *, 0, *, 0, *, *, *, 0, *, *, 1, *, 1, 0, 1, *, *, *, *, *, 1, 0, 1, *, 1, *, *, 0, 1, 0, *, 0, *, 0, 1, 0, 1, *, *, *, 1, 0, *, *, 1, 0, 1, 0, 1, *, 1, *, 1, *, *, *, *, 0, 1, 0, 1, *, 1, 0, 1, *, 1, 0, 1, 0, 1, 0, 1, *, 1, 0, *, 0, 1, 0, 1, *, 1, *, *, 0, 1, 0, *, *, 1, 0, *, *, *, 0, *, 0, *, *, 1, 0, *, *, *, 0, 1, *, *, *, 1, *, 1, *, *, 0, 1, 0, 1, 0, 1, 0, 1, *, *, *, *, 0, *, *, 1, *, 1, *, 1, *, 1, 0, 1, 0, *, *, 1, 0, 1, *, *, *, 1, *, *, *, *, 0, *, *, 1, 0, 1, 0, 1, *, 1, 0, 1, *, 1, *, 1, 0, 1, *, *, 0, *, *, 1, 0, 1, *, *, 0, 1, *, *, 0, *, 0, *, *, 1, *, 1, *, *, 0, 1, *, *, *, 1, 0, 1, 0, *, *, *, *, 1, *, 1, *, *, *, 1, *, *, *, *, 0, *, *, *, *, 1, *, 1, *, 1, *, 1, *, 1, *, 1, *, *, 0, *, *, 1, *, 1, 0, *, 0, *, *, 1, *, *, *, 1, 0, *, *, 1, *, 1, *, 1, 0, *, 0, 1, *, 1, *, *, *, 1, 0, 1, *, *, *, 1, *, *, *, 1, 0, *, 0, *, *, 1, 0, *, 0, 1, *, 1, 0, 1, 0, 1, 0, 1, 0, 1, *, 1, *, *, *, *, 0, 1, 0, *, 0, 1, 0, *, 0, 1, 0, 1, 0, 1, 0, *, 0, 1, *, 1, 0, *, 0, 1, 0, 1, 0, *, *, 1, 0, 1, *, *, 0, *, 0, *, *, *, 0, *, *, 1, *, 1, 0, 1, 0, 1, *, *, 0, *, *, *, *, 1, 0, 1, 0, *, *, *, 0, 1, 0, *, 0, 1, 0, *, 0, 1, 0, 1, *, 1, 0, *, 0, 1, 0, 1, *, *, 0, 1, *, *, *, 1, *, 1, *, 1, *, *, 0, *, 0, *, 0, 1, 0, *, 0, 1, *, 1, *, *, *, 1, 0, 1, 0, 1, *, *, *, 1, *, 1, 0, *, *, *, 0, *, 0, *, *, *, *, 1, 0, 1, *, *, 0, 1, *, *, *, *, *, 1, *, 1, *, 1, 0, 1, 0, *, *, *, *, 1, *, *, *, 1, *, *, *, *, *, *, *, 1, *, *, 0, *, *, *, *, 1, *, 1, 0, *, *, *, 0, 1, *, *, 0, 1, 0, *, 0, *, 0, 1, *, *, 0, 1, 0, *, *, 1, 0, 1, *, 1, *, 1, 0, *, *, *, *, *, *, *, *, 1, 0, 1, 0, *, 0, 1, *, 1, *, 1, *, 1, *, *, *, *, 0, 1, *, *, *, 1, 0, 1, *, 1, 0, 1, 0, *, 0, 1, *, *, *, *, *, 1, *, *, *, 1, *, 1, *, *, *, 1, 0, *, 0, 1, *, *, *, 1, 0, *, *, 1, 0, *, 0, *, 0, 1, *, 1, *, 1, 0, *, *, 1, 0, 1, *, *, *, *, 0, 1, 0, 1, *, 1, *, 1, 0, 1, *, 1, 0, 1, 0, *, 0, 1, 0, 1, *, 1, *, 1, *, 1, *, 1, *, 1, *, 1, 0, *, 0, 1, *, 1, *, *, 0, *, 0, 1, *, 1, 0, 1, *, *, 0, 1, *, 1, *, 1, *, *, 0, *, *, 1, *, 1, 0, 1, *, *, *, 1, 0, 1, *, 1, 0, 1, *, *, 0, *, 0, 1, *, *, 0, *, *, 1, *, *, *, *, *, *, *, *, *, 1, *, 1, 0, 1, 0, *, *, *, 0, *, *, *, 0, *, *, *, *, *, *, *, 0, *, *, 1, *, *, 0, *, *, *, *, *, 0, 1, *, *, *, 1, 0, *, 0, *, 0, 1, 0, *, 0, 1, *, 1, *, *, *, *, *, 1, 0, *, 0, 1, 0, 1, *, *, *, *, 0, 1, 0, *, *, *, 0, *, *, *, 0, *, *, *, *, 1, *, *, 0, *, *, *, *, 1, 0, *, *, 1, 0, 1, *, 1, *, 1, *, 1, 0, *, 0, *, 0, *, *, *, 0, *, *, 1, *, 1, 0, 1, *, *, *, *, *, 1, 0, 1, *, 1, *, *, 0, 1, 0, *, 0, *, 0, 1, 0, 1, *, *, *, 1, 0, *, *, 1, 0, 1, 0, 1, *, 1, *, 1, *, *, *, *, 0, 1, 0, 1, *, 1, 0, 1, *, 1, 0, 1, 0, 1, 0, 1, *, 1, 0, *, 0, 1, 0, 1, *, 1, *, *, 0, 1, 0, *, *, 1, 0, *, *, *, 0, *, 0, *, *, 1, 0, *, *, *, 0, 1, *, *, *, 1, *, 1, *, *, 0, 1, 0, 1, 0, 1, 0, 1, *, *, *, *, 0, *, *, 1, *, 1, *, 1, *, 1, 0, 1, 0, *, *, 1, 0, 1, *, *, *, 1, *, *, *, *, 0, *, *, 1, 0, 1, 0, 1, *, 1, 0, 1, *, 1, *, 1, 0, 1, *, *, 0, *, *, 1, 0, 1, *, *, 0, 1, *, *, 0, *, 0, *, *, 1, *, 1, *, *, 0, 1, *, *, *, 1, 0, 1, 0, *, *, *, *, 1, *, 1, *, *, *, 1, *, *, *, *, 0, *, *, *, *, 1, *, 1, *, 1, *, 1, *, 1, *, 1, *, *, 0, *, *, 1, *, 1, 0, *, 0, *, *, 1, *, *, *, 1, 0, *, *, 1, *, 1, *, 1, 0, *, 0, 1, *, 1, *, *, *, 1, 0, 1, *, *, *, 1, *, *, *, 1, 0, *, 0, *, *, 1, 0, *, 0, 1, *, 1, 0, 1, 0, 1, 0, 1, 0, 1, *, 1, *, *, *, *, 0, 1, 0, *, 0, 1, 0, *, 0, 1, 0, 1, 0, 1, 0, *, 0, 1, *, 1, 0, *, 0, 1, 0, 1, 0, *, *, 1, 0, 1, *, *, 0, *, 0, *, *, *, 0, *, *, 1, *, 1, 0, 1, 0, 1, *, *, 0, *, *, *, *, 1, 0, 1, 0, *, *, *, 0, 1, 0, *, 0, 1, 0, *, 0, 1, 0, 1, *, 1, 0, *, 0, 1, 0, 1, *, *, 0, 1, *, *, *, 1, *, 1, *, 1, *, *, 0, *, 0, *, 0, 1, 0, *, 0, 1, *, 1, *, *, *, 1, 0, 1, 0, 1, *, *, *, 1, *, 1, 0, *, *, *, 0, *, 0, *, *, *, *, 1, 0, 1, *, *, 0, 1, *, *, *, *, *, 1, *, 1, *, 1, 0, 1, 0, *, *, *, *, 1, *, *, *, 1, *, *, *, *, *, *, *, 1, *, *, 0, *, *, *, *, 1, *, 1, 0, *, *, *, 0, 1, *, *, 0, 1, 0, *, 0, *, 0, 1, *, *, 0, 1, 0, *, *, 1, 0, 1, *, 1, *, 1, 0, *, *, *, *, *, *, *, *, 1, 0, 1, 0, *, 0, 1, *, 1, *, 1, *, 1, *, *, *, *, 0, 1, *, *, *, 1, 0, 1, *, 1, 0, 1, 0, *, 0, 1, *, *, *, *, *, 1, *, *, *, 1, *, 1, *, *, *, 1, 0, *, 0, 1, *, *, *, 1, 0, *, *, 1, 0, *, 0, *, 0, 1, *, 1, *, 1, 0, *, *, 1, 0, 1, *, *, *, *, 0, 1, 0, 1, *, 1, *, 1, 0, 1, *, 1, 0, 1, 0, *, 0, 1, 0, 1, *, 1, *, 1, *, 1, *, 1, *, 1, *, 1, 0, *, 0, 1, *, 1, *, *, 0, *, 0, 1, *, 1, 0, 1, *, *, 0, 1, *, 1, *, 1, *, *, 0, *, *, 1, *, 1, 0, 1, *, *, *, 1, 0, 1, *, 1, 0, 1, *, *, 0, *, 0, 1, *, *, 0, *, *, 1, *, *, *, *, *, *, *, *, *, 1, *, 1, 0, 1, 0, *, *, *, 0, *, *, *, 0, *, *, *, *, *, *, *, 0, *, *, 1, *, *, 0, *, *, *, *, *, 0, 1, *, *, *, 1, 0, *, 0, *, 0, 1, 0, *, 0, 1, *, 1, *, *, *, *, *, 1, 0, *, 0, 1, 0, 1, *, *, *, *, 0, 1, 0, *, *, *, 0, *, *, *, 0, *, *, *, *, 1, *, *, 0, *, *, *, *, 1, 0, *, *, 1, 0, 1, *, 1, *, 1, *, 1, 0, *, 0, *, 0, *, *, *, 0, *, *, 1, *, 1, 0, 1, *, *, *, *, *, 1, 0, 1, *, 1, *, *, 0, 1, 0, *, 0, *, 0, 1, 0, 1, *, *, *, 1, 0, *, *, 1, 0, 1, 0, 1, *, 1, *, 1, *, *, *, *, 0, 1, 0, 1, *, 1, 0, 1, *, 1, 0, 1, 0, 1, 0, 1, *, 1, 0, *, 0, 1, 0, 1, *, 1, *, *, 0, 1, 0, *, *, 1, 0, *, *, *, 0, *, 0, *, *, 1, 0, *, *, *, 0, 1, *, *, *, 1, *, 1, *, *, 0, 1, 0, 1, 0, 1, 0, 1, *, *, *, *, 0, *, *, 1, *, 1, *, 1, *, 1, 0, 1, 0, *, *, 1, 0, 1, *, *, *, 1, *, *, *, *, 0, *, *, 1, 0, 1, 0, 1, *, 1, 0, 1, *, 1, *, 1, 0, 1, *, *, 0, *, *, 1, 0, 1, *, *, 0, 1, *, *, 0, *, 0, *, *, 1, *, 1, *, *, 0, 1, *, *, *, 1, 0, 1, 0, *, *, *, *, 1, *, 1, *, *, *, 1, *, *, *, *, 0, *, *, *, *, 1, *, 1, *, 1, *, 1, *, 1, *, 1, *, *, 0, *, *, 1, *, 1, 0, *, 0, *, *, 1, *, *, *, 1, 0, *, *, 1, *, 1, *, 1, 0, *, 0, 1, *, 1, *, *, *, 1, 0, 1, *, *, *, 1, *, *, *, 1, 0, *, 0, *, *, 1, 0, *, 0, 1, *, 1, 0, 1, 0, 1, 0, 1, 0, 1, *, 1, *, *, *, *, 0, 1, 0, *, 0, 1, 0, *, 0, 1, 0, 1, 0, 1, 0, *, 0, 1, *, 1, 0, *, 0, 1, 0, 1, 0, *, *, 1, 0, 1, *, *, 0, *, 0, *, *, *, 0, *, *, 1, *, 1, 0, 1, 0, 1, *, *, 0, *, *, *, *, 1, 0, 1, 0, *, *, *, 0, 1, 0, *, 0, 1, 0, *, 0, 1, 0, 1, *, 1, 0, *, 0, 1, 0, 1, *, *, 0, 1, *, *, *, 1, *, 1, *, 1, *, *, 0, *, 0, *, 0, 1, 0, *, 0, 1, *, 1, *, *, *, 1, 0, 1, 0, 1, *, *, *, 1, *, 1, 0, *, *, *, 0, *, 0, *, *, *, *, 1, 0, 1, *, *, 0, 1, *, *, *, *, *, 1, *, 1, *, 1, 0, 1, 0, *, *, *, *, 1, *, *, *, 1, *, *, *, *, *, *, *, 1, *, *, 0, *, *, *, *, 1, *, 1, 0, *, *, *, 0, 1, *, *, 0, 1, 0, *, 0, *, 0, 1, *, *, 0, 1, 0, *, *, 1, 0, 1, *, 1, *, 1, 0, *, *, *, *, *, *, *, *, 1, 0, 1, 0, *, 0, 1, *, 1, *, 1, *, 1, *, *, *, *, 0, 1, *, *, *, 1, 0, 1, *, 1, 0, 1, 0, *, 0, 1, *, *, *, *, *, 1, *, *, *, 1, *, 1, *, *, *, 1, 0, *, 0, 1, *, *, *, 1, 0, *, *, 1, 0, *, 0, *, 0, 1, *, 1, *, 1, 0, *, *, 1, 0, 1, *, *, *, *, 0, 1, 0, 1, *, 1, *, 1, 0, 1, *, 1, 0, 1, 0, *, 0, 1, 0, 1, *, 1, *, 1, *, 1, *, 1, *, 1, *, 1, 0, *, 0, 1, *, 1, *, *, 0, *, 0, 1, *, 1, 0, 1, *, *, 0, 1, *, 1, *, 1, *, *, 0, *, *, 1, *, 1, 0, 1, *, *, *, 1, 0, 1, *, 1, 0, 1, *, *, 0, *, 0, 1, *, *, 0, *, *, 1, *, *, *, *, *, *, *, *, *, 1, *, 1, 0, 1, 0, *, *, *, 0, *, *, *, 0, *, *, *, *, *, *, *, 0, *, *, 1, *, *, 0, *, *, *, *, *, 0, 1, *, *, *, 1, 0, *, 0, *, 0, 1, 0, *, 0, 1, *, 1, *, *, *, *, *, 1, 0, *, 0, 1, 0, 1, *, *, *, *, 0, 1, 0, *, *, *, 0, *, *, *, 0, *, *, *, *, 1, *, *, 0, *, *, *, *, 1, 0, *, *, 1, 0, 1, *, 1, *, 1, *, 1, 0, *, 0, *, 0, *, *, *, 0, *, *, 1, *, 1, 0, 1, *, *, *, 
