Number entered was : 1522605027922533360535618378132637429718068114961380688657908494580122963258952897654000350692006139

Primes:
0, 1, 1, 0, 1, 0, 1, 0, 0, 0, 1, 0, 1, 0, 0, 0, 1, 0, 1, 0, 0, 0, 1, 0, 0, 0, 0, 0, 1, 0, 1, 0, 0, 0, 0, 0, 1, 0, 0, 0, 1, 0, 1, 0, 0, 0, 1, 0, 0, 0, 0, 0, 1, 0, 0, 0, 0, 0, 1, 0, 1, 0, 0, 0, 0, 0, 1, 0, 0, 0, 1, 0, 1, 0, 0, 0, 0, 0, 1, 0, 0, 0, 1, 0, 0, 0, 0, 0, 1, 0, 0, 0, 0, 0, 0, 0, 1, 0, 0, 0, 1, 0, 1, 0, 0, 0, 1, 0, 1, 0, 0, 0, 1, 0, 0, 0, 0, 0, 0, 0, 0, 0, 0, 0, 0, 0, 1, 0, 0, 0, 1, 0, 0, 0, 0, 0, 1, 0, 1, 0, 0, 0, 0, 0, 0, 0, 0, 0, 1, 0, 1, 0, 0, 0, 0, 0, 1, 0, 0, 0, 0, 0, 1, 0, 0, 0, 1, 0, 0, 0, 0, 0, 1, 0, 0, 0, 0, 0, 1, 0, 1, 0, 0, 0, 0, 0, 0, 0, 0, 0, 1, 0, 1, 0, 0, 0, 1, 0, 1, 0, 0, 0, 0, 0, 0, 0, 0, 0, 0, 0, 1, 0, 0, 0, 0, 0, 0, 0, 0, 0, 0, 0, 1, 0, 0, 0, 1, 0, 1, 0, 0, 0, 1, 0, 0, 0, 0, 0, 1, 0, 1, 0, 0, 0, 0, 0, 0, 0, 0, 0, 1, 0, 0, 0, 0, 0, 1, 0, 0, 0, 0, 0, 1, 0, 0, 0, 0, 0, 1, 0, 1, 0, 0, 0, 0, 0, 1, 0, 0, 0, 1, 0, 1, 0, 0, 0, 0, 0, 0, 0, 0, 0, 1, 0, 0, 0, 0, 0, 0, 0, 0, 0, 0, 0, 0, 0, 1, 0, 0, 0, 1, 0, 1, 0, 0, 0, 1, 0, 0, 0, 0, 0, 0, 0, 0, 0, 0, 0, 0, 0, 1, 0, 0, 0, 0, 0, 1, 0, 0, 0, 0, 0, 0, 0, 0, 0, 1, 0, 1, 0, 0, 0, 1, 0, 0, 0, 0, 0, 1, 0, 0, 0, 0, 0, 0, 0, 1, 0, 0, 0, 0, 0, 1, 0, 0, 0, 0, 0, 1, 0, 0, 0, 1, 0, 0, 0, 0, 0, 1, 0, 0, 0, 0, 0, 0, 0, 1, 0, 0, 0, 1, 0, 0, 0, 0, 0, 0, 0, 1, 0, 0, 0, 0, 0, 0, 0, 0, 0, 1, 0, 1, 0, 0, 0, 0, 0, 0, 0, 0, 0, 1, 0, 1, 0, 0, 0, 0, 0, 1, 0, 0, 0, 1, 0, 0, 0, 0, 0, 1, 0, 0, 0, 0, 0, 0, 0, 1, 0, 0, 0, 1, 0, 1, 0, 0, 0, 1, 0, 0, 0, 0, 0, 0, 0, 0, 0, 0, 0, 1, 0, 0, 0, 0, 0, 0, 0, 1, 0, 0, 0, 1, 0, 0, 0, 0, 0, 0, 0, 1, 0, 0, 0, 1, 0, 0, 0, 0, 0, 1, 0, 0, 0, 0, 0, 0, 0, 0, 0, 0, 0, 1, 0, 1, 0, 0, 0, 0, 0, 0, 0, 0, 0, 0, 0, 0, 0, 0, 0, 0, 0, 1, 0, 0, 0, 0, 0, 1, 0, 0, 0, 0, 0, 0, 0, 0, 0, 1, 0, 0, 0, 0, 0, 1, 0, 0, 0, 0, 0, 1, 0, 1, 0, 0, 0, 0, 0, 1, 0, 0, 0, 0, 0, 0, 0, 0, 0, 1, 0, 0, 0, 0, 0, 1, 0, 0, 0, 0, 0, 1, 0, 1, 0, 0, 0, 0, 0, 1, 0, 0, 0, 0, 0, 1, 0, 0, 0, 1, 0, 1, 0, 0, 0, 0, 0, 0, 0, 0, 0, 0, 0, 1, 0, 0, 0, 0, 0, 0, 0, 0, 0, 1, 0, 1, 0, 0, 0, 1, 0, 0, 0, 0, 0, 1, 0, 0, 0, 0, 0, 1, 0, 1, 0, 0, 0, 0, 0, 0, 0, 0, 0, 0, 0, 1, 0, 0, 0, 1, 0, 0, 0, 0, 0, 1, 0, 0, 0, 0, 0, 0, 0, 1, 0, 0, 0, 0, 0, 0, 0, 0, 0, 1, 0, 0, 0, 0, 0, 0, 0, 1, 0, 0, 0, 0, 0, 0, 0, 0, 0, 1, 0, 0, 0, 0, 0, 0, 0, 1, 0, 0, 0, 0, 0, 1, 0, 0, 0, 0, 0, 1, 0, 0, 0, 1, 0, 0, 0, 0, 0, 0, 0, 1, 0, 0, 0, 0, 0, 1, 0, 0, 0, 1, 0, 0, 0, 0, 0, 0, 0, 1, 0, 0, 0, 1, 0, 0, 0, 0, 0, 0, 0, 0, 0, 0, 0, 0, 0, 1, 0, 0, 0, 0, 0, 0, 0, 0, 0, 1, 0, 0, 0, 0, 0, 0, 0, 0, 0, 0, 0, 1, 0, 1, 0, 0, 0, 0, 0, 0, 0, 0, 0, 1, 0, 1, 0, 0, 0, 1, 0, 1, 0, 0, 0, 0, 0, 0, 0, 0, 0, 1, 0, 0, 0, 0, 0, 0, 0, 0, 0, 0, 0, 0, 0, 1, 0, 0, 0, 1, 0, 1, 0, 0, 0, 1, 0, 0, 0, 0, 0, 0, 0, 0, 0, 0, 0, 0, 0, 1, 0, 0, 0, 1, 0, 1, 0, 0, 0, 1, 0, 0, 0, 0, 0, 0, 0, 0, 0, 0, 0, 0, 0, 0, 0, 0, 0, 0, 0, 1, 0, 0, 0, 1, 0, 0, 0, 0, 0, 0, 0, 1, 0, 0, 0, 0, 0, 0, 0, 0, 0, 1, 0, 0, 0, 0, 0, 0, 0, 1, 0, 0, 0, 1, 0, 0, 0, 0, 0, 1, 0, 0, 0, 0, 0, 1, 0, 0, 0, 0, 0, 0, 0, 0, 0, 0, 0, 0, 0, 1, 0, 0, 0, 1, 0, 0, 0, 0, 0, 1, 0, 0, 0, 0, 0, 1, 0, 0, 0, 0, 0, 0, 0, 1, 0, 0, 0, 0, 0, 1, 0, 0, 0, 0, 0, 0, 0, 0, 0, 0, 0, 1, 0, 0, 0, 1, 0, 0, 0, 0, 0, 1, 0, 1, 0, 0, 0, 0, 0, 0, 0, 0, 0, 1, 0, 1, 0, 0, 0, 0, 0, 1, 0, 0, 0, 0, 0, 0, 0, 0, 0, 1, 0, 1, 0, 0, 0, 0, 0, 0, 0, 0, 0, 1, 0, 1, 0, 0, 0, 0, 0, 1, 0, 0, 0, 0, 0, 0, 0, 0, 0, 0, 0, 0, 0, 0, 0, 0, 0, 1, 0, 0, 0, 1, 0, 1, 0, 0, 0, 1, 0, 0, 0, 0, 0, 1, 0, 0, 0, 0, 0, 1, 0, 0, 0, 0, 0, 0, 0, 1, 0, 0, 0, 0, 0, 1, 0, 0, 0, 0, 0, 1, 0, 0, 0, 0, 0, 0, 0, 0, 0, 0, 0, 0, 0, 0, 0, 0, 0, 0, 0, 0, 0, 1, 0, 1, 0, 0, 0, 0, 0, 0, 0, 0, 0, 1, 0, 0, 0, 0, 0, 0, 0, 1, 0, 0, 0, 0, 0, 0, 0, 0, 0, 1, 0, 0, 0, 0, 0, 1, 0, 0, 0, 0, 0, 1, 0, 0, 0, 0, 0, 0, 0, 1, 0, 0, 0, 0, 0, 0, 0, 0, 0, 0, 0, 1, 0, 0, 0, 1, 0, 0, 0, 0, 0, 1, 0, 0, 0, 0, 0, 1, 0, 1, 0, 0, 0, 0, 0, 1, 0, 0, 0, 0, 0, 0, 0, 0, 0, 0, 0, 1, 0, 0, 0, 0, 0, 0, 0, 0, 0, 1, 0, 0, 0, 0, 0, 0, 0, 0, 0, 0, 0, 0, 0, 0, 0, 0, 0, 1, 0, 1, 0, 0, 0, 1, 0, 0, 0, 0, 0, 1, 0, 1, 0, 0, 0, 0, 0, 1, 0, 0, 0, 1, 0, 1, 0, 0, 0, 1, 0, 0, 0, 0, 0, 0, 0, 0, 0, 0, 0, 1, 0, 1, 0, 0, 0, 0, 0, 1, 0, 0, 0, 0, 0, 0, 0, 0, 0, 0, 0, 0, 0, 0, 0, 0, 0, 0, 0, 0, 0, 0, 0, 0, 0, 0, 0, 0, 0, 0, 0, 0, 0, 1, 0, 0, 0, 0, 0, 1, 0, 0, 0, 0, 0, 1, 0, 0, 0, 0, 0, 0, 0, 1, 0, 0, 0, 0, 0, 0, 0, 0, 0, 0, 0, 0, 0, 0, 0, 0, 0, 1, 0, 0, 0, 0, 0, 0, 0, 0, 0, 1, 0, 0, 0, 0, 0, 0, 0, 0, 0, 0, 0, 0, 0, 1, 0, 0, 0, 1, 0, 1, 0, 0, 0, 1, 0, 0, 0, 0, 0, 1, 0, 0, 0, 0, 0, 0, 0, 1, 0, 0, 0, 1, 0, 1, 0, 0, 0, 0, 0, 1, 0, 0, 0, 0, 0, 0, 0, 0, 0, 0, 0, 1, 0, 0, 0, 0, 0, 0, 0, 0, 0, 1, 0, 1, 0, 0, 0, 1, 0, 1, 0, 0, 0, 1, 0, 0, 0, 0, 0, 1, 0, 0, 0, 0, 0, 0, 0, 0, 0, 0, 0, 1, 0, 0, 0, 0, 0, 0, 0, 0, 0, 0, 0, 1, 0, 0, 0, 0, 0, 0, 0, 1, 0, 0, 0, 0, 0, 0, 0, 0, 0, 0, 0, 1, 0, 0, 0, 0, 0, 1, 0, 0, 0, 1, 0, 0, 0, 0, 0, 1, 0, 0, 0, 0, 0, 0, 0, 1, 0, 0, 0, 1, 0, 0, 0, 0, 0, 0, 0, 1, 0, 0, 0, 1, 0, 0, 0, 0, 0, 0, 0, 0, 0, 0, 0, 0, 0, 1, 0, 0, 0, 1, 0, 0, 0, 0, 0, 1, 0, 1, 0, 0, 0, 1, 0, 0, 0, 0, 0, 1, 0, 1, 0, 0, 0, 0, 0, 1, 0, 0, 0, 0, 0, 0, 0, 0, 0, 1, 0, 0, 0, 0, 0, 0, 0, 0, 0, 0, 0, 0, 0, 0, 0, 0, 0, 0, 0, 1, 0, 0, 0, 0, 0, 1, 0, 0, 0, 1, 0, 1, 0, 0, 0, 0, 0, 0, 0, 0, 0, 0, 0, 0, 0, 0, 0, 0, 0, 0, 0, 0, 0, 0, 0, 1, 0, 0, 0, 1, 0, 1, 0, 0, 0, 0, 0, 0, 0, 0, 0, 1, 0, 0, 0, 0, 0, 0, 0, 0, 0, 0, 0, 1, 0, 1, 0, 0, 0, 0, 0, 0, 0, 0, 0, 1, 0, 0, 0, 0, 0, 0, 0, 1, 0, 0, 0, 0, 0, 1, 0, 0, 0, 0, 0, 1, 0, 0, 0, 0, 0, 1, 0, 0, 0, 0, 0, 0, 0, 0, 0, 0, 0, 0, 0, 0, 0, 0, 0, 1, 0, 0, 0, 0, 0, 1, 0, 0, 0, 1, 0, 1, 0, 0, 0, 0, 0, 0, 0, 0, 0, 0, 0, 1, 0, 0, 0, 0, 0, 0, 0, 0, 0, 1, 0, 0, 0, 0, 0, 0, 0, 0, 0, 0, 0, 1, 0, 0, 0, 0, 0, 0, 0, 1, 0, 0, 0, 0, 0, 0, 0, 0, 0, 0, 0, 0, 0, 0, 0, 1, 0, 0, 0, 0, 0, 0, 0, 0, 0, 0, 0, 0, 0, 1, 0, 0, 0, 0, 0, 1, 0, 0, 0, 1, 0, 1, 0, 0, 0, 1, 0, 1, 0, 0, 0, 0, 0, 0, 0, 0, 0, 1, 0, 0, 0, 0, 0, 0, 0, 0, 0, 0, 0, 1, 0, 0, 0, 0, 0, 1, 0, 0, 0, 0, 0, 1, 0, 0, 0, 0, 0, 0, 0, 0, 0, 0, 0, 0, 0, 0, 0, 0, 0, 1, 0, 1, 0, 0, 0, 0, 0, 0, 0, 0, 0, 0, 0, 0, 0, 0, 0, 1, 0, 1, 0, 0, 0, 0, 0, 0, 0, 0, 0, 0, 0, 0, 0, 0, 0, 0, 0, 0, 0, 0, 0, 1, 0, 0, 0, 0, 0, 1, 0, 0, 0, 0, 0, 0, 0, 1, 0, 0, 0, 0, 0, 1, 0, 0, 0, 1, 0, 1, 0, 0, 0, 1, 0, 0, 0, 0, 0, 0, 0, 1, 0, 0, 0, 0, 0, 1, 0, 0, 0, 0, 0, 0, 0, 0, 0, 1, 0, 1, 0, 0, 0, 0, 0, 0, 0, 0, 0, 1, 0, 0, 0, 0, 0, 0, 0, 0, 0, 0, 0, 0, 0, 1, 0, 0, 0, 0, 0, 0, 0, 0, 0, 1, 0, 0, 0, 0, 0, 1, 0, 0, 0, 0, 0, 0, 0, 0, 0, 0, 0, 1, 0, 1, 0, 0, 0, 1, 0, 1, 0, 0, 0, 0, 0, 0, 0, 0, 0, 1, 0, 0, 0, 0, 0, 0, 0, 0, 0, 0, 0, 1, 0, 1, 0, 0, 0, 0, 0, 0, 0, 0, 0, 0, 0, 0, 0, 0, 0, 1, 0, 1, 0, 0, 0, 0, 0, 1, 0, 0, 0, 1, 0, 1, 0, 0, 0, 0, 0, 0, 0, 0, 0, 1, 0, 0, 0, 0, 0, 0, 0, 1, 0, 0, 0, 0, 0, 0, 0, 0, 0, 0, 0, 0, 0, 0, 0, 0, 0, 1, 0, 0, 0, 0, 0, 0, 0, 0, 0, 0, 0, 0, 0, 0, 0, 0, 0, 0, 0, 0, 0, 0, 0, 1, 0, 0, 0, 1, 0, 0, 0, 0, 0, 1, 0, 0, 0, 0, 0, 0, 0, 1, 0, 0, 0, 0, 0, 0, 0, 0, 0, 0, 0, 0, 0, 0, 0, 1, 0, 1, 0, 0, 0, 1, 0, 0, 0, 0, 0, 0, 0, 1, 0, 0, 0, 0, 0, 0, 0, 0, 0, 0, 0, 0, 0, 0, 0, 1, 0, 1, 0, 0, 0, 1, 0, 0, 0, 0, 0, 0, 0, 1, 0, 0, 0, 0, 0, 1, 0, 0, 0, 0, 0, 1, 0, 0, 0, 1, 0, 0, 0, 0, 0, 0, 0, 0, 0, 0, 0, 1, 0, 1, 0, 0, 0, 0, 0, 0, 0, 0, 0, 0, 0, 0, 0, 0, 0, 0, 0, 0, 0, 0, 0, 1, 0, 0, 0, 0, 0, 1, 0, 1, 0, 0, 0, 0, 0, 1, 0, 0, 0, 1, 0, 0, 0, 0, 0, 1, 0, 0, 0, 0, 0, 0, 0, 0, 0, 0, 0, 0, 0, 1, 0, 0, 0, 0, 0, 1, 0, 0, 0, 1, 0, 1, 0, 0, 0, 0, 0, 1, 0, 0, 0, 1, 0, 0, 0, 0, 0, 1, 0, 0, 0, 0, 0, 0, 0, 0, 0, 0, 0, 1, 0, 0, 0, 0, 0, 1, 0, 0, 0, 0, 0, 1, 0, 0, 0, 0, 0, 0, 0, 0, 0, 0, 0, 0, 0, 1, 0, 0, 0, 1, 0, 0, 0, 0, 0, 1, 0, 0, 0, 0, 0, 0, 0, 0, 0, 0, 0, 1, 0, 0, 0, 0, 0, 0, 0, 1, 0, 0, 0, 0, 0, 1, 0, 0, 0, 1, 0, 0, 0, 0, 0, 0, 0, 0, 0, 0, 0, 0, 0, 0, 0, 0, 0, 0, 0, 0, 0, 0, 0, 0, 0, 1, 0, 0, 0, 0, 0, 0, 0, 0, 0, 0, 0, 0, 0, 0, 0, 0, 0, 1, 0, 0, 0, 0, 0, 0, 0, 0, 0, 1, 0, 0, 0, 0, 0, 0, 0, 1, 0, 0, 0, 1, 0, 0, 0, 0, 0, 1, 0, 1, 0, 0, 0, 0, 0, 1, 0, 0, 0, 0, 0, 0, 0, 0, 0, 0, 0, 0, 0, 0, 0, 0, 0, 0, 0, 0, 0, 1, 0, 0, 0, 0, 0, 0, 0, 0, 0, 0, 0, 1, 0, 1, 0, 0, 0, 0, 0, 0, 0, 0, 0, 0, 0, 0, 0, 0, 0, 1, 0, 0, 0, 0, 0, 0, 0, 1, 0, 0, 0, 1, 0, 0, 0, 0, 0, 0, 0, 0, 0, 0, 0, 1, 0, 0, 0, 0, 0, 0, 0, 0, 0, 0, 0, 0, 0, 1, 0, 0, 0, 0, 0, 0, 0, 0, 0, 1, 0, 1, 0, 0, 0, 1, 0, 0, 0, 0, 0, 0, 0, 1, 0, 0, 0, 0, 0, 1, 0, 0, 0, 0, 0, 1, 0, 0, 0, 1, 0, 1, 0, 0, 0, 1, 0, 0, 0, 0, 0, 1, 0, 0, 0, 0, 0, 0, 0, 1, 0, 0, 0, 1, 0, 1, 0, 0, 0, 0, 0, 1, 0, 0, 0, 0, 0, 0, 0, 0, 0, 1, 0, 1, 0, 0, 0, 0, 0, 0, 0, 0, 0, 1, 0, 0, 0, 0, 0, 0, 0, 1, 0, 0, 0, 1, 0, 0, 0, 0, 0, 0, 0, 0, 0, 0, 0, 0, 0, 1, 0, 0, 0, 0, 0, 0, 0, 0, 0, 1, 0, 0, 0, 0, 0, 0, 0, 0, 0, 0, 0, 1, 0, 1, 0, 0, 0, 0, 0, 1, 0, 0, 0, 1, 0, 1, 0, 0, 0, 0, 0, 0, 0, 0, 0, 0, 0, 0, 0, 0, 0, 1, 0, 0, 0, 0, 0, 0, 0, 0, 0, 0, 0, 0, 0, 1, 0, 0, 0, 1, 0, 0, 0, 0, 0, 1, 0, 0, 0, 0, 0, 0, 0, 1, 0, 0, 0, 0, 0, 1, 0, 0, 0, 1, 0, 0, 0, 0, 0, 0, 0, 0, 0, 0, 0, 0, 0, 0, 0, 0, 0, 1, 0, 0, 0, 0, 0, 0, 0, 1, 0, 0, 0, 0, 0, 0, 0, 0, 0, 1, 0, 0, 0, 0, 0, 1, 0, 0, 0, 0, 0, 1, 0, 0, 0, 0, 0, 0, 0, 1, 0, 0, 0, 0, 0, 0, 0, 0, 0, 1, 0, 0, 0, 0, 0, 0, 0, 0, 0, 0, 0, 1, 0, 0, 0, 0, 0, 0, 0, 0, 0, 0, 0, 0, 0, 1, 0, 0, 0, 1, 0, 0, 0, 0, 0, 1, 0, 0, 0, 0, 0, 1, 0, 1, 0, 0, 0, 0, 0, 0, 0, 0, 0, 0, 0, 0, 0, 0, 0, 0, 0, 0, 0, 0, 0, 0, 0, 0, 0, 0, 0, 1, 0, 1, 0, 0, 0, 0, 0, 0, 0, 0, 0, 1, 0, 0, 0, 0, 0, 0, 0, 1, 0, 0, 0, 1, 0, 0, 0, 0, 0, 0, 0, 0, 0, 0, 0, 0, 0, 1, 0, 0, 0, 1, 0, 0, 0, 0, 0, 0, 0, 1, 0, 0, 0, 0, 0, 0, 0, 0, 0, 0, 0, 1, 0, 0, 0, 0, 0, 1, 0, 0, 0, 0, 0, 0, 0, 0, 0, 0, 0, 1, 0, 0, 0, 1, 0, 0, 0, 0, 0, 1, 0, 0, 0, 0, 0, 0, 0, 0, 0, 0, 0, 0, 0, 0, 0, 0, 0, 0, 0, 1, 0, 0, 0, 0, 0, 0, 0, 0, 0, 1, 0, 1, 0, 0, 0, 0, 0, 0, 0, 0, 0, 0, 0, 0, 0, 0, 0, 1, 0, 0, 0, 0, 0, 0, 0, 0, 0, 0, 0, 0, 0, 0, 0, 0, 0, 0, 0, 0, 0, 0, 0, 0, 0, 1, 0, 0, 0, 1, 0, 1, 0, 0, 0, 0, 0, 0, 0, 0, 0, 0, 0, 1, 0, 0, 0, 0, 0, 1, 0, 0, 0, 1, 0, 0, 0, 0, 0, 0, 0, 0, 0, 0, 0, 1, 0, 0, 0, 0, 0, 1, 0, 0, 0, 0, 0, 0, 0, 1, 0, 0, 0, 1, 0, 0, 0, 0, 0, 0, 0, 1, 0, 0, 0, 0, 0, 0, 0, 0, 0, 0, 0, 0, 0, 0, 0, 0, 0, 0, 0, 0, 0, 1, 0, 1, 0, 0, 0, 1, 0, 1, 0, 0, 0, 0, 0, 0, 0, 0, 0, 0, 0, 1, 0, 0, 0, 0, 0, 0, 0, 0, 0, 0, 0, 0, 0, 0, 0, 0, 0, 0, 0, 0, 0, 0, 0, 0, 0, 0, 0, 1, 0, 1, 0, 0, 0, 0, 0, 1, 0, 0, 0, 0, 0, 1, 0, 0, 0, 0, 0, 1, 0, 0, 0, 1, 0, 0, 0, 0, 0, 1, 0, 1, 0, 0, 0, 0, 0, 0, 0, 0, 0, 0, 0, 1, 0, 0, 0, 1, 0, 0, 0, 0, 0, 0, 0, 0, 0, 0, 0, 1, 0, 1, 0, 0, 0, 0, 0, 0, 0, 0, 0, 1, 0, 1, 0, 0, 0, 0, 0, 0, 0, 0, 0, 0, 0, 0, 0, 0, 0, 1, 0, 1, 0, 0, 0, 0, 0, 0, 0, 0, 0, 0, 0, 0, 0, 0, 0, 1, 0, 0, 0, 0, 0, 1, 0, 0, 0, 0, 0, 0, 0, 0, 0, 0, 0, 0, 0, 0, 0, 0, 0, 0, 0, 1, 0, 0, 0, 0, 0, 0, 0, 0, 0, 0, 0, 0, 0, 0, 0, 1, 0, 0, 0, 0, 0, 0, 0, 1, 0, 0, 0, 1, 0, 1, 0, 0, 0, 1, 0, 1, 0, 0, 0, 0, 0, 0, 0, 0, 0, 0, 0, 0, 0, 0, 0, 0, 0, 0, 0, 0, 0, 1, 0, 0, 0, 0, 0, 0, 0, 1, 0, 0, 0, 0, 0, 0, 0, 0, 0, 0, 0, 1, 0, 0, 0, 0, 0, 1, 0, 0, 0, 0, 0, 0, 0, 0, 0, 1, 0, 1, 0, 0, 0, 1, 0, 0, 0, 0, 0, 1, 0, 1, 0, 0, 0, 0, 0, 1, 0, 0, 0, 0, 0, 0, 0, 0, 0, 1, 0, 1, 0, 0, 0, 0, 0, 0, 0, 0, 0, 0, 0, 1, 0, 0, 0, 0, 0, 0, 0, 0, 0, 1, 0, 1, 0, 0, 0, 0, 0, 0, 0, 0, 0, 1, 0, 0, 0, 0, 0, 0, 0, 0, 0, 0, 0, 0, 0, 1, 0, 0, 0, 0, 0, 1, 0, 0, 0, 1, 0, 0, 0, 0, 0, 1, 0, 0, 0, 0, 0, 0, 0, 1, 0, 0, 0, 0, 0, 1, 0, 0, 0, 0, 0, 1, 0, 0, 0, 0, 0, 0, 0, 0, 0, 0, 0, 0, 0, 0, 0, 1, 0, 0, 0, 0, 0, 0, 0, 0, 0, 0, 0, 1, 0, 1, 0, 0, 0, 1, 0, 0, 0, 0, 0, 0, 0, 0, 0, 0, 0, 0, 0, 1, 0, 0, 0, 0, 0, 1, 0, 0, 0, 1, 0, 0, 0, 0, 0, 0, 0, 1, 0, 0, 0, 0, 0, 0, 0, 0, 0, 1, 0, 0, 0, 0, 0, 0, 0, 1, 0, 0, 0, 0, 0, 1, 0, 0, 0, 0, 0, 1, 0, 0, 0, 0, 0, 0, 0, 0, 0, 0, 0, 0, 0, 0, 0, 0, 0, 0, 0, 0, 0, 1, 0, 0, 0, 0, 0, 1, 0, 1, 0, 0, 0, 0, 0, 0, 0, 0, 0, 1, 0, 0, 0, 0, 0, 0, 0, 0, 0, 0, 0, 0, 0, 1, 0, 0, 0, 1, 0, 0, 0, 0, 0, 1, 0, 0, 0, 0, 0, 0, 0, 0, 0, 0, 0, 0, 0, 0, 0, 0, 0, 1, 0, 1, 0, 0, 0, 0, 0, 0, 0, 0, 0, 1, 0, 0, 0, 0, 0, 0, 0, 0, 0, 0, 0, 0, 0, 1, 0, 0, 0, 1, 0, 1, 0, 0, 0, 0, 0, 0, 0, 0, 0, 1, 0, 0, 0, 0, 0, 0, 0, 0, 0, 0, 0, 0, 0, 1, 0, 0, 0, 1, 0, 0, 0, 0, 0, 0, 0, 1, 0, 0, 0, 0, 0, 0, 0, 0, 0, 0, 0, 0, 0, 0, 0, 0, 0, 1, 0, 0, 0, 1, 0, 0, 0, 0, 0, 1, 0, 1, 0, 0, 0, 1, 0, 0, 0, 0, 0, 1, 0, 1, 0, 0, 0, 0, 0, 0, 0, 0, 0, 0, 0, 1, 0, 0, 0, 1, 0, 0, 0, 0, 0, 0, 0, 0, 0, 0, 0, 0, 0, 0, 0, 0, 0, 0, 0, 1, 0, 0, 0, 0, 0, 0, 0, 0, 0, 0, 0, 0, 0, 0, 0, 0, 0, 0, 0, 0, 0, 1, 0, 0, 0, 0, 0, 0, 0, 0, 0, 0, 0, 
Factors:
1, *, *, *, 1, *, *, 0, *, 0, 1, 0, *, *, 1, 0, *, *, *, 0, *, *, *, 0, 1, *, *, *, *, *, 1, 0, *, 0, *, *, *, *, *, *, 1, *, *, 0, *, 0, *, 0, *, *, *, 0, 1, *, *, 0, 1, 0, *, 0, 1, 0, *, *, *, *, 1, *, *, 0, *, *, 1, 0, 1, *, *, *, 1, 0, *, 0, *, *, *, *, 1, *, *, 0, 1, *, *, *, *, *, *, 0, *, *, 1, *, 1, *, 1, 0, *, *, *, *, *, *, *, 0, *, 0, 1, 0, 1, *, *, *, *, *, *, *, 1, 0, 1, 0, 1, *, *, 0, 1, *, *, *, *, 0, *, 0, *, *, 1, 0, *, *, 1, *, 1, *, *, *, *, 0, *, *, *, 0, 1, *, *, *, *, *, 1, 0, 1, 0, *, 0, 1, *, 1, 0, 1, *, *, *, *, 0, 1, 0, *, *, 1, *, *, *, *, *, 1, 0, 1, 0, 1, 0, 1, 0, *, *, *, *, *, *, 1, 0, 1, *, 1, 0, 1, *, 1, 0, *, 0, 1, *, 1, *, *, 0, *, *, *, *, 1, 0, *, 0, *, *, 1, 0, *, *, 1, 0, *, *, *, *, 1, 0, 1, 0, *, 0, *, 0, *, 0, 1, *, *, *, 1, 0, 1, 0, *, *, *, *, 1, *, 1, 0, 1, 0, *, 0, *, *, *, *, *, 0, 1, *, 1, 0, *, *, 1, *, 1, *, *, *, *, 0, 1, 0, 1, 0, *, *, *, *, *, *, 1, *, 1, 0, *, *, *, *, *, 0, *, *, 1, 0, 1, *, 1, *, *, *, *, *, *, 0, 1, 0, 1, *, *, *, 1, *, *, 0, *, 0, 1, 0, *, *, 1, 0, *, *, *, 0, *, *, *, 0, 1, *, *, *, *, *, 1, 0, *, 0, *, *, *, *, *, *, 1, *, *, 0, *, 0, *, 0, *, *, *, 0, 1, *, *, 0, 1, 0, *, 0, 1, 0, *, *, *, *, 1, *, *, 0, *, *, 1, 0, 1, *, *, *, 1, 0, *, 0, *, *, *, *, 1, *, *, 0, 1, *, *, *, *, *, *, 0, *, *, 1, *, 1, *, 1, 0, *, *, *, *, *, *, *, 0, *, 0, 1, 0, 1, *, *, *, *, *, *, *, 1, 0, 1, 0, 1, *, *, 0, 1, *, *, *, *, 0, *, 0, *, *, 1, 0, *, *, 1, *, 1, *, *, *, *, 0, *, *, *, 0, 1, *, *, *, *, *, 1, 0, 1, 0, *, 0, 1, *, 1, 0, 1, *, *, *, *, 0, 1, 0, *, *, 1, *, *, *, *, *, 1, 0, 1, 0, 1, 0, 1, 0, *, *, *, *, *, *, 1, 0, 1, *, 1, 0, 1, *, 1, 0, *, 0, 1, *, 1, *, *, 0, *, *, *, *, 1, 0, *, 0, *, *, 1, 0, *, *, 1, 0, *, *, *, *, 1, 0, 1, 0, *, 0, *, 0, *, 0, 1, *, *, *, 1, 0, 1, 0, *, *, *, *, 1, *, 1, 0, 1, 0, *, 0, *, *, *, *, *, 0, 1, *, 1, 0, *, *, 1, *, 1, *, *, *, *, 0, 1, 0, 1, 0, *, *, *, *, *, *, 1, *, 1, 0, *, *, *, *, *, 0, *, *, 1, 0, 1, *, 1, *, *, *, *, *, *, 0, 1, 0, 1, *, *, *, 1, *, *, 0, *, 0, 1, 0, *, *, 1, 0, *, *, *, 0, *, *, *, 0, 1, *, *, *, *, *, 1, 0, *, 0, *, *, *, *, *, *, 1, *, *, 0, *, 0, *, 0, *, *, *, 0, 1, *, *, 0, 1, 0, *, 0, 1, 0, *, *, *, *, 1, *, *, 0, *, *, 1, 0, 1, *, *, *, 1, 0, *, 0, *, *, *, *, 1, *, *, 0, 1, *, *, *, *, *, *, 0, *, *, 1, *, 1, *, 1, 0, *, *, *, *, *, *, *, 0, *, 0, 1, 0, 1, *, *, *, *, *, *, *, 1, 0, 1, 0, 1, *, *, 0, 1, *, *, *, *, 0, *, 0, *, *, 1, 0, *, *, 1, *, 1, *, *, *, *, 0, *, *, *, 0, 1, *, *, *, *, *, 1, 0, 1, 0, *, 0, 1, *, 1, 0, 1, *, *, *, *, 0, 1, 0, *, *, 1, *, *, *, *, *, 1, 0, 1, 0, 1, 0, 1, 0, *, *, *, *, *, *, 1, 0, 1, *, 1, 0, 1, *, 1, 0, *, 0, 1, *, 1, *, *, 0, *, *, *, *, 1, 0, *, 0, *, *, 1, 0, *, *, 1, 0, *, *, *, *, 1, 0, 1, 0, *, 0, *, 0, *, 0, 1, *, *, *, 1, 0, 1, 0, *, *, *, *, 1, *, 1, 0, 1, 0, *, 0, *, *, *, *, *, 0, 1, *, 1, 0, *, *, 1, *, 1, *, *, *, *, 0, 1, 0, 1, 0, *, *, *, *, *, *, 1, *, 1, 0, *, *, *, *, *, 0, *, *, 1, 0, 1, *, 1, *, *, *, *, *, *, 0, 1, 0, 1, *, *, *, 1, *, *, 0, *, 0, 1, 0, *, *, 1, 0, *, *, *, 0, *, *, *, 0, 1, *, *, *, *, *, 1, 0, *, 0, *, *, *, *, *, *, 1, *, *, 0, *, 0, *, 0, *, *, *, 0, 1, *, *, 0, 1, 0, *, 0, 1, 0, *, *, *, *, 1, *, *, 0, *, *, 1, 0, 1, *, *, *, 1, 0, *, 0, *, *, *, *, 1, *, *, 0, 1, *, *, *, *, *, *, 0, *, *, 1, *, 1, *, 1, 0, *, *, *, *, *, *, *, 0, *, 0, 1, 0, 1, *, *, *, *, *, *, *, 1, 0, 1, 0, 1, *, *, 0, 1, *, *, *, *, 0, *, 0, *, *, 1, 0, *, *, 1, *, 1, *, *, *, *, 0, *, *, *, 0, 1, *, *, *, *, *, 1, 0, 1, 0, *, 0, 1, *, 1, 0, 1, *, *, *, *, 0, 1, 0, *, *, 1, *, *, *, *, *, 1, 0, 1, 0, 1, 0, 1, 0, *, *, *, *, *, *, 1, 0, 1, *, 1, 0, 1, *, 1, 0, *, 0, 1, *, 1, *, *, 0, *, *, *, *, 1, 0, *, 0, *, *, 1, 0, *, *, 1, 0, *, *, *, *, 1, 0, 1, 0, *, 0, *, 0, *, 0, 1, *, *, *, 1, 0, 1, 0, *, *, *, *, 1, *, 1, 0, 1, 0, *, 0, *, *, *, *, *, 0, 1, *, 1, 0, *, *, 1, *, 1, *, *, *, *, 0, 1, 0, 1, 0, *, *, *, *, *, *, 1, *, 1, 0, *, *, *, *, *, 0, *, *, 1, 0, 1, *, 1, *, *, *, *, *, *, 0, 1, 0, 1, *, *, *, 1, *, *, 0, *, 0, 1, 0, *, *, 1, 0, *, *, *, 0, *, *, *, 0, 1, *, *, *, *, *, 1, 0, *, 0, *, *, *, *, *, *, 1, *, *, 0, *, 0, *, 0, *, *, *, 0, 1, *, *, 0, 1, 0, *, 0, 1, 0, *, *, *, *, 1, *, *, 0, *, *, 1, 0, 1, *, *, *, 1, 0, *, 0, *, *, *, *, 1, *, *, 0, 1, *, *, *, *, *, *, 0, *, *, 1, *, 1, *, 1, 0, *, *, *, *, *, *, *, 0, *, 0, 1, 0, 1, *, *, *, *, *, *, *, 1, 0, 1, 0, 1, *, *, 0, 1, *, *, *, *, 0, *, 0, *, *, 1, 0, *, *, 1, *, 1, *, *, *, *, 0, *, *, *, 0, 1, *, *, *, *, *, 1, 0, 1, 0, *, 0, 1, *, 1, 0, 1, *, *, *, *, 0, 1, 0, *, *, 1, *, *, *, *, *, 1, 0, 1, 0, 1, 0, 1, 0, *, *, *, *, *, *, 1, 0, 1, *, 1, 0, 1, *, 1, 0, *, 0, 1, *, 1, *, *, 0, *, *, *, *, 1, 0, *, 0, *, *, 1, 0, *, *, 1, 0, *, *, *, *, 1, 0, 1, 0, *, 0, *, 0, *, 0, 1, *, *, *, 1, 0, 1, 0, *, *, *, *, 1, *, 1, 0, 1, 0, *, 0, *, *, *, *, *, 0, 1, *, 1, 0, *, *, 1, *, 1, *, *, *, *, 0, 1, 0, 1, 0, *, *, *, *, *, *, 1, *, 1, 0, *, *, *, *, *, 0, *, *, 1, 0, 1, *, 1, *, *, *, *, *, *, 0, 1, 0, 1, *, *, *, 1, *, *, 0, *, 0, 1, 0, *, *, 1, 0, *, *, *, 0, *, *, *, 0, 1, *, *, *, *, *, 1, 0, *, 0, *, *, *, *, *, *, 1, *, *, 0, *, 0, *, 0, *, *, *, 0, 1, *, *, 0, 1, 0, *, 0, 1, 0, *, *, *, *, 1, *, *, 0, *, *, 1, 0, 1, *, *, *, 1, 0, *, 0, *, *, *, *, 1, *, *, 0, 1, *, *, *, *, *, *, 0, *, *, 1, *, 1, *, 1, 0, *, *, *, *, *, *, *, 0, *, 0, 1, 0, 1, *, *, *, *, *, *, *, 1, 0, 1, 0, 1, *, *, 0, 1, *, *, *, *, 0, *, 0, *, *, 1, 0, *, *, 1, *, 1, *, *, *, *, 0, *, *, *, 0, 1, *, *, *, *, *, 1, 0, 1, 0, *, 0, 1, *, 1, 0, 1, *, *, *, *, 0, 1, 0, *, *, 1, *, *, *, *, *, 1, 0, 1, 0, 1, 0, 1, 0, *, *, *, *, *, *, 1, 0, 1, *, 1, 0, 1, *, 1, 0, *, 0, 1, *, 1, *, *, 0, *, *, *, *, 1, 0, *, 0, *, *, 1, 0, *, *, 1, 0, *, *, *, *, 1, 0, 1, 0, *, 0, *, 0, *, 0, 1, *, *, *, 1, 0, 1, 0, *, *, *, *, 1, *, 1, 0, 1, 0, *, 0, *, *, *, *, *, 0, 1, *, 1, 0, *, *, 1, *, 1, *, *, *, *, 0, 1, 0, 1, 0, *, *, *, *, *, *, 1, *, 1, 0, *, *, *, *, *, 0, *, *, 1, 0, 1, *, 1, *, *, *, *, *, *, 0, 1, 0, 1, *, *, *, 1, *, *, 0, *, 0, 1, 0, *, *, 1, 0, *, *, *, 0, *, *, *, 0, 1, *, *, *, *, *, 1, 0, *, 0, *, *, *, *, *, *, 1, *, *, 0, *, 0, *, 0, *, *, *, 0, 1, *, *, 0, 1, 0, *, 0, 1, 0, *, *, *, *, 1, *, *, 0, *, *, 1, 0, 1, *, *, *, 1, 0, *, 0, *, *, *, *, 1, *, *, 0, 1, *, *, *, *, *, *, 0, *, *, 1, *, 1, *, 1, 0, *, *, *, *, *, *, *, 0, *, 0, 1, 0, 1, *, *, *, *, *, *, *, 1, 0, 1, 0, 1, *, *, 0, 1, *, *, *, *, 0, *, 0, *, *, 1, 0, *, *, 1, *, 1, *, *, *, *, 0, *, *, *, 0, 1, *, *, *, *, *, 1, 0, 1, 0, *, 0, 1, *, 1, 0, 1, *, *, *, *, 0, 1, 0, *, *, 1, *, *, *, *, *, 1, 0, 1, 0, 1, 0, 1, 0, *, *, *, *, *, *, 1, 0, 1, *, 1, 0, 1, *, 1, 0, *, 0, 1, *, 1, *, *, 0, *, *, *, *, 1, 0, *, 0, *, *, 1, 0, *, *, 1, 0, *, *, *, *, 1, 0, 1, 0, *, 0, *, 0, *, 0, 1, *, *, *, 1, 0, 1, 0, *, *, *, *, 1, *, 1, 0, 1, 0, *, 0, *, *, *, *, *, 0, 1, *, 1, 0, *, *, 1, *, 1, *, *, *, *, 0, 1, 0, 1, 0, *, *, *, *, *, *, 1, *, 1, 0, *, *, *, *, *, 0, *, *, 1, 0, 1, *, 1, *, *, *, *, *, *, 0, 1, 0, 1, *, *, *, 1, *, *, 0, *, 0, 1, 0, *, *, 1, 0, *, *, *, 0, *, *, *, 0, 1, *, *, *, *, *, 1, 0, *, 0, *, *, *, *, *, *, 1, *, *, 0, *, 0, *, 0, *, *, *, 0, 1, *, *, 0, 1, 0, *, 0, 1, 0, *, *, *, *, 1, *, *, 0, *, *, 1, 0, 1, *, *, *, 1, 0, *, 0, *, *, *, *, 1, *, *, 0, 1, *, *, *, *, *, *, 0, *, *, 1, *, 1, *, 1, 0, *, *, *, *, *, *, *, 0, *, 0, 1, 0, 1, *, *, *, *, *, *, *, 1, 0, 1, 0, 1, *, *, 0, 1, *, *, *, *, 0, *, 0, *, *, 1, 0, *, *, 1, *, 1, *, *, *, *, 0, *, *, *, 0, 1, *, *, *, *, *, 1, 0, 1, 0, *, 0, 1, *, 1, 0, 1, *, *, *, *, 0, 1, 0, *, *, 1, *, *, *, *, *, 1, 0, 1, 0, 1, 0, 1, 0, *, *, *, *, *, *, 1, 0, 1, *, 1, 0, 1, *, 1, 0, *, 0, 1, *, 1, *, *, 0, *, *, *, *, 1, 0, *, 0, *, *, 1, 0, *, *, 1, 0, *, *, *, *, 1, 0, 1, 0, *, 0, *, 0, *, 0, 1, *, *, *, 1, 0, 1, 0, *, *, *, *, 1, *, 1, 0, 1, 0, *, 0, *, *, *, *, *, 0, 1, *, 1, 0, *, *, 1, *, 1, *, *, *, *, 0, 1, 0, 1, 0, *, *, *, *, *, *, 1, *, 1, 0, *, *, *, *, *, 0, *, *, 1, 0, 1, *, 1, *, *, *, *, *, *, 0, 1, 0, 1, *, *, *, 1, *, *, 0, *, 0, 1, 0, *, *, 1, 0, *, *, *, 0, *, *, *, 0, 1, *, *, *, *, *, 1, 0, *, 0, *, *, *, *, *, *, 1, *, *, 0, *, 0, *, 0, *, *, *, 0, 1, *, *, 0, 1, 0, *, 0, 1, 0, *, *, *, *, 1, *, *, 0, *, *, 1, 0, 1, *, *, *, 1, 0, *, 0, *, *, *, *, 1, *, *, 0, 1, *, *, *, *, *, *, 0, *, *, 1, *, 1, *, 1, 0, *, *, *, *, *, *, *, 0, *, 0, 1, 0, 1, *, *, *, *, *, *, *, 1, 0, 1, 0, 1, *, *, 0, 1, *, *, *, *, 0, *, 0, *, *, 1, 0, *, *, 1, *, 1, *, *, *, *, 0, *, *, *, 0, 1, *, *, *, *, *, 1, 0, 1, 0, *, 0, 1, *, 1, 0, 1, *, *, *, *, 0, 1, 0, *, *, 1, *, *, *, *, *, 1, 0, 1, 0, 1, 0, 1, 0, *, *, *, *, *, *, 1, 0, 1, *, 1, 0, 1, *, 1, 0, *, 0, 1, *, 1, *, *, 0, *, *, *, *, 1, 0, *, 0, *, *, 1, 0, *, *, 1, 0, *, *, *, *, 1, 0, 1, 0, *, 0, *, 0, *, 0, 1, *, *, *, 1, 0, 1, 0, *, *, *, *, 1, *, 1, 0, 1, 0, *, 0, *, *, *, *, *, 0, 1, *, 1, 0, *, *, 1, *, 1, *, *, *, *, 0, 1, 0, 1, 0, *, *, *, *, *, *, 1, *, 1, 0, *, *, *, *, *, 0, *, *, 1, 0, 1, *, 1, *, *, *, *, *, *, 0, 1, 0, 1, *, *, *, 1, *, *, 0, *, 0, 1, 0, *, *, 1, 0, *, *, *, 0, *, *, *, 0, 1, *, *, *, *, *, 1, 0, *, 0, *, *, *, *, *, *, 1, *, *, 0, *, 0, *, 0, *, *, *, 0, 1, *, *, 0, 1, 0, *, 0, 1, 0, *, *, *, *, 1, *, *, 0, *, *, 1, 0, 1, *, *, *, 1, 0, *, 0, *, *, *, *, 1, *, *, 0, 1, *, *, *, *, *, *, 0, *, *, 1, *, 1, *, 1, 0, *, *, *, *, *, *, *, 0, *, 0, 1, 0, 1, *, *, *, *, *, *, *, 1, 0, 1, 0, 1, *, *, 0, 1, *, *, *, *, 0, *, 0, *, *, 1, 0, *, *, 1, *, 1, *, *, *, *, 0, *, *, *, 0, 1, *, *, *, *, *, 1, 0, 1, 0, *, 0, 1, *, 1, 0, 1, *, *, *, *, 0, 1, 0, *, *, 1, *, *, *, *, *, 1, 0, 1, 0, 1, 0, 1, 0, *, *, *, *, *, *, 1, 0, 1, *, 1, 0, 1, *, 1, 0, *, 0, 1, *, 1, *, *, 0, *, *, *, *, 1, 0, *, 0, *, *, 1, 0, *, *, 1, 0, *, *, *, *, 1, 0, 1, 0, *, 0, *, 0, *, 0, 1, *, *, *, 1, 0, 1, 0, *, *, *, *, 1, *, 1, 0, 1, 0, *, 0, *, *, *, *, *, 0, 1, *, 1, 0, *, *, 1, *, 1, *, *, *, *, 0, 1, 0, 1, 0, *, *, *, *, *, *, 1, *, 1, 0, *, *, *, *, *, 0, *, *, 1, 0, 1, *, 1, *, *, *, *, *, *, 0, 1, 0, 1, *, *, *, 1, *, *, 0, *, 0, 1, 0, *, *, 1, 0, *, *, *, 0, *, *, *, 0, 1, *, *, *, *, *, 1, 0, *, 0, *, *, *, *, *, *, 1, *, *, 0, *, 0, *, 0, *, *, *, 0, 1, *, *, 0, 1, 0, *, 0, 1, 0, *, *, *, *, 1, *, *, 0, *, *, 1, 0, 1, *, *, *, 1, 0, *, 0, *, *, *, *, 1, *, *, 0, 1, *, *, *, *, *, *, 0, *, *, 1, *, 1, *, 1, 0, *, *, *, *, *, *, *, 0, *, 0, 1, 0, 1, *, *, *, *, *, *, *, 1, 0, 1, 0, 1, *, *, 0, 1, *, *, *, *, 0, *, 0, *, *, 1, 0, *, *, 1, *, 1, *, *, *, *, 0, *, *, *, 0, 1, *, *, *, *, *, 1, 0, 1, 0, *, 0, 1, *, 1, 0, 1, *, *, *, *, 0, 1, 0, *, *, 1, *, *, *, *, *, 1, 0, 1, 0, 1, 0, 1, 0, *, *, *, *, *, *, 1, 0, 1, *, 1, 0, 1, *, 1, 0, *, 0, 1, *, 1, *, *, 0, *, *, *, *, 1, 0, *, 0, *, *, 1, 0, *, *, 1, 0, *, *, *, *, 1, 0, 1, 0, *, 0, *, 0, *, 0, 1, *, *, *, 1, 0, 1, 0, *, *, *, *, 1, *, 1, 0, 1, 0, *, 0, *, *, *, *, *, 0, 1, *, 1, 0, *, *, 1, *, 1, *, *, *, *, 0, 1, 0, 1, 0, *, *, *, *, *, *, 1, *, 1, 0, *, *, *, *, *, 0, *, *, 1, 0, 1, *, 1, *, *, *, *, *, *, 0, 1, 0, 1, *, *, *, 1, *, *, 0, *, 0, 1, 0, *, *, 1, 0, *, *, *, 0, *, *, *, 0, 1, *, *, *, *, *, 1, 0, *, 0, *, *, *, *, *, *, 1, *, *, 0, *, 0, *, 0, *, *, *, 0, 1, *, *, 0, 1, 0, *, 0, 1, 0, *, *, *, *, 1, *, *, 0, *, *, 1, 0, 1, *, *, *, 1, 0, *, 0, *, *, *, *, 1, *, *, 0, 1, *, *, *, *, *, *, 0, *, *, 1, *, 1, *, 1, 0, *, *, *, *, *, *, *, 0, *, 0, 1, 0, 1, *, *, *, *, *, *, *, 1, 0, 1, 0, 1, *, *, 0, 1, *, *, *, *, 0, *, 0, *, *, 1, 0, *, *, 1, *, 1, *, *, *, *, 0, *, *, *, 0, 1, *, *, *, *, *, 1, 0, 1, 0, *, 0, 1, *, 1, 0, 1, *, *, *, *, 0, 1, 0, *, *, 1, *, *, *, *, *, 1, 0, 1, 0, 1, 0, 1, 0, *, *, *, *, *, *, 1, 0, 1, *, 1, 0, 1, *, 1, 0, *, 0, 1, *, 1, *, *, 0, *, *, *, *, 1, 0, *, 0, *, *, 1, 0, *, *, 1, 0, *, *, *, *, 1, 0, 1, 0, *, 0, *, 0, *, 0, 1, *, *, *, 1, 0, 1, 0, *, *, *, *, 1, *, 1, 0, 1, 0, *, 0, *, *, *, *, *, 0, 1, *, 1, 0, *, *, 1, *, 1, *, *, *, *, 0, 1, 0, 1, 0, *, *, *, *, *, *, 1, *, 1, 0, *, *, *, *, *, 0, *, *, 1, 0, 1, *, 1, *, *, *, *, *, *, 0, 1, 0, 1, *, *, *, 1, *, *, 0, *, 0, 1, 0, *, *, 1, 0, *, *, *, 0, *, *, *, 0, 1, *, *, *, *, *, 1, 0, *, 0, *, *, *, *, *, *, 
