Number entered was : 30502351862940031577691995198949664002982179597487683486715266186733160876943419156362946151249328917515864630224371171221716993844781534383325603218163254920110064990807393285889718524383600251199650576597076902947432221039432760575157628357292075495937664206199565578681309135044121854119

Primes:
0, 1, 1, 0, 1, 0, 1, 0, 0, 0, 1, 0, 1, 0, 0, 0, 1, 0, 1, 0, 0, 0, 1, 0, 0, 0, 0, 0, 1, 0, 1, 0, 0, 0, 0, 0, 1, 0, 0, 0, 1, 0, 1, 0, 0, 0, 1, 0, 0, 0, 0, 0, 1, 0, 0, 0, 0, 0, 1, 0, 1, 0, 0, 0, 0, 0, 1, 0, 0, 0, 1, 0, 1, 0, 0, 0, 0, 0, 1, 0, 0, 0, 1, 0, 0, 0, 0, 0, 1, 0, 0, 0, 0, 0, 0, 0, 1, 0, 0, 0, 1, 0, 1, 0, 0, 0, 1, 0, 1, 0, 0, 0, 1, 0, 0, 0, 0, 0, 0, 0, 0, 0, 0, 0, 0, 0, 1, 0, 0, 0, 1, 0, 0, 0, 0, 0, 1, 0, 1, 0, 0, 0, 0, 0, 0, 0, 0, 0, 1, 0, 1, 0, 0, 0, 0, 0, 1, 0, 0, 0, 0, 0, 1, 0, 0, 0, 1, 0, 0, 0, 0, 0, 1, 0, 0, 0, 0, 0, 1, 0, 1, 0, 0, 0, 0, 0, 0, 0, 0, 0, 1, 0, 1, 0, 0, 0, 1, 0, 1, 0, 0, 0, 0, 0, 0, 0, 0, 0, 0, 0, 1, 0, 0, 0, 0, 0, 0, 0, 0, 0, 0, 0, 1, 0, 0, 0, 1, 0, 1, 0, 0, 0, 1, 0, 0, 0, 0, 0, 1, 0, 1, 0, 0, 0, 0, 0, 0, 0, 0, 0, 1, 0, 0, 0, 0, 0, 1, 0, 0, 0, 0, 0, 1, 0, 0, 0, 0, 0, 1, 0, 1, 0, 0, 0, 0, 0, 1, 0, 0, 0, 1, 0, 1, 0, 0, 0, 0, 0, 0, 0, 0, 0, 1, 0, 0, 0, 0, 0, 0, 0, 0, 0, 0, 0, 0, 0, 1, 0, 0, 0, 1, 0, 1, 0, 0, 0, 1, 0, 0, 0, 0, 0, 0, 0, 0, 0, 0, 0, 0, 0, 1, 0, 0, 0, 0, 0, 1, 0, 0, 0, 0, 0, 0, 0, 0, 0, 1, 0, 1, 0, 0, 0, 1, 0, 0, 0, 0, 0, 1, 0, 0, 0, 0, 0, 0, 0, 1, 0, 0, 0, 0, 0, 1, 0, 0, 0, 0, 0, 1, 0, 0, 0, 1, 0, 0, 0, 0, 0, 1, 0, 0, 0, 0, 0, 0, 0, 1, 0, 0, 0, 1, 0, 0, 0, 0, 0, 0, 0, 1, 0, 0, 0, 0, 0, 0, 0, 0, 0, 1, 0, 1, 0, 0, 0, 0, 0, 0, 0, 0, 0, 1, 0, 1, 0, 0, 0, 0, 0, 1, 0, 0, 0, 1, 0, 0, 0, 0, 0, 1, 0, 0, 0, 0, 0, 0, 0, 1, 0, 0, 0, 1, 0, 1, 0, 0, 0, 1, 0, 0, 0, 0, 0, 0, 0, 0, 0, 0, 0, 1, 0, 0, 0, 0, 0, 0, 0, 1, 0, 0, 0, 1, 0, 0, 0, 0, 0, 0, 0, 1, 0, 0, 0, 1, 0, 0, 0, 0, 0, 1, 0, 0, 0, 0, 0, 0, 0, 0, 0, 0, 0, 1, 0, 1, 0, 0, 0, 0, 0, 0, 0, 0, 0, 0, 0, 0, 0, 0, 0, 0, 0, 1, 0, 0, 0, 0, 0, 1, 0, 0, 0, 0, 0, 0, 0, 0, 0, 1, 0, 0, 0, 0, 0, 1, 0, 0, 0, 0, 0, 1, 0, 1, 0, 0, 0, 0, 0, 1, 0, 0, 0, 0, 0, 0, 0, 0, 0, 1, 0, 0, 0, 0, 0, 1, 0, 0, 0, 0, 0, 1, 0, 1, 0, 0, 0, 0, 0, 1, 0, 0, 0, 0, 0, 1, 0, 0, 0, 1, 0, 1, 0, 0, 0, 0, 0, 0, 0, 0, 0, 0, 0, 1, 0, 0, 0, 0, 0, 0, 0, 0, 0, 1, 0, 1, 0, 0, 0, 1, 0, 0, 0, 0, 0, 1, 0, 0, 0, 0, 0, 1, 0, 1, 0, 0, 0, 0, 0, 0, 0, 0, 0, 0, 0, 1, 0, 0, 0, 1, 0, 0, 0, 0, 0, 1, 0, 0, 0, 0, 0, 0, 0, 1, 0, 0, 0, 0, 0, 0, 0, 0, 0, 1, 0, 0, 0, 0, 0, 0, 0, 1, 0, 0, 0, 0, 0, 0, 0, 0, 0, 1, 0, 0, 0, 0, 0, 0, 0, 1, 0, 0, 0, 0, 0, 1, 0, 0, 0, 0, 0, 1, 0, 0, 0, 1, 0, 0, 0, 0, 0, 0, 0, 1, 0, 0, 0, 0, 0, 1, 0, 0, 0, 1, 0, 0, 0, 0, 0, 0, 0, 1, 0, 0, 0, 1, 0, 0, 0, 0, 0, 0, 0, 0, 0, 0, 0, 0, 0, 1, 0, 0, 0, 0, 0, 0, 0, 0, 0, 1, 0, 0, 0, 0, 0, 0, 0, 0, 0, 0, 0, 1, 0, 1, 0, 0, 0, 0, 0, 0, 0, 0, 0, 1, 0, 1, 0, 0, 0, 1, 0, 1, 0, 0, 0, 0, 0, 0, 0, 0, 0, 1, 0, 0, 0, 0, 0, 0, 0, 0, 0, 0, 0, 0, 0, 1, 0, 0, 0, 1, 0, 1, 0, 0, 0, 1, 0, 0, 0, 0, 0, 0, 0, 0, 0, 0, 0, 0, 0, 1, 0, 0, 0, 1, 0, 1, 0, 0, 0, 1, 0, 0, 0, 0, 0, 0, 0, 0, 0, 0, 0, 0, 0, 0, 0, 0, 0, 0, 0, 1, 0, 0, 0, 1, 0, 0, 0, 0, 0, 0, 0, 1, 0, 0, 0, 0, 0, 0, 0, 0, 0, 1, 0, 0, 0, 0, 0, 0, 0, 1, 0, 0, 0, 1, 0, 0, 0, 0, 0, 1, 0, 0, 0, 0, 0, 1, 0, 0, 0, 0, 0, 0, 0, 0, 0, 0, 0, 0, 0, 1, 0, 0, 0, 1, 0, 0, 0, 0, 0, 1, 0, 0, 0, 0, 0, 1, 0, 0, 0, 0, 0, 0, 0, 1, 0, 0, 0, 0, 0, 1, 0, 0, 0, 0, 0, 0, 0, 0, 0, 0, 0, 1, 0, 0, 0, 1, 0, 0, 0, 0, 0, 1, 0, 1, 0, 0, 0, 0, 0, 0, 0, 0, 0, 1, 0, 1, 0, 0, 0, 0, 0, 1, 0, 0, 0, 0, 0, 0, 0, 0, 0, 1, 0, 1, 0, 0, 0, 0, 0, 0, 0, 0, 0, 1, 0, 1, 0, 0, 0, 0, 0, 1, 0, 0, 0, 0, 0, 0, 0, 0, 0, 0, 0, 0, 0, 0, 0, 0, 0, 1, 0, 0, 0, 1, 0, 1, 0, 0, 0, 1, 0, 0, 0, 0, 0, 1, 0, 0, 0, 0, 0, 1, 0, 0, 0, 0, 0, 0, 0, 1, 0, 0, 0, 0, 0, 1, 0, 0, 0, 0, 0, 1, 0, 0, 0, 0, 0, 0, 0, 0, 0, 0, 0, 0, 0, 0, 0, 0, 0, 0, 0, 0, 0, 1, 0, 1, 0, 0, 0, 0, 0, 0, 0, 0, 0, 1, 0, 0, 0, 0, 0, 0, 0, 1, 0, 0, 0, 0, 0, 0, 0, 0, 0, 1, 0, 0, 0, 0, 0, 1, 0, 0, 0, 0, 0, 1, 0, 0, 0, 0, 0, 0, 0, 1, 0, 0, 0, 0, 0, 0, 0, 0, 0, 0, 0, 1, 0, 0, 0, 1, 0, 0, 0, 0, 0, 1, 0, 0, 0, 0, 0, 1, 0, 1, 0, 0, 0, 0, 0, 1, 0, 0, 0, 0, 0, 0, 0, 0, 0, 0, 0, 1, 0, 0, 0, 0, 0, 0, 0, 0, 0, 1, 0, 0, 0, 0, 0, 0, 0, 0, 0, 0, 0, 0, 0, 0, 0, 0, 0, 1, 0, 1, 0, 0, 0, 1, 0, 0, 0, 0, 0, 1, 0, 1, 0, 0, 0, 0, 0, 1, 0, 0, 0, 1, 0, 1, 0, 0, 0, 1, 0, 0, 0, 0, 0, 0, 0, 0, 0, 0, 0, 1, 0, 1, 0, 0, 0, 0, 0, 1, 0, 0, 0, 0, 0, 0, 0, 0, 0, 0, 0, 0, 0, 0, 0, 0, 0, 0, 0, 0, 0, 0, 0, 0, 0, 0, 0, 0, 0, 0, 0, 0, 0, 1, 0, 0, 0, 0, 0, 1, 0, 0, 0, 0, 0, 1, 0, 0, 0, 0, 0, 0, 0, 1, 0, 0, 0, 0, 0, 0, 0, 0, 0, 0, 0, 0, 0, 0, 0, 0, 0, 1, 0, 0, 0, 0, 0, 0, 0, 0, 0, 1, 0, 0, 0, 0, 0, 0, 0, 0, 0, 0, 0, 0, 0, 1, 0, 0, 0, 1, 0, 1, 0, 0, 0, 1, 0, 0, 0, 0, 0, 1, 0, 0, 0, 0, 0, 0, 0, 1, 0, 0, 0, 1, 0, 1, 0, 0, 0, 0, 0, 1, 0, 0, 0, 0, 0, 0, 0, 0, 0, 0, 0, 1, 0, 0, 0, 0, 0, 0, 0, 0, 0, 1, 0, 1, 0, 0, 0, 1, 0, 1, 0, 0, 0, 1, 0, 0, 0, 0, 0, 1, 0, 0, 0, 0, 0, 0, 0, 0, 0, 0, 0, 1, 0, 0, 0, 0, 0, 0, 0, 0, 0, 0, 0, 1, 0, 0, 0, 0, 0, 0, 0, 1, 0, 0, 0, 0, 0, 0, 0, 0, 0, 0, 0, 1, 0, 0, 0, 0, 0, 1, 0, 0, 0, 1, 0, 0, 0, 0, 0, 1, 0, 0, 0, 0, 0, 0, 0, 1, 0, 0, 0, 1, 0, 0, 0, 0, 0, 0, 0, 1, 0, 0, 0, 1, 0, 0, 0, 0, 0, 0, 0, 0, 0, 0, 0, 0, 0, 1, 0, 0, 0, 1, 0, 0, 0, 0, 0, 1, 0, 1, 0, 0, 0, 1, 0, 0, 0, 0, 0, 1, 0, 1, 0, 0, 0, 0, 0, 1, 0, 0, 0, 0, 0, 0, 0, 0, 0, 1, 0, 0, 0, 0, 0, 0, 0, 0, 0, 0, 0, 0, 0, 0, 0, 0, 0, 0, 0, 1, 0, 0, 0, 0, 0, 1, 0, 0, 0, 1, 0, 1, 0, 0, 0, 0, 0, 0, 0, 0, 0, 0, 0, 0, 0, 0, 0, 0, 0, 0, 0, 0, 0, 0, 0, 1, 0, 0, 0, 1, 0, 1, 0, 0, 0, 0, 0, 0, 0, 0, 0, 1, 0, 0, 0, 0, 0, 0, 0, 0, 0, 0, 0, 1, 0, 1, 0, 0, 0, 0, 0, 0, 0, 0, 0, 1, 0, 0, 0, 0, 0, 0, 0, 1, 0, 0, 0, 0, 0, 1, 0, 0, 0, 0, 0, 1, 0, 0, 0, 0, 0, 1, 0, 0, 0, 0, 0, 0, 0, 0, 0, 0, 0, 0, 0, 0, 0, 0, 0, 1, 0, 0, 0, 0, 0, 1, 0, 0, 0, 1, 0, 1, 0, 0, 0, 0, 0, 0, 0, 0, 0, 0, 0, 1, 0, 0, 0, 0, 0, 0, 0, 0, 0, 1, 0, 0, 0, 0, 0, 0, 0, 0, 0, 0, 0, 1, 0, 0, 0, 0, 0, 0, 0, 1, 0, 0, 0, 0, 0, 0, 0, 0, 0, 0, 0, 0, 0, 0, 0, 1, 0, 0, 0, 0, 0, 0, 0, 0, 0, 0, 0, 0, 0, 1, 0, 0, 0, 0, 0, 1, 0, 0, 0, 1, 0, 1, 0, 0, 0, 1, 0, 1, 0, 0, 0, 0, 0, 0, 0, 0, 0, 1, 0, 0, 0, 0, 0, 0, 0, 0, 0, 0, 0, 1, 0, 0, 0, 0, 0, 1, 0, 0, 0, 0, 0, 1, 0, 0, 0, 0, 0, 0, 0, 0, 0, 0, 0, 0, 0, 0, 0, 0, 0, 1, 0, 1, 0, 0, 0, 0, 0, 0, 0, 0, 0, 0, 0, 0, 0, 0, 0, 1, 0, 1, 0, 0, 0, 0, 0, 0, 0, 0, 0, 0, 0, 0, 0, 0, 0, 0, 0, 0, 0, 0, 0, 1, 0, 0, 0, 0, 0, 1, 0, 0, 0, 0, 0, 0, 0, 1, 0, 0, 0, 0, 0, 1, 0, 0, 0, 1, 0, 1, 0, 0, 0, 1, 0, 0, 0, 0, 0, 0, 0, 1, 0, 0, 0, 0, 0, 1, 0, 0, 0, 0, 0, 0, 0, 0, 0, 1, 0, 1, 0, 0, 0, 0, 0, 0, 0, 0, 0, 1, 0, 0, 0, 0, 0, 0, 0, 0, 0, 0, 0, 0, 0, 1, 0, 0, 0, 0, 0, 0, 0, 0, 0, 1, 0, 0, 0, 0, 0, 1, 0, 0, 0, 0, 0, 0, 0, 0, 0, 0, 0, 1, 0, 1, 0, 0, 0, 1, 0, 1, 0, 0, 0, 0, 0, 0, 0, 0, 0, 1, 0, 0, 0, 0, 0, 0, 0, 0, 0, 0, 0, 1, 0, 1, 0, 0, 0, 0, 0, 0, 0, 0, 0, 0, 0, 0, 0, 0, 0, 1, 0, 1, 0, 0, 0, 0, 0, 1, 0, 0, 0, 1, 0, 1, 0, 0, 0, 0, 0, 0, 0, 0, 0, 1, 0, 0, 0, 0, 0, 0, 0, 1, 0, 0, 0, 0, 0, 0, 0, 0, 0, 0, 0, 0, 0, 0, 0, 0, 0, 1, 0, 0, 0, 0, 0, 0, 0, 0, 0, 0, 0, 0, 0, 0, 0, 0, 0, 0, 0, 0, 0, 0, 0, 1, 0, 0, 0, 1, 0, 0, 0, 0, 0, 1, 0, 0, 0, 0, 0, 0, 0, 1, 0, 0, 0, 0, 0, 0, 0, 0, 0, 0, 0, 0, 0, 0, 0, 1, 0, 1, 0, 0, 0, 1, 0, 0, 0, 0, 0, 0, 0, 1, 0, 0, 0, 0, 0, 0, 0, 0, 0, 0, 0, 0, 0, 0, 0, 1, 0, 1, 0, 0, 0, 1, 0, 0, 0, 0, 0, 0, 0, 1, 0, 0, 0, 0, 0, 1, 0, 0, 0, 0, 0, 1, 0, 0, 0, 1, 0, 0, 0, 0, 0, 0, 0, 0, 0, 0, 0, 1, 0, 1, 0, 0, 0, 0, 0, 0, 0, 0, 0, 0, 0, 0, 0, 0, 0, 0, 0, 0, 0, 0, 0, 1, 0, 0, 0, 0, 0, 1, 0, 1, 0, 0, 0, 0, 0, 1, 0, 0, 0, 1, 0, 0, 0, 0, 0, 1, 0, 0, 0, 0, 0, 0, 0, 0, 0, 0, 0, 0, 0, 1, 0, 0, 0, 0, 0, 1, 0, 0, 0, 1, 0, 1, 0, 0, 0, 0, 0, 1, 0, 0, 0, 1, 0, 0, 0, 0, 0, 1, 0, 0, 0, 0, 0, 0, 0, 0, 0, 0, 0, 1, 0, 0, 0, 0, 0, 1, 0, 0, 0, 0, 0, 1, 0, 0, 0, 0, 0, 0, 0, 0, 0, 0, 0, 0, 0, 1, 0, 0, 0, 1, 0, 0, 0, 0, 0, 1, 0, 0, 0, 0, 0, 0, 0, 0, 0, 0, 0, 1, 0, 0, 0, 0, 0, 0, 0, 1, 0, 0, 0, 0, 0, 1, 0, 0, 0, 1, 0, 0, 0, 0, 0, 0, 0, 0, 0, 0, 0, 0, 0, 0, 0, 0, 0, 0, 0, 0, 0, 0, 0, 0, 0, 1, 0, 0, 0, 0, 0, 0, 0, 0, 0, 0, 0, 0, 0, 0, 0, 0, 0, 1, 0, 0, 0, 0, 0, 0, 0, 0, 0, 1, 0, 0, 0, 0, 0, 0, 0, 1, 0, 0, 0, 1, 0, 0, 0, 0, 0, 1, 0, 1, 0, 0, 0, 0, 0, 1, 0, 0, 0, 0, 0, 0, 0, 0, 0, 0, 0, 0, 0, 0, 0, 0, 0, 0, 0, 0, 0, 1, 0, 0, 0, 0, 0, 0, 0, 0, 0, 0, 0, 1, 0, 1, 0, 0, 0, 0, 0, 0, 0, 0, 0, 0, 0, 0, 0, 0, 0, 1, 0, 0, 0, 0, 0, 0, 0, 1, 0, 0, 0, 1, 0, 0, 0, 0, 0, 0, 0, 0, 0, 0, 0, 1, 0, 0, 0, 0, 0, 0, 0, 0, 0, 0, 0, 0, 0, 1, 0, 0, 0, 0, 0, 0, 0, 0, 0, 1, 0, 1, 0, 0, 0, 1, 0, 0, 0, 0, 0, 0, 0, 1, 0, 0, 0, 0, 0, 1, 0, 0, 0, 0, 0, 1, 0, 0, 0, 1, 0, 1, 0, 0, 0, 1, 0, 0, 0, 0, 0, 1, 0, 0, 0, 0, 0, 0, 0, 1, 0, 0, 0, 1, 0, 1, 0, 0, 0, 0, 0, 1, 0, 0, 0, 0, 0, 0, 0, 0, 0, 1, 0, 1, 0, 0, 0, 0, 0, 0, 0, 0, 0, 1, 0, 0, 0, 0, 0, 0, 0, 1, 0, 0, 0, 1, 0, 0, 0, 0, 0, 0, 0, 0, 0, 0, 0, 0, 0, 1, 0, 0, 0, 0, 0, 0, 0, 0, 0, 1, 0, 0, 0, 0, 0, 0, 0, 0, 0, 0, 0, 1, 0, 1, 0, 0, 0, 0, 0, 1, 0, 0, 0, 1, 0, 1, 0, 0, 0, 0, 0, 0, 0, 0, 0, 0, 0, 0, 0, 0, 0, 1, 0, 0, 0, 0, 0, 0, 0, 0, 0, 0, 0, 0, 0, 1, 0, 0, 0, 1, 0, 0, 0, 0, 0, 1, 0, 0, 0, 0, 0, 0, 0, 1, 0, 0, 0, 0, 0, 1, 0, 0, 0, 1, 0, 0, 0, 0, 0, 0, 0, 0, 0, 0, 0, 0, 0, 0, 0, 0, 0, 1, 0, 0, 0, 0, 0, 0, 0, 1, 0, 0, 0, 0, 0, 0, 0, 0, 0, 1, 0, 0, 0, 0, 0, 1, 0, 0, 0, 0, 0, 1, 0, 0, 0, 0, 0, 0, 0, 1, 0, 0, 0, 0, 0, 0, 0, 0, 0, 1, 0, 0, 0, 0, 0, 0, 0, 0, 0, 0, 0, 1, 0, 0, 0, 0, 0, 0, 0, 0, 0, 0, 0, 0, 0, 1, 0, 0, 0, 1, 0, 0, 0, 0, 0, 1, 0, 0, 0, 0, 0, 1, 0, 1, 0, 0, 0, 0, 0, 0, 0, 0, 0, 0, 0, 0, 0, 0, 0, 0, 0, 0, 0, 0, 0, 0, 0, 0, 0, 0, 0, 1, 0, 1, 0, 0, 0, 0, 0, 0, 0, 0, 0, 1, 0, 0, 0, 0, 0, 0, 0, 1, 0, 0, 0, 1, 0, 0, 0, 0, 0, 0, 0, 0, 0, 0, 0, 0, 0, 1, 0, 0, 0, 1, 0, 0, 0, 0, 0, 0, 0, 1, 0, 0, 0, 0, 0, 0, 0, 0, 0, 0, 0, 1, 0, 0, 0, 0, 0, 1, 0, 0, 0, 0, 0, 0, 0, 0, 0, 0, 0, 1, 0, 0, 0, 1, 0, 0, 0, 0, 0, 1, 0, 0, 0, 0, 0, 0, 0, 0, 0, 0, 0, 0, 0, 0, 0, 0, 0, 0, 0, 1, 0, 0, 0, 0, 0, 0, 0, 0, 0, 1, 0, 1, 0, 0, 0, 0, 0, 0, 0, 0, 0, 0, 0, 0, 0, 0, 0, 1, 0, 0, 0, 0, 0, 0, 0, 0, 0, 0, 0, 0, 0, 0, 0, 0, 0, 0, 0, 0, 0, 0, 0, 0, 0, 1, 0, 0, 0, 1, 0, 1, 0, 0, 0, 0, 0, 0, 0, 0, 0, 0, 0, 1, 0, 0, 0, 0, 0, 1, 0, 0, 0, 1, 0, 0, 0, 0, 0, 0, 0, 0, 0, 0, 0, 1, 0, 0, 0, 0, 0, 1, 0, 0, 0, 0, 0, 0, 0, 1, 0, 0, 0, 1, 0, 0, 0, 0, 0, 0, 0, 1, 0, 0, 0, 0, 0, 0, 0, 0, 0, 0, 0, 0, 0, 0, 0, 0, 0, 0, 0, 0, 0, 1, 0, 1, 0, 0, 0, 1, 0, 1, 0, 0, 0, 0, 0, 0, 0, 0, 0, 0, 0, 1, 0, 0, 0, 0, 0, 0, 0, 0, 0, 0, 0, 0, 0, 0, 0, 0, 0, 0, 0, 0, 0, 0, 0, 0, 0, 0, 0, 1, 0, 1, 0, 0, 0, 0, 0, 1, 0, 0, 0, 0, 0, 1, 0, 0, 0, 0, 0, 1, 0, 0, 0, 1, 0, 0, 0, 0, 0, 1, 0, 1, 0, 0, 0, 0, 0, 0, 0, 0, 0, 0, 0, 1, 0, 0, 0, 1, 0, 0, 0, 0, 0, 0, 0, 0, 0, 0, 0, 1, 0, 1, 0, 0, 0, 0, 0, 0, 0, 0, 0, 1, 0, 1, 0, 0, 0, 0, 0, 0, 0, 0, 0, 0, 0, 0, 0, 0, 0, 1, 0, 1, 0, 0, 0, 0, 0, 0, 0, 0, 0, 0, 0, 0, 0, 0, 0, 1, 0, 0, 0, 0, 0, 1, 0, 0, 0, 0, 0, 0, 0, 0, 0, 0, 0, 0, 0, 0, 0, 0, 0, 0, 0, 1, 0, 0, 0, 0, 0, 0, 0, 0, 0, 0, 0, 0, 0, 0, 0, 1, 0, 0, 0, 0, 0, 0, 0, 1, 0, 0, 0, 1, 0, 1, 0, 0, 0, 1, 0, 1, 0, 0, 0, 0, 0, 0, 0, 0, 0, 0, 0, 0, 0, 0, 0, 0, 0, 0, 0, 0, 0, 1, 0, 0, 0, 0, 0, 0, 0, 1, 0, 0, 0, 0, 0, 0, 0, 0, 0, 0, 0, 1, 0, 0, 0, 0, 0, 1, 0, 0, 0, 0, 0, 0, 0, 0, 0, 1, 0, 1, 0, 0, 0, 1, 0, 0, 0, 0, 0, 1, 0, 1, 0, 0, 0, 0, 0, 1, 0, 0, 0, 0, 0, 0, 0, 0, 0, 1, 0, 1, 0, 0, 0, 0, 0, 0, 0, 0, 0, 0, 0, 1, 0, 0, 0, 0, 0, 0, 0, 0, 0, 1, 0, 1, 0, 0, 0, 0, 0, 0, 0, 0, 0, 1, 0, 0, 0, 0, 0, 0, 0, 0, 0, 0, 0, 0, 0, 1, 0, 0, 0, 0, 0, 1, 0, 0, 0, 1, 0, 0, 0, 0, 0, 1, 0, 0, 0, 0, 0, 0, 0, 1, 0, 0, 0, 0, 0, 1, 0, 0, 0, 0, 0, 1, 0, 0, 0, 0, 0, 0, 0, 0, 0, 0, 0, 0, 0, 0, 0, 1, 0, 0, 0, 0, 0, 0, 0, 0, 0, 0, 0, 1, 0, 1, 0, 0, 0, 1, 0, 0, 0, 0, 0, 0, 0, 0, 0, 0, 0, 0, 0, 1, 0, 0, 0, 0, 0, 1, 0, 0, 0, 1, 0, 0, 0, 0, 0, 0, 0, 1, 0, 0, 0, 0, 0, 0, 0, 0, 0, 1, 0, 0, 0, 0, 0, 0, 0, 1, 0, 0, 0, 0, 0, 1, 0, 0, 0, 0, 0, 1, 0, 0, 0, 0, 0, 0, 0, 0, 0, 0, 0, 0, 0, 0, 0, 0, 0, 0, 0, 0, 0, 1, 0, 0, 0, 0, 0, 1, 0, 1, 0, 0, 0, 0, 0, 0, 0, 0, 0, 1, 0, 0, 0, 0, 0, 0, 0, 0, 0, 0, 0, 0, 0, 1, 0, 0, 0, 1, 0, 0, 0, 0, 0, 1, 0, 0, 0, 0, 0, 0, 0, 0, 0, 0, 0, 0, 0, 0, 0, 0, 0, 1, 0, 1, 0, 0, 0, 0, 0, 0, 0, 0, 0, 1, 0, 0, 0, 0, 0, 0, 0, 0, 0, 0, 0, 0, 0, 1, 0, 0, 0, 1, 0, 1, 0, 0, 0, 0, 0, 0, 0, 0, 0, 1, 0, 0, 0, 0, 0, 0, 0, 0, 0, 0, 0, 0, 0, 1, 0, 0, 0, 1, 0, 0, 0, 0, 0, 0, 0, 1, 0, 0, 0, 0, 0, 0, 0, 0, 0, 0, 0, 0, 0, 0, 0, 0, 0, 1, 0, 0, 0, 1, 0, 0, 0, 0, 0, 1, 0, 1, 0, 0, 0, 1, 0, 0, 0, 0, 0, 1, 0, 1, 0, 0, 0, 0, 0, 0, 0, 0, 0, 0, 0, 1, 0, 0, 0, 1, 0, 0, 0, 0, 0, 0, 0, 0, 0, 0, 0, 0, 0, 0, 0, 0, 0, 0, 0, 1, 0, 0, 0, 0, 0, 0, 0, 0, 0, 0, 0, 0, 0, 0, 0, 0, 0, 0, 0, 0, 0, 1, 0, 0, 0, 0, 0, 0, 0, 0, 0, 0, 0, 
Factors:
1, 0, *, 0, 1, *, 1, *, 1, 0, *, *, 1, *, 1, 0, *, 0, *, *, *, *, 1, *, *, 0, *, 0, *, 0, *, *, 1, *, *, 0, 1, 0, 1, 0, *, *, *, *, 1, 0, *, *, *, *, 1, *, *, *, *, 0, 1, 0, *, *, *, 0, *, 0, *, *, 1, 0, *, *, 1, *, *, *, 1, 0, *, *, *, *, *, 0, 1, *, 1, 0, *, *, *, 0, *, *, 1, *, *, 0, *, *, *, *, *, *, *, *, *, *, *, *, 1, 0, 1, *, 1, *, 1, *, 1, 0, 1, *, *, 0, *, 0, 1, 0, 1, *, *, *, 1, 0, *, 0, 1, *, 1, 0, 1, 0, 1, *, 1, *, 1, *, 1, *, 1, *, 1, *, *, 0, *, 0, *, 0, 1, *, *, *, *, *, 1, *, 1, 0, *, 0, 1, *, *, *, *, *, *, *, 1, *, *, *, *, 0, *, *, *, 0, 1, *, *, 0, *, 0, 1, *, *, 0, *, 0, 1, 0, *, *, 1, 0, 1, *, 1, *, *, 0, 1, *, 1, 0, *, 0, *, 0, *, *, *, *, *, 0, *, *, *, 0, 1, *, *, 0, 1, 0, 1, 0, 1, *, *, 0, *, 0, 1, *, 1, 0, *, *, 1, 0, 1, *, 1, *, 1, *, 1, *, *, 0, *, 0, 1, 0, 1, *, 1, 0, 1, *, 1, 0, 1, 0, 1, *, 1, 0, 1, 0, 1, *, *, *, 1, *, *, 0, 1, 0, *, 0, 1, *, *, 0, *, *, 1, 0, *, *, *, *, *, 0, *, *, *, 0, *, 0, 1, *, *, *, 1, 0, *, *, 1, 0, *, *, *, *, 1, 0, *, 0, *, 0, 1, *, 1, *, *, 0, *, 0, *, 0, 1, 0, 1, *, 1, 0, 1, *, 1, *, *, 0, *, 0, *, *, *, *, 1, 0, 1, *, 1, *, 1, *, *, *, *, 0, 1, 0, 1, *, 1, 0, *, *, *, *, *, 0, *, 0, 1, *, 1, 0, 1, 0, 1, 0, *, *, 1, *, *, 0, 1, 0, 1, *, *, *, *, 0, *, 0, *, *, 1, 0, *, *, 1, *, *, 0, 1, 0, *, *, 1, *, *, *, 1, 0, *, *, 1, 0, *, 0, *, 0, 1, *, *, 0, 1, *, *, 0, *, 0, *, *, 1, 0, 1, 0, 1, 0, *, *, *, 0, 1, *, 1, 0, 1, 0, *, *, *, *, *, 0, *, 0, 1, *, 1, 0, *, 0, 1, *, 1, *, 1, 0, *, *, 1, *, *, *, 1, *, 1, 0, *, *, *, 0, *, *, 1, 0, *, *, 1, 0, 1, *, *, *, *, *, 1, 0, *, 0, *, *, *, *, 1, *, 1, 0, 1, 0, *, *, *, 0, 1, 0, *, *, 1, *, 1, *, *, 0, *, 0, *, 0, *, *, *, 0, 1, *, 1, 0, 1, 0, 1, *, 1, 0, *, *, 1, 0, *, 0, *, 0, 1, *, 1, 0, *, *, *, *, 1, 0, 1, *, 1, *, *, *, 1, *, *, *, 1, 0, 1, *, *, *, *, *, *, *, *, *, *, *, 1, 0, *, *, 1, *, 1, 0, *, 0, 1, *, *, 0, *, 0, *, 0, 1, 0, 1, 0, 1, *, *, *, *, *, 1, 0, 1, 0, *, 0, 1, 0, 1, 0, *, *, *, *, 1, 0, *, *, *, *, *, 0, *, 0, *, *, *, 0, *, *, *, *, *, *, 1, 0, 1, *, 1, *, *, *, *, 0, *, 0, 1, 0, *, 0, *, 0, 1, *, 1, *, *, 0, 1, *, *, 0, *, 0, *, 0, 1, 0, 1, *, 1, 0, *, *, *, *, 1, *, *, 0, 1, *, 1, *, *, 0, 1, *, 1, *, *, *, 1, *, *, *, 1, *, *, 0, 1, 0, 1, 0, *, *, 1, *, *, *, 1, 0, 1, *, *, *, 1, 0, *, 0, *, 0, *, *, 1, *, 1, *, 1, 0, 1, *, 1, 0, 1, *, *, 0, *, 0, *, *, 1, *, 1, 0, 1, 0, 1, *, *, 0, *, *, 1, 0, *, *, *, *, *, *, *, *, 1, *, 1, 0, *, 0, 1, *, *, *, 1, *, *, 0, *, 0, 1, 0, 1, *, *, *, *, *, 1, 0, 1, 0, 1, *, *, *, *, 0, *, 0, 1, *, 1, *, 1, *, *, *, *, 0, *, 0, *, 0, *, *, *, *, *, 0, 1, 0, 1, 0, *, 0, 1, 0, *, *, 1, *, 1, 0, *, *, 1, 0, *, *, 1, 0, 1, 0, *, *, 1, 0, 1, *, *, 0, *, 0, *, 0, 1, *, 1, 0, *, *, 1, *, *, *, *, *, *, 0, *, *, 1, 0, 1, *, 1, 0, 1, *, 1, *, *, *, *, 0, 1, 0, *, 0, 1, *, *, 0, *, *, 1, *, 1, 0, 1, *, 1, 0, 1, 0, 1, 0, *, 0, *, *, *, 0, *, 0, *, 0, *, 0, *, 0, 1, *, *, 0, *, *, *, *, *, *, 1, *, *, 0, *, 0, *, *, 1, 0, *, 0, *, *, 1, *, 1, 0, 1, 0, *, 0, 1, *, 1, *, 1, *, 1, 0, *, 0, 1, *, *, *, *, *, 1, 0, 1, 0, *, *, 1, 0, 1, 0, *, 0, 1, 0, 1, *, *, *, 1, 0, 1, *, 1, *, 1, 0, *, *, 1, 0, *, 0, 1, 0, *, *, 1, 0, 1, 0, 1, *, *, 0, *, *, 1, 0, 1, *, 1, 0, *, 0, 1, *, 1, 0, 1, 0, 1, 0, 1, 0, 1, 0, 1, 0, *, *, *, 0, *, 0, *, 0, *, *, *, 0, 1, *, 1, *, *, *, *, 0, 1, 0, *, *, 1, *, *, 0, *, *, *, *, *, 0, *, 0, *, 0, *, 0, *, 0, *, 0, 1, *, 1, *, 1, *, *, 0, 1, 0, 1, 0, *, 0, *, *, 1, *, *, 0, 1, 0, 1, 0, 1, 0, *, 0, 1, 0, 1, *, 1, 0, 1, *, *, 0, 1, *, 1, *, *, 0, 1, *, 1, *, *, *, 1, 0, *, *, *, 0, *, 0, 1, *, *, 0, *, *, 1, *, 1, *, 1, 0, 1, 0, 1, *, 1, 0, 1, *, *, 0, 1, *, *, *, *, *, *, 0, 1, *, 1, *, *, 0, *, *, 1, 0, *, *, *, 0, *, 0, *, 0, *, 0, 1, *, 1, *, *, *, *, 0, *, *, *, 0, *, *, *, *, *, 0, *, *, *, *, *, 0, 1, 0, *, 0, 1, *, *, *, 1, *, *, 0, 1, *, 1, 0, *, *, 1, 0, 1, 0, 1, *, 1, 0, 1, *, 1, *, *, 0, 1, 0, *, *, 1, 0, *, *, 1, 0, 1, 0, *, *, 1, *, 1, *, *, 0, *, 0, 1, *, 1, *, 1, *, *, *, *, 0, *, *, *, 0, *, 0, 1, *, 1, *, 1, 0, 1, 0, *, *, *, 0, *, 0, *, 0, 1, 0, 1, *, *, *, *, 0, *, *, 1, 0, 1, 0, 1, *, 1, *, *, 0, *, *, *, *, *, *, 1, 0, *, 0, 1, *, *, *, *, 0, 1, 0, 1, *, 1, *, 1, 0, *, *, 1, 0, *, 0, 1, *, *, *, 1, 0, *, 0, 1, 0, *, *, 1, 0, *, *, 1, *, 1, *, *, 0, 1, *, *, 0, 1, *, 1, *, 1, 0, *, *, *, *, *, *, 1, 0, 1, *, *, 0, *, *, *, *, 1, 0, 1, 0, 1, *, 1, *, *, 0, *, *, 1, *, *, 0, *, 0, *, *, 1, 0, *, 0, 1, 0, *, 0, *, *, 1, 0, 1, *, 1, 0, *, *, 1, 0, *, *, *, 0, 1, 0, 1, 0, *, *, 1, *, 1, 0, 1, 0, *, 0, *, *, *, *, 1, 0, 1, *, *, *, 1, 0, *, 0, *, 0, 1, *, 1, *, 1, *, 1, 0, 1, *, *, 0, *, *, *, *, *, 0, *, *, 1, 0, *, *, 1, *, 1, *, *, 0, *, *, 1, 0, 1, 0, *, *, *, 0, *, 0, 1, 0, *, 0, 1, 0, *, *, *, 0, 1, 0, 1, 0, 1, 0, 1, 0, 1, 0, *, *, 1, 0, *, 0, *, *, 1, *, *, 0, 1, *, 1, *, 1, *, *, *, *, *, *, 0, 1, 0, 1, 0, *, *, *, *, 1, *, *, *, *, *, 1, 0, 1, 0, *, *, 1, 0, 1, 0, 1, *, 1, *, 1, 0, 1, *, 1, 0, 1, 0, 1, 0, *, *, *, 0, *, 0, 1, 0, 1, *, 1, *, *, *, 1, *, 1, *, *, 0, *, 0, 1, *, *, 0, 1, *, 1, *, 1, *, *, *, *, 0, *, *, 1, 0, 1, 0, *, 0, 1, *, *, 0, *, 0, 1, *, *, 0, *, 0, 1, 0, *, 0, 1, 0, *, 0, 1, *, *, *, *, *, 1, 0, *, 0, 1, 0, *, *, *, 0, 1, 0, *, *, 1, *, 1, *, 1, 0, *, 0, *, 0, *, *, *, 0, *, *, *, 0, 1, *, 1, *, 1, 0, *, 0, *, *, *, *, *, 0, 1, *, 1, 0, *, *, 1, 0, 1, 0, 1, 0, 1, 0, *, 0, *, *, 1, *, *, 0, 1, 0, *, 0, 1, *, 1, *, *, *, *, 0, 1, 0, 1, 0, *, *, *, *, *, 0, 1, 0, 1, *, 1, *, *, 0, *, 0, *, 0, 1, 0, 1, *, 1, *, 1, *, 1, 0, 1, 0, 1, *, *, *, *, *, 1, *, *, *, 1, 0, *, 0, *, *, 1, 0, *, *, 1, 0, *, *, *, *, 1, 0, *, *, *, 0, 1, *, 1, *, 1, *, *, 0, *, *, 1, 0, *, 0, 1, 0, 1, 0, 1, *, 1, 0, *, *, *, 0, *, *, *, 0, *, 0, 1, 0, 1, *, *, *, 1, *, *, 0, 1, *, 1, 0, *, 0, *, *, *, 0, *, *, *, *, *, *, 1, *, 1, 0, 1, *, 1, *, 1, *, 1, *, 1, *, *, 0, 1, *, 1, 0, 1, 0, 1, 0, *, 0, 1, *, 1, *, 1, 0, *, *, 1, *, 1, 0, *, 0, *, *, *, *, 1, *, *, 0, *, 0, *, 0, *, *, 1, *, *, 0, 1, 0, 1, 0, *, *, *, *, 1, 0, *, *, *, *, 1, *, *, *, *, 0, 1, 0, *, *, *, 0, *, 0, *, *, 1, 0, *, *, 1, *, *, *, 1, 0, *, *, *, *, *, 0, 1, *, 1, 0, *, *, *, 0, *, *, 1, *, *, 0, *, *, *, *, *, *, *, *, *, *, *, *, 1, 0, 1, *, 1, *, 1, *, 1, 0, 1, *, *, 0, *, 0, 1, 0, 1, *, *, *, 1, 0, *, 0, 1, *, 1, 0, 1, 0, 1, *, 1, *, 1, *, 1, *, 1, *, 1, *, *, 0, *, 0, *, 0, 1, *, *, *, *, *, 1, *, 1, 0, *, 0, 1, *, *, *, *, *, *, *, 1, *, *, *, *, 0, *, *, *, 0, 1, *, *, 0, *, 0, 1, *, *, 0, *, 0, 1, 0, *, *, 1, 0, 1, *, 1, *, *, 0, 1, *, 1, 0, *, 0, *, 0, *, *, *, *, *, 0, *, *, *, 0, 1, *, *, 0, 1, 0, 1, 0, 1, *, *, 0, *, 0, 1, *, 1, 0, *, *, 1, 0, 1, *, 1, *, 1, *, 1, *, *, 0, *, 0, 1, 0, 1, *, 1, 0, 1, *, 1, 0, 1, 0, 1, *, 1, 0, 1, 0, 1, *, *, *, 1, *, *, 0, 1, 0, *, 0, 1, *, *, 0, *, *, 1, 0, *, *, *, *, *, 0, *, *, *, 0, *, 0, 1, *, *, *, 1, 0, *, *, 1, 0, *, *, *, *, 1, 0, *, 0, *, 0, 1, *, 1, *, *, 0, *, 0, *, 0, 1, 0, 1, *, 1, 0, 1, *, 1, *, *, 0, *, 0, *, *, *, *, 1, 0, 1, *, 1, *, 1, *, *, *, *, 0, 1, 0, 1, *, 1, 0, *, *, *, *, *, 0, *, 0, 1, *, 1, 0, 1, 0, 1, 0, *, *, 1, *, *, 0, 1, 0, 1, *, *, *, *, 0, *, 0, *, *, 1, 0, *, *, 1, *, *, 0, 1, 0, *, *, 1, *, *, *, 1, 0, *, *, 1, 0, *, 0, *, 0, 1, *, *, 0, 1, *, *, 0, *, 0, *, *, 1, 0, 1, 0, 1, 0, *, *, *, 0, 1, *, 1, 0, 1, 0, *, *, *, *, *, 0, *, 0, 1, *, 1, 0, *, 0, 1, *, 1, *, 1, 0, *, *, 1, *, *, *, 1, *, 1, 0, *, *, *, 0, *, *, 1, 0, *, *, 1, 0, 1, *, *, *, *, *, 1, 0, *, 0, *, *, *, *, 1, *, 1, 0, 1, 0, *, *, *, 0, 1, 0, *, *, 1, *, 1, *, *, 0, *, 0, *, 0, *, *, *, 0, 1, *, 1, 0, 1, 0, 1, *, 1, 0, *, *, 1, 0, *, 0, *, 0, 1, *, 1, 0, *, *, *, *, 1, 0, 1, *, 1, *, *, *, 1, *, *, *, 1, 0, 1, *, *, *, *, *, *, *, *, *, *, *, 1, 0, *, *, 1, *, 1, 0, *, 0, 1, *, *, 0, *, 0, *, 0, 1, 0, 1, 0, 1, *, *, *, *, *, 1, 0, 1, 0, *, 0, 1, 0, 1, 0, *, *, *, *, 1, 0, *, *, *, *, *, 0, *, 0, *, *, *, 0, *, *, *, *, *, *, 1, 0, 1, *, 1, *, *, *, *, 0, *, 0, 1, 0, *, 0, *, 0, 1, *, 1, *, *, 0, 1, *, *, 0, *, 0, *, 0, 1, 0, 1, *, 1, 0, *, *, *, *, 1, *, *, 0, 1, *, 1, *, *, 0, 1, *, 1, *, *, *, 1, *, *, *, 1, *, *, 0, 1, 0, 1, 0, *, *, 1, *, *, *, 1, 0, 1, *, *, *, 1, 0, *, 0, *, 0, *, *, 1, *, 1, *, 1, 0, 1, *, 1, 0, 1, *, *, 0, *, 0, *, *, 1, *, 1, 0, 1, 0, 1, *, *, 0, *, *, 1, 0, *, *, *, *, *, *, *, *, 1, *, 1, 0, *, 0, 1, *, *, *, 1, *, *, 0, *, 0, 1, 0, 1, *, *, *, *, *, 1, 0, 1, 0, 1, *, *, *, *, 0, *, 0, 1, *, 1, *, 1, *, *, *, *, 0, *, 0, *, 0, *, *, *, *, *, 0, 1, 0, 1, 0, *, 0, 1, 0, *, *, 1, *, 1, 0, *, *, 1, 0, *, *, 1, 0, 1, 0, *, *, 1, 0, 1, *, *, 0, *, 0, *, 0, 1, *, 1, 0, *, *, 1, *, *, *, *, *, *, 0, *, *, 1, 0, 1, *, 1, 0, 1, *, 1, *, *, *, *, 0, 1, 0, *, 0, 1, *, *, 0, *, *, 1, *, 1, 0, 1, *, 1, 0, 1, 0, 1, 0, *, 0, *, *, *, 0, *, 0, *, 0, *, 0, *, 0, 1, *, *, 0, *, *, *, *, *, *, 1, *, *, 0, *, 0, *, *, 1, 0, *, 0, *, *, 1, *, 1, 0, 1, 0, *, 0, 1, *, 1, *, 1, *, 1, 0, *, 0, 1, *, *, *, *, *, 1, 0, 1, 0, *, *, 1, 0, 1, 0, *, 0, 1, 0, 1, *, *, *, 1, 0, 1, *, 1, *, 1, 0, *, *, 1, 0, *, 0, 1, 0, *, *, 1, 0, 1, 0, 1, *, *, 0, *, *, 1, 0, 1, *, 1, 0, *, 0, 1, *, 1, 0, 1, 0, 1, 0, 1, 0, 1, 0, 1, 0, *, *, *, 0, *, 0, *, 0, *, *, *, 0, 1, *, 1, *, *, *, *, 0, 1, 0, *, *, 1, *, *, 0, *, *, *, *, *, 0, *, 0, *, 0, *, 0, *, 0, *, 0, 1, *, 1, *, 1, *, *, 0, 1, 0, 1, 0, *, 0, *, *, 1, *, *, 0, 1, 0, 1, 0, 1, 0, *, 0, 1, 0, 1, *, 1, 0, 1, *, *, 0, 1, *, 1, *, *, 0, 1, *, 1, *, *, *, 1, 0, *, *, *, 0, *, 0, 1, *, *, 0, *, *, 1, *, 1, *, 1, 0, 1, 0, 1, *, 1, 0, 1, *, *, 0, 1, *, *, *, *, *, *, 0, 1, *, 1, *, *, 0, *, *, 1, 0, *, *, *, 0, *, 0, *, 0, *, 0, 1, *, 1, *, *, *, *, 0, *, *, *, 0, *, *, *, *, *, 0, *, *, *, *, *, 0, 1, 0, *, 0, 1, *, *, *, 1, *, *, 0, 1, *, 1, 0, *, *, 1, 0, 1, 0, 1, *, 1, 0, 1, *, 1, *, *, 0, 1, 0, *, *, 1, 0, *, *, 1, 0, 1, 0, *, *, 1, *, 1, *, *, 0, *, 0, 1, *, 1, *, 1, *, *, *, *, 0, *, *, *, 0, *, 0, 1, *, 1, *, 1, 0, 1, 0, *, *, *, 0, *, 0, *, 0, 1, 0, 1, *, *, *, *, 0, *, *, 1, 0, 1, 0, 1, *, 1, *, *, 0, *, *, *, *, *, *, 1, 0, *, 0, 1, *, *, *, *, 0, 1, 0, 1, *, 1, *, 1, 0, *, *, 1, 0, *, 0, 1, *, *, *, 1, 0, *, 0, 1, 0, *, *, 1, 0, *, *, 1, *, 1, *, *, 0, 1, *, *, 0, 1, *, 1, *, 1, 0, *, *, *, *, *, *, 1, 0, 1, *, *, 0, *, *, *, *, 1, 0, 1, 0, 1, *, 1, *, *, 0, *, *, 1, *, *, 0, *, 0, *, *, 1, 0, *, 0, 1, 0, *, 0, *, *, 1, 0, 1, *, 1, 0, *, *, 1, 0, *, *, *, 0, 1, 0, 1, 0, *, *, 1, *, 1, 0, 1, 0, *, 0, *, *, *, *, 1, 0, 1, *, *, *, 1, 0, *, 0, *, 0, 1, *, 1, *, 1, *, 1, 0, 1, *, *, 0, *, *, *, *, *, 0, *, *, 1, 0, *, *, 1, *, 1, *, *, 0, *, *, 1, 0, 1, 0, *, *, *, 0, *, 0, 1, 0, *, 0, 1, 0, *, *, *, 0, 1, 0, 1, 0, 1, 0, 1, 0, 1, 0, *, *, 1, 0, *, 0, *, *, 1, *, *, 0, 1, *, 1, *, 1, *, *, *, *, *, *, 0, 1, 0, 1, 0, *, *, *, *, 1, *, *, *, *, *, 1, 0, 1, 0, *, *, 1, 0, 1, 0, 1, *, 1, *, 1, 0, 1, *, 1, 0, 1, 0, 1, 0, *, *, *, 0, *, 0, 1, 0, 1, *, 1, *, *, *, 1, *, 1, *, *, 0, *, 0, 1, *, *, 0, 1, *, 1, *, 1, *, *, *, *, 0, *, *, 1, 0, 1, 0, *, 0, 1, *, *, 0, *, 0, 1, *, *, 0, *, 0, 1, 0, *, 0, 1, 0, *, 0, 1, *, *, *, *, *, 1, 0, *, 0, 1, 0, *, *, *, 0, 1, 0, *, *, 1, *, 1, *, 1, 0, *, 0, *, 0, *, *, *, 0, *, *, *, 0, 1, *, 1, *, 1, 0, *, 0, *, *, *, *, *, 0, 1, *, 1, 0, *, *, 1, 0, 1, 0, 1, 0, 1, 0, *, 0, *, *, 1, *, *, 0, 1, 0, *, 0, 1, *, 1, *, *, *, *, 0, 1, 0, 1, 0, *, *, *, *, *, 0, 1, 0, 1, *, 1, *, *, 0, *, 0, *, 0, 1, 0, 1, *, 1, *, 1, *, 1, 0, 1, 0, 1, *, *, *, *, *, 1, *, *, *, 1, 0, *, 0, *, *, 1, 0, *, *, 1, 0, *, *, *, *, 1, 0, *, *, *, 0, 1, *, 1, *, 1, *, *, 0, *, *, 1, 0, *, 0, 1, 0, 1, 0, 1, *, 1, 0, *, *, *, 0, *, *, *, 0, *, 0, 1, 0, 1, *, *, *, 1, *, *, 0, 1, *, 1, 0, *, 0, *, *, *, 0, *, *, *, *, *, *, 1, *, 1, 0, 1, *, 1, *, 1, *, 1, *, 1, *, *, 0, 1, *, 1, 0, 1, 0, 1, 0, *, 0, 1, *, 1, *, 1, 0, *, *, 1, *, 1, 0, *, 0, *, *, *, *, 1, *, *, 0, *, 0, *, 0, *, *, 1, *, *, 0, 1, 0, 1, 0, *, *, *, *, 1, 0, *, *, *, *, 1, *, *, *, *, 0, 1, 0, *, *, *, 0, *, 0, *, *, 1, 0, *, *, 1, *, *, *, 1, 0, *, *, *, *, *, 0, 1, *, 1, 0, *, *, *, 0, *, *, 1, *, *, 0, *, *, *, *, *, *, *, *, *, *, *, *, 1, 0, 1, *, 1, *, 1, *, 1, 0, 1, *, *, 0, *, 0, 1, 0, 1, *, *, *, 1, 0, *, 0, 1, *, 1, 0, 1, 0, 1, *, 1, *, 1, *, 1, *, 1, *, 1, *, 
