Number entered was : 2260138526203405784941654048610197513508038915719776718321197768109445641817966676608593121306582577250631562886676970448070001811149711863002112487928199487482066070131066586646083327982803560379205391980139946496955261

Primes:
0, 1, 1, 0, 1, 0, 1, 0, 0, 0, 1, 0, 1, 0, 0, 0, 1, 0, 1, 0, 0, 0, 1, 0, 0, 0, 0, 0, 1, 0, 1, 0, 0, 0, 0, 0, 1, 0, 0, 0, 1, 0, 1, 0, 0, 0, 1, 0, 0, 0, 0, 0, 1, 0, 0, 0, 0, 0, 1, 0, 1, 0, 0, 0, 0, 0, 1, 0, 0, 0, 1, 0, 1, 0, 0, 0, 0, 0, 1, 0, 0, 0, 1, 0, 0, 0, 0, 0, 1, 0, 0, 0, 0, 0, 0, 0, 1, 0, 0, 0, 1, 0, 1, 0, 0, 0, 1, 0, 1, 0, 0, 0, 1, 0, 0, 0, 0, 0, 0, 0, 0, 0, 0, 0, 0, 0, 1, 0, 0, 0, 1, 0, 0, 0, 0, 0, 1, 0, 1, 0, 0, 0, 0, 0, 0, 0, 0, 0, 1, 0, 1, 0, 0, 0, 0, 0, 1, 0, 0, 0, 0, 0, 1, 0, 0, 0, 1, 0, 0, 0, 0, 0, 1, 0, 0, 0, 0, 0, 1, 0, 1, 0, 0, 0, 0, 0, 0, 0, 0, 0, 1, 0, 1, 0, 0, 0, 1, 0, 1, 0, 0, 0, 0, 0, 0, 0, 0, 0, 0, 0, 1, 0, 0, 0, 0, 0, 0, 0, 0, 0, 0, 0, 1, 0, 0, 0, 1, 0, 1, 0, 0, 0, 1, 0, 0, 0, 0, 0, 1, 0, 1, 0, 0, 0, 0, 0, 0, 0, 0, 0, 1, 0, 0, 0, 0, 0, 1, 0, 0, 0, 0, 0, 1, 0, 0, 0, 0, 0, 1, 0, 1, 0, 0, 0, 0, 0, 1, 0, 0, 0, 1, 0, 1, 0, 0, 0, 0, 0, 0, 0, 0, 0, 1, 0, 0, 0, 0, 0, 0, 0, 0, 0, 0, 0, 0, 0, 1, 0, 0, 0, 1, 0, 1, 0, 0, 0, 1, 0, 0, 0, 0, 0, 0, 0, 0, 0, 0, 0, 0, 0, 1, 0, 0, 0, 0, 0, 1, 0, 0, 0, 0, 0, 0, 0, 0, 0, 1, 0, 1, 0, 0, 0, 1, 0, 0, 0, 0, 0, 1, 0, 0, 0, 0, 0, 0, 0, 1, 0, 0, 0, 0, 0, 1, 0, 0, 0, 0, 0, 1, 0, 0, 0, 1, 0, 0, 0, 0, 0, 1, 0, 0, 0, 0, 0, 0, 0, 1, 0, 0, 0, 1, 0, 0, 0, 0, 0, 0, 0, 1, 0, 0, 0, 0, 0, 0, 0, 0, 0, 1, 0, 1, 0, 0, 0, 0, 0, 0, 0, 0, 0, 1, 0, 1, 0, 0, 0, 0, 0, 1, 0, 0, 0, 1, 0, 0, 0, 0, 0, 1, 0, 0, 0, 0, 0, 0, 0, 1, 0, 0, 0, 1, 0, 1, 0, 0, 0, 1, 0, 0, 0, 0, 0, 0, 0, 0, 0, 0, 0, 1, 0, 0, 0, 0, 0, 0, 0, 1, 0, 0, 0, 1, 0, 0, 0, 0, 0, 0, 0, 1, 0, 0, 0, 1, 0, 0, 0, 0, 0, 1, 0, 0, 0, 0, 0, 0, 0, 0, 0, 0, 0, 1, 0, 1, 0, 0, 0, 0, 0, 0, 0, 0, 0, 0, 0, 0, 0, 0, 0, 0, 0, 1, 0, 0, 0, 0, 0, 1, 0, 0, 0, 0, 0, 0, 0, 0, 0, 1, 0, 0, 0, 0, 0, 1, 0, 0, 0, 0, 0, 1, 0, 1, 0, 0, 0, 0, 0, 1, 0, 0, 0, 0, 0, 0, 0, 0, 0, 1, 0, 0, 0, 0, 0, 1, 0, 0, 0, 0, 0, 1, 0, 1, 0, 0, 0, 0, 0, 1, 0, 0, 0, 0, 0, 1, 0, 0, 0, 1, 0, 1, 0, 0, 0, 0, 0, 0, 0, 0, 0, 0, 0, 1, 0, 0, 0, 0, 0, 0, 0, 0, 0, 1, 0, 1, 0, 0, 0, 1, 0, 0, 0, 0, 0, 1, 0, 0, 0, 0, 0, 1, 0, 1, 0, 0, 0, 0, 0, 0, 0, 0, 0, 0, 0, 1, 0, 0, 0, 1, 0, 0, 0, 0, 0, 1, 0, 0, 0, 0, 0, 0, 0, 1, 0, 0, 0, 0, 0, 0, 0, 0, 0, 1, 0, 0, 0, 0, 0, 0, 0, 1, 0, 0, 0, 0, 0, 0, 0, 0, 0, 1, 0, 0, 0, 0, 0, 0, 0, 1, 0, 0, 0, 0, 0, 1, 0, 0, 0, 0, 0, 1, 0, 0, 0, 1, 0, 0, 0, 0, 0, 0, 0, 1, 0, 0, 0, 0, 0, 1, 0, 0, 0, 1, 0, 0, 0, 0, 0, 0, 0, 1, 0, 0, 0, 1, 0, 0, 0, 0, 0, 0, 0, 0, 0, 0, 0, 0, 0, 1, 0, 0, 0, 0, 0, 0, 0, 0, 0, 1, 0, 0, 0, 0, 0, 0, 0, 0, 0, 0, 0, 1, 0, 1, 0, 0, 0, 0, 0, 0, 0, 0, 0, 1, 0, 1, 0, 0, 0, 1, 0, 1, 0, 0, 0, 0, 0, 0, 0, 0, 0, 1, 0, 0, 0, 0, 0, 0, 0, 0, 0, 0, 0, 0, 0, 1, 0, 0, 0, 1, 0, 1, 0, 0, 0, 1, 0, 0, 0, 0, 0, 0, 0, 0, 0, 0, 0, 0, 0, 1, 0, 0, 0, 1, 0, 1, 0, 0, 0, 1, 0, 0, 0, 0, 0, 0, 0, 0, 0, 0, 0, 0, 0, 0, 0, 0, 0, 0, 0, 1, 0, 0, 0, 1, 0, 0, 0, 0, 0, 0, 0, 1, 0, 0, 0, 0, 0, 0, 0, 0, 0, 1, 0, 0, 0, 0, 0, 0, 0, 1, 0, 0, 0, 1, 0, 0, 0, 0, 0, 1, 0, 0, 0, 0, 0, 1, 0, 0, 0, 0, 0, 0, 0, 0, 0, 0, 0, 0, 0, 1, 0, 0, 0, 1, 0, 0, 0, 0, 0, 1, 0, 0, 0, 0, 0, 1, 0, 0, 0, 0, 0, 0, 0, 1, 0, 0, 0, 0, 0, 1, 0, 0, 0, 0, 0, 0, 0, 0, 0, 0, 0, 1, 0, 0, 0, 1, 0, 0, 0, 0, 0, 1, 0, 1, 0, 0, 0, 0, 0, 0, 0, 0, 0, 1, 0, 1, 0, 0, 0, 0, 0, 1, 0, 0, 0, 0, 0, 0, 0, 0, 0, 1, 0, 1, 0, 0, 0, 0, 0, 0, 0, 0, 0, 1, 0, 1, 0, 0, 0, 0, 0, 1, 0, 0, 0, 0, 0, 0, 0, 0, 0, 0, 0, 0, 0, 0, 0, 0, 0, 1, 0, 0, 0, 1, 0, 1, 0, 0, 0, 1, 0, 0, 0, 0, 0, 1, 0, 0, 0, 0, 0, 1, 0, 0, 0, 0, 0, 0, 0, 1, 0, 0, 0, 0, 0, 1, 0, 0, 0, 0, 0, 1, 0, 0, 0, 0, 0, 0, 0, 0, 0, 0, 0, 0, 0, 0, 0, 0, 0, 0, 0, 0, 0, 1, 0, 1, 0, 0, 0, 0, 0, 0, 0, 0, 0, 1, 0, 0, 0, 0, 0, 0, 0, 1, 0, 0, 0, 0, 0, 0, 0, 0, 0, 1, 0, 0, 0, 0, 0, 1, 0, 0, 0, 0, 0, 1, 0, 0, 0, 0, 0, 0, 0, 1, 0, 0, 0, 0, 0, 0, 0, 0, 0, 0, 0, 1, 0, 0, 0, 1, 0, 0, 0, 0, 0, 1, 0, 0, 0, 0, 0, 1, 0, 1, 0, 0, 0, 0, 0, 1, 0, 0, 0, 0, 0, 0, 0, 0, 0, 0, 0, 1, 0, 0, 0, 0, 0, 0, 0, 0, 0, 1, 0, 0, 0, 0, 0, 0, 0, 0, 0, 0, 0, 0, 0, 0, 0, 0, 0, 1, 0, 1, 0, 0, 0, 1, 0, 0, 0, 0, 0, 1, 0, 1, 0, 0, 0, 0, 0, 1, 0, 0, 0, 1, 0, 1, 0, 0, 0, 1, 0, 0, 0, 0, 0, 0, 0, 0, 0, 0, 0, 1, 0, 1, 0, 0, 0, 0, 0, 1, 0, 0, 0, 0, 0, 0, 0, 0, 0, 0, 0, 0, 0, 0, 0, 0, 0, 0, 0, 0, 0, 0, 0, 0, 0, 0, 0, 0, 0, 0, 0, 0, 0, 1, 0, 0, 0, 0, 0, 1, 0, 0, 0, 0, 0, 1, 0, 0, 0, 0, 0, 0, 0, 1, 0, 0, 0, 0, 0, 0, 0, 0, 0, 0, 0, 0, 0, 0, 0, 0, 0, 1, 0, 0, 0, 0, 0, 0, 0, 0, 0, 1, 0, 0, 0, 0, 0, 0, 0, 0, 0, 0, 0, 0, 0, 1, 0, 0, 0, 1, 0, 1, 0, 0, 0, 1, 0, 0, 0, 0, 0, 1, 0, 0, 0, 0, 0, 0, 0, 1, 0, 0, 0, 1, 0, 1, 0, 0, 0, 0, 0, 1, 0, 0, 0, 0, 0, 0, 0, 0, 0, 0, 0, 1, 0, 0, 0, 0, 0, 0, 0, 0, 0, 1, 0, 1, 0, 0, 0, 1, 0, 1, 0, 0, 0, 1, 0, 0, 0, 0, 0, 1, 0, 0, 0, 0, 0, 0, 0, 0, 0, 0, 0, 1, 0, 0, 0, 0, 0, 0, 0, 0, 0, 0, 0, 1, 0, 0, 0, 0, 0, 0, 0, 1, 0, 0, 0, 0, 0, 0, 0, 0, 0, 0, 0, 1, 0, 0, 0, 0, 0, 1, 0, 0, 0, 1, 0, 0, 0, 0, 0, 1, 0, 0, 0, 0, 0, 0, 0, 1, 0, 0, 0, 1, 0, 0, 0, 0, 0, 0, 0, 1, 0, 0, 0, 1, 0, 0, 0, 0, 0, 0, 0, 0, 0, 0, 0, 0, 0, 1, 0, 0, 0, 1, 0, 0, 0, 0, 0, 1, 0, 1, 0, 0, 0, 1, 0, 0, 0, 0, 0, 1, 0, 1, 0, 0, 0, 0, 0, 1, 0, 0, 0, 0, 0, 0, 0, 0, 0, 1, 0, 0, 0, 0, 0, 0, 0, 0, 0, 0, 0, 0, 0, 0, 0, 0, 0, 0, 0, 1, 0, 0, 0, 0, 0, 1, 0, 0, 0, 1, 0, 1, 0, 0, 0, 0, 0, 0, 0, 0, 0, 0, 0, 0, 0, 0, 0, 0, 0, 0, 0, 0, 0, 0, 0, 1, 0, 0, 0, 1, 0, 1, 0, 0, 0, 0, 0, 0, 0, 0, 0, 1, 0, 0, 0, 0, 0, 0, 0, 0, 0, 0, 0, 1, 0, 1, 0, 0, 0, 0, 0, 0, 0, 0, 0, 1, 0, 0, 0, 0, 0, 0, 0, 1, 0, 0, 0, 0, 0, 1, 0, 0, 0, 0, 0, 1, 0, 0, 0, 0, 0, 1, 0, 0, 0, 0, 0, 0, 0, 0, 0, 0, 0, 0, 0, 0, 0, 0, 0, 1, 0, 0, 0, 0, 0, 1, 0, 0, 0, 1, 0, 1, 0, 0, 0, 0, 0, 0, 0, 0, 0, 0, 0, 1, 0, 0, 0, 0, 0, 0, 0, 0, 0, 1, 0, 0, 0, 0, 0, 0, 0, 0, 0, 0, 0, 1, 0, 0, 0, 0, 0, 0, 0, 1, 0, 0, 0, 0, 0, 0, 0, 0, 0, 0, 0, 0, 0, 0, 0, 1, 0, 0, 0, 0, 0, 0, 0, 0, 0, 0, 0, 0, 0, 1, 0, 0, 0, 0, 0, 1, 0, 0, 0, 1, 0, 1, 0, 0, 0, 1, 0, 1, 0, 0, 0, 0, 0, 0, 0, 0, 0, 1, 0, 0, 0, 0, 0, 0, 0, 0, 0, 0, 0, 1, 0, 0, 0, 0, 0, 1, 0, 0, 0, 0, 0, 1, 0, 0, 0, 0, 0, 0, 0, 0, 0, 0, 0, 0, 0, 0, 0, 0, 0, 1, 0, 1, 0, 0, 0, 0, 0, 0, 0, 0, 0, 0, 0, 0, 0, 0, 0, 1, 0, 1, 0, 0, 0, 0, 0, 0, 0, 0, 0, 0, 0, 0, 0, 0, 0, 0, 0, 0, 0, 0, 0, 1, 0, 0, 0, 0, 0, 1, 0, 0, 0, 0, 0, 0, 0, 1, 0, 0, 0, 0, 0, 1, 0, 0, 0, 1, 0, 1, 0, 0, 0, 1, 0, 0, 0, 0, 0, 0, 0, 1, 0, 0, 0, 0, 0, 1, 0, 0, 0, 0, 0, 0, 0, 0, 0, 1, 0, 1, 0, 0, 0, 0, 0, 0, 0, 0, 0, 1, 0, 0, 0, 0, 0, 0, 0, 0, 0, 0, 0, 0, 0, 1, 0, 0, 0, 0, 0, 0, 0, 0, 0, 1, 0, 0, 0, 0, 0, 1, 0, 0, 0, 0, 0, 0, 0, 0, 0, 0, 0, 1, 0, 1, 0, 0, 0, 1, 0, 1, 0, 0, 0, 0, 0, 0, 0, 0, 0, 1, 0, 0, 0, 0, 0, 0, 0, 0, 0, 0, 0, 1, 0, 1, 0, 0, 0, 0, 0, 0, 0, 0, 0, 0, 0, 0, 0, 0, 0, 1, 0, 1, 0, 0, 0, 0, 0, 1, 0, 0, 0, 1, 0, 1, 0, 0, 0, 0, 0, 0, 0, 0, 0, 1, 0, 0, 0, 0, 0, 0, 0, 1, 0, 0, 0, 0, 0, 0, 0, 0, 0, 0, 0, 0, 0, 0, 0, 0, 0, 1, 0, 0, 0, 0, 0, 0, 0, 0, 0, 0, 0, 0, 0, 0, 0, 0, 0, 0, 0, 0, 0, 0, 0, 1, 0, 0, 0, 1, 0, 0, 0, 0, 0, 1, 0, 0, 0, 0, 0, 0, 0, 1, 0, 0, 0, 0, 0, 0, 0, 0, 0, 0, 0, 0, 0, 0, 0, 1, 0, 1, 0, 0, 0, 1, 0, 0, 0, 0, 0, 0, 0, 1, 0, 0, 0, 0, 0, 0, 0, 0, 0, 0, 0, 0, 0, 0, 0, 1, 0, 1, 0, 0, 0, 1, 0, 0, 0, 0, 0, 0, 0, 1, 0, 0, 0, 0, 0, 1, 0, 0, 0, 0, 0, 1, 0, 0, 0, 1, 0, 0, 0, 0, 0, 0, 0, 0, 0, 0, 0, 1, 0, 1, 0, 0, 0, 0, 0, 0, 0, 0, 0, 0, 0, 0, 0, 0, 0, 0, 0, 0, 0, 0, 0, 1, 0, 0, 0, 0, 0, 1, 0, 1, 0, 0, 0, 0, 0, 1, 0, 0, 0, 1, 0, 0, 0, 0, 0, 1, 0, 0, 0, 0, 0, 0, 0, 0, 0, 0, 0, 0, 0, 1, 0, 0, 0, 0, 0, 1, 0, 0, 0, 1, 0, 1, 0, 0, 0, 0, 0, 1, 0, 0, 0, 1, 0, 0, 0, 0, 0, 1, 0, 0, 0, 0, 0, 0, 0, 0, 0, 0, 0, 1, 0, 0, 0, 0, 0, 1, 0, 0, 0, 0, 0, 1, 0, 0, 0, 0, 0, 0, 0, 0, 0, 0, 0, 0, 0, 1, 0, 0, 0, 1, 0, 0, 0, 0, 0, 1, 0, 0, 0, 0, 0, 0, 0, 0, 0, 0, 0, 1, 0, 0, 0, 0, 0, 0, 0, 1, 0, 0, 0, 0, 0, 1, 0, 0, 0, 1, 0, 0, 0, 0, 0, 0, 0, 0, 0, 0, 0, 0, 0, 0, 0, 0, 0, 0, 0, 0, 0, 0, 0, 0, 0, 1, 0, 0, 0, 0, 0, 0, 0, 0, 0, 0, 0, 0, 0, 0, 0, 0, 0, 1, 0, 0, 0, 0, 0, 0, 0, 0, 0, 1, 0, 0, 0, 0, 0, 0, 0, 1, 0, 0, 0, 1, 0, 0, 0, 0, 0, 1, 0, 1, 0, 0, 0, 0, 0, 1, 0, 0, 0, 0, 0, 0, 0, 0, 0, 0, 0, 0, 0, 0, 0, 0, 0, 0, 0, 0, 0, 1, 0, 0, 0, 0, 0, 0, 0, 0, 0, 0, 0, 1, 0, 1, 0, 0, 0, 0, 0, 0, 0, 0, 0, 0, 0, 0, 0, 0, 0, 1, 0, 0, 0, 0, 0, 0, 0, 1, 0, 0, 0, 1, 0, 0, 0, 0, 0, 0, 0, 0, 0, 0, 0, 1, 0, 0, 0, 0, 0, 0, 0, 0, 0, 0, 0, 0, 0, 1, 0, 0, 0, 0, 0, 0, 0, 0, 0, 1, 0, 1, 0, 0, 0, 1, 0, 0, 0, 0, 0, 0, 0, 1, 0, 0, 0, 0, 0, 1, 0, 0, 0, 0, 0, 1, 0, 0, 0, 1, 0, 1, 0, 0, 0, 1, 0, 0, 0, 0, 0, 1, 0, 0, 0, 0, 0, 0, 0, 1, 0, 0, 0, 1, 0, 1, 0, 0, 0, 0, 0, 1, 0, 0, 0, 0, 0, 0, 0, 0, 0, 1, 0, 1, 0, 0, 0, 0, 0, 0, 0, 0, 0, 1, 0, 0, 0, 0, 0, 0, 0, 1, 0, 0, 0, 1, 0, 0, 0, 0, 0, 0, 0, 0, 0, 0, 0, 0, 0, 1, 0, 0, 0, 0, 0, 0, 0, 0, 0, 1, 0, 0, 0, 0, 0, 0, 0, 0, 0, 0, 0, 1, 0, 1, 0, 0, 0, 0, 0, 1, 0, 0, 0, 1, 0, 1, 0, 0, 0, 0, 0, 0, 0, 0, 0, 0, 0, 0, 0, 0, 0, 1, 0, 0, 0, 0, 0, 0, 0, 0, 0, 0, 0, 0, 0, 1, 0, 0, 0, 1, 0, 0, 0, 0, 0, 1, 0, 0, 0, 0, 0, 0, 0, 1, 0, 0, 0, 0, 0, 1, 0, 0, 0, 1, 0, 0, 0, 0, 0, 0, 0, 0, 0, 0, 0, 0, 0, 0, 0, 0, 0, 1, 0, 0, 0, 0, 0, 0, 0, 1, 0, 0, 0, 0, 0, 0, 0, 0, 0, 1, 0, 0, 0, 0, 0, 1, 0, 0, 0, 0, 0, 1, 0, 0, 0, 0, 0, 0, 0, 1, 0, 0, 0, 0, 0, 0, 0, 0, 0, 1, 0, 0, 0, 0, 0, 0, 0, 0, 0, 0, 0, 1, 0, 0, 0, 0, 0, 0, 0, 0, 0, 0, 0, 0, 0, 1, 0, 0, 0, 1, 0, 0, 0, 0, 0, 1, 0, 0, 0, 0, 0, 1, 0, 1, 0, 0, 0, 0, 0, 0, 0, 0, 0, 0, 0, 0, 0, 0, 0, 0, 0, 0, 0, 0, 0, 0, 0, 0, 0, 0, 0, 1, 0, 1, 0, 0, 0, 0, 0, 0, 0, 0, 0, 1, 0, 0, 0, 0, 0, 0, 0, 1, 0, 0, 0, 1, 0, 0, 0, 0, 0, 0, 0, 0, 0, 0, 0, 0, 0, 1, 0, 0, 0, 1, 0, 0, 0, 0, 0, 0, 0, 1, 0, 0, 0, 0, 0, 0, 0, 0, 0, 0, 0, 1, 0, 0, 0, 0, 0, 1, 0, 0, 0, 0, 0, 0, 0, 0, 0, 0, 0, 1, 0, 0, 0, 1, 0, 0, 0, 0, 0, 1, 0, 0, 0, 0, 0, 0, 0, 0, 0, 0, 0, 0, 0, 0, 0, 0, 0, 0, 0, 1, 0, 0, 0, 0, 0, 0, 0, 0, 0, 1, 0, 1, 0, 0, 0, 0, 0, 0, 0, 0, 0, 0, 0, 0, 0, 0, 0, 1, 0, 0, 0, 0, 0, 0, 0, 0, 0, 0, 0, 0, 0, 0, 0, 0, 0, 0, 0, 0, 0, 0, 0, 0, 0, 1, 0, 0, 0, 1, 0, 1, 0, 0, 0, 0, 0, 0, 0, 0, 0, 0, 0, 1, 0, 0, 0, 0, 0, 1, 0, 0, 0, 1, 0, 0, 0, 0, 0, 0, 0, 0, 0, 0, 0, 1, 0, 0, 0, 0, 0, 1, 0, 0, 0, 0, 0, 0, 0, 1, 0, 0, 0, 1, 0, 0, 0, 0, 0, 0, 0, 1, 0, 0, 0, 0, 0, 0, 0, 0, 0, 0, 0, 0, 0, 0, 0, 0, 0, 0, 0, 0, 0, 1, 0, 1, 0, 0, 0, 1, 0, 1, 0, 0, 0, 0, 0, 0, 0, 0, 0, 0, 0, 1, 0, 0, 0, 0, 0, 0, 0, 0, 0, 0, 0, 0, 0, 0, 0, 0, 0, 0, 0, 0, 0, 0, 0, 0, 0, 0, 0, 1, 0, 1, 0, 0, 0, 0, 0, 1, 0, 0, 0, 0, 0, 1, 0, 0, 0, 0, 0, 1, 0, 0, 0, 1, 0, 0, 0, 0, 0, 1, 0, 1, 0, 0, 0, 0, 0, 0, 0, 0, 0, 0, 0, 1, 0, 0, 0, 1, 0, 0, 0, 0, 0, 0, 0, 0, 0, 0, 0, 1, 0, 1, 0, 0, 0, 0, 0, 0, 0, 0, 0, 1, 0, 1, 0, 0, 0, 0, 0, 0, 0, 0, 0, 0, 0, 0, 0, 0, 0, 1, 0, 1, 0, 0, 0, 0, 0, 0, 0, 0, 0, 0, 0, 0, 0, 0, 0, 1, 0, 0, 0, 0, 0, 1, 0, 0, 0, 0, 0, 0, 0, 0, 0, 0, 0, 0, 0, 0, 0, 0, 0, 0, 0, 1, 0, 0, 0, 0, 0, 0, 0, 0, 0, 0, 0, 0, 0, 0, 0, 1, 0, 0, 0, 0, 0, 0, 0, 1, 0, 0, 0, 1, 0, 1, 0, 0, 0, 1, 0, 1, 0, 0, 0, 0, 0, 0, 0, 0, 0, 0, 0, 0, 0, 0, 0, 0, 0, 0, 0, 0, 0, 1, 0, 0, 0, 0, 0, 0, 0, 1, 0, 0, 0, 0, 0, 0, 0, 0, 0, 0, 0, 1, 0, 0, 0, 0, 0, 1, 0, 0, 0, 0, 0, 0, 0, 0, 0, 1, 0, 1, 0, 0, 0, 1, 0, 0, 0, 0, 0, 1, 0, 1, 0, 0, 0, 0, 0, 1, 0, 0, 0, 0, 0, 0, 0, 0, 0, 1, 0, 1, 0, 0, 0, 0, 0, 0, 0, 0, 0, 0, 0, 1, 0, 0, 0, 0, 0, 0, 0, 0, 0, 1, 0, 1, 0, 0, 0, 0, 0, 0, 0, 0, 0, 1, 0, 0, 0, 0, 0, 0, 0, 0, 0, 0, 0, 0, 0, 1, 0, 0, 0, 0, 0, 1, 0, 0, 0, 1, 0, 0, 0, 0, 0, 1, 0, 0, 0, 0, 0, 0, 0, 1, 0, 0, 0, 0, 0, 1, 0, 0, 0, 0, 0, 1, 0, 0, 0, 0, 0, 0, 0, 0, 0, 0, 0, 0, 0, 0, 0, 1, 0, 0, 0, 0, 0, 0, 0, 0, 0, 0, 0, 1, 0, 1, 0, 0, 0, 1, 0, 0, 0, 0, 0, 0, 0, 0, 0, 0, 0, 0, 0, 1, 0, 0, 0, 0, 0, 1, 0, 0, 0, 1, 0, 0, 0, 0, 0, 0, 0, 1, 0, 0, 0, 0, 0, 0, 0, 0, 0, 1, 0, 0, 0, 0, 0, 0, 0, 1, 0, 0, 0, 0, 0, 1, 0, 0, 0, 0, 0, 1, 0, 0, 0, 0, 0, 0, 0, 0, 0, 0, 0, 0, 0, 0, 0, 0, 0, 0, 0, 0, 0, 1, 0, 0, 0, 0, 0, 1, 0, 1, 0, 0, 0, 0, 0, 0, 0, 0, 0, 1, 0, 0, 0, 0, 0, 0, 0, 0, 0, 0, 0, 0, 0, 1, 0, 0, 0, 1, 0, 0, 0, 0, 0, 1, 0, 0, 0, 0, 0, 0, 0, 0, 0, 0, 0, 0, 0, 0, 0, 0, 0, 1, 0, 1, 0, 0, 0, 0, 0, 0, 0, 0, 0, 1, 0, 0, 0, 0, 0, 0, 0, 0, 0, 0, 0, 0, 0, 1, 0, 0, 0, 1, 0, 1, 0, 0, 0, 0, 0, 0, 0, 0, 0, 1, 0, 0, 0, 0, 0, 0, 0, 0, 0, 0, 0, 0, 0, 1, 0, 0, 0, 1, 0, 0, 0, 0, 0, 0, 0, 1, 0, 0, 0, 0, 0, 0, 0, 0, 0, 0, 0, 0, 0, 0, 0, 0, 0, 1, 0, 0, 0, 1, 0, 0, 0, 0, 0, 1, 0, 1, 0, 0, 0, 1, 0, 0, 0, 0, 0, 1, 0, 1, 0, 0, 0, 0, 0, 0, 0, 0, 0, 0, 0, 1, 0, 0, 0, 1, 0, 0, 0, 0, 0, 0, 0, 0, 0, 0, 0, 0, 0, 0, 0, 0, 0, 0, 0, 1, 0, 0, 0, 0, 0, 0, 0, 0, 0, 0, 0, 0, 0, 0, 0, 0, 0, 0, 0, 0, 0, 1, 0, 0, 0, 0, 0, 0, 0, 0, 0, 0, 0, 
Factors:
1, 0, *, 0, 1, 0, *, 0, 1, 0, 1, *, 1, *, *, 0, *, *, 1, 0, *, 0, 1, *, 1, *, *, 0, 1, *, 1, *, *, 0, 1, *, *, 0, *, 0, 1, 0, *, 0, *, *, 1, *, *, *, 1, 0, *, *, 1, 0, 1, *, *, *, *, 0, *, 0, *, *, *, *, 1, 0, *, *, *, *, 1, 0, *, *, *, *, 1, *, *, *, *, 0, 1, 0, 1, *, *, *, 1, *, 1, 0, 1, *, 1, *, 1, 0, *, 0, 1, *, *, 0, 1, 0, 1, *, *, *, *, 0, 1, 0, 1, 0, 1, *, *, *, 1, *, *, 0, 1, *, 1, *, 1, 0, 1, 0, 1, 0, 1, *, *, 0, 1, 0, *, *, 1, *, 1, *, *, 0, 1, 0, 1, 0, 1, 0, *, 0, *, 0, *, *, *, 0, *, *, 1, 0, *, *, 1, *, 1, 0, *, 0, *, *, *, 0, 1, 0, *, 0, *, 0, *, 0, *, *, *, *, 1, *, *, 0, 1, *, *, 0, *, 0, *, *, *, 0, 1, *, *, 0, *, *, *, 0, *, 0, 1, 0, 1, *, *, *, 1, *, 1, 0, 1, *, 1, 0, *, *, 1, 0, 1, 0, 1, 0, 1, 0, *, *, *, *, 1, 0, 1, 0, *, 0, *, *, *, 0, *, *, 1, *, *, *, *, 0, 1, *, *, *, *, *, 1, 0, 1, *, 1, *, 1, 0, 1, *, *, 0, 1, *, *, *, *, *, *, 0, *, 0, *, *, 1, *, *, 0, 1, 0, *, 0, 1, 0, *, 0, *, *, 1, 0, *, *, *, 0, *, 0, 1, *, 1, *, 1, 0, *, 0, 1, *, *, 0, *, *, *, *, 1, 0, 1, *, *, 0, 1, 0, *, 0, *, *, *, 0, *, *, 1, *, 1, *, *, 0, *, 0, 1, 0, 1, 0, 1, 0, 1, *, 1, *, 1, 0, *, 0, *, *, *, *, 1, *, *, 0, *, 0, *, *, *, 0, *, 0, *, *, 1, 0, 1, *, 1, *, *, *, *, *, *, *, 1, *, *, *, 1, *, 1, 0, 1, 0, 1, 0, *, *, 1, *, 1, 0, *, 0, 1, *, 1, 0, *, 0, 1, *, *, *, *, *, *, *, *, *, *, 0, *, *, 1, 0, *, 0, *, 0, 1, *, 1, 0, *, 0, *, *, 1, 0, *, *, 1, *, *, *, *, 0, *, 0, *, *, 1, *, 1, *, 1, *, *, 0, 1, *, *, *, *, 0, 1, *, *, 0, *, 0, 1, 0, 1, 0, 1, 0, 1, *, *, 0, 1, 0, *, 0, *, *, 1, *, 1, *, 1, 0, 1, 0, 1, 0, *, 0, 1, *, 1, *, *, 0, *, 0, *, *, *, *, *, 0, 1, 0, 1, *, *, *, *, 0, 1, *, 1, *, 1, *, *, 0, 1, 0, *, 0, *, 0, *, *, *, 0, *, 0, 1, 0, *, *, *, 0, *, *, 1, *, 1, 0, 1, *, *, *, 1, *, 1, *, 1, *, 1, 0, 1, *, *, 0, 1, *, 1, 0, *, *, *, *, 1, *, 1, *, 1, 0, *, 0, *, 0, *, 0, 1, 0, 1, *, *, 0, *, *, *, 0, 1, 0, 1, *, 1, 0, 1, 0, 1, *, 1, 0, 1, 0, 1, *, 1, *, *, 0, *, 0, *, *, *, 0, *, *, 1, *, 1, 0, 1, *, 1, 0, *, *, 1, *, *, *, *, *, 1, 0, *, *, *, 0, 1, 0, *, *, 1, 0, *, *, 1, *, *, 0, *, 0, 1, 0, *, 0, 1, *, *, 0, *, 0, *, 0, *, *, 1, 0, *, 0, *, *, 1, *, *, *, *, *, *, *, *, *, 1, 0, 1, *, 1, *, *, 0, *, *, *, 0, 1, 0, 1, 0, 1, *, *, *, *, 0, *, *, *, 0, *, *, *, *, 1, *, 1, 0, *, 0, 1, *, *, 0, *, *, 1, *, 1, 0, *, *, 1, *, 1, 0, *, *, 1, 0, *, 0, *, *, *, 0, *, 0, 1, *, 1, 0, 1, *, *, 0, 1, *, *, *, 1, 0, 1, 0, *, 0, *, 0, 1, 0, 1, *, *, 0, 1, 0, 1, *, *, 0, 1, 0, 1, *, 1, 0, 1, 0, *, *, *, *, 1, 0, 1, *, 1, *, *, *, 1, *, 1, *, *, 0, *, *, 1, 0, *, *, *, *, 1, 0, 1, 0, *, *, *, *, *, *, 1, 0, 1, *, 1, 0, *, *, 1, *, 1, *, *, *, *, *, *, *, 1, 0, *, *, *, 0, 1, *, 1, *, 1, 0, *, *, *, *, *, *, *, 0, *, 0, *, 0, 1, 0, *, 0, 1, *, *, 0, 1, *, 1, *, *, 0, *, 0, 1, 0, *, *, *, 0, *, 0, *, 0, *, 0, 1, 0, 1, *, 1, 0, *, *, 1, 0, *, 0, *, 0, 1, 0, *, *, 1, 0, *, 0, 1, 0, *, 0, *, *, *, *, 1, 0, 1, *, 1, *, *, *, 1, *, *, 0, 1, *, *, *, *, *, *, *, *, 0, 1, 0, 1, *, *, *, *, 0, *, 0, 1, 0, *, 0, 1, *, 1, 0, 1, 0, *, *, 1, 0, 1, 0, 1, *, *, *, 1, *, 1, *, *, *, 1, 0, *, *, 1, 0, 1, 0, 1, 0, *, 0, *, 0, 1, *, 1, 0, *, *, *, 0, *, *, *, 0, *, 0, 1, *, *, 0, 1, 0, *, 0, *, *, 1, *, 1, *, *, 0, *, *, 1, 0, *, 0, 1, 0, 1, *, *, *, 1, 0, *, *, *, 0, *, 0, 1, 0, *, 0, 1, *, 1, *, 1, 0, *, 0, *, *, *, *, *, *, *, *, 1, *, 1, *, *, 0, *, 0, 1, 0, 1, *, 1, 0, *, 0, *, 0, 1, 0, *, 0, *, 0, 1, *, *, *, 1, *, 1, 0, 1, 0, 1, 0, 1, *, 1, 0, 1, *, 1, *, *, *, *, *, *, 0, 1, *, 1, *, *, 0, *, *, 1, *, *, 0, *, *, 1, 0, 1, 0, 1, 0, 1, 0, 1, 0, *, 0, 1, *, *, 0, *, 0, *, *, 1, *, *, 0, *, 0, 1, *, *, 0, 1, *, 1, 0, 1, 0, *, 0, *, 0, 1, *, 1, *, 1, *, 1, 0, *, *, 1, 0, 1, 0, *, *, 1, 0, *, 0, *, *, *, *, *, *, *, *, 1, 0, *, *, *, 0, *, 0, 1, *, 1, *, 1, *, *, *, *, *, *, 0, *, *, 1, *, 1, 0, *, 0, *, 0, 1, 0, 1, 0, *, *, *, *, 1, 0, 1, 0, *, *, 1, *, 1, *, 1, 0, *, *, *, 0, *, 0, *, 0, 1, 0, *, 0, *, *, *, 0, 1, 0, *, 0, 1, *, 1, *, *, *, 1, 0, 1, *, 1, *, 1, *, 1, *, *, *, 1, 0, *, *, 1, *, *, 0, 1, 0, 1, *, 1, *, 1, *, *, 0, *, 0, *, 0, *, *, *, *, 1, 0, *, 0, 1, 0, *, *, *, *, 1, *, *, *, *, *, 1, *, *, *, *, *, 1, *, 1, 0, *, 0, *, 0, 1, 0, *, 0, 1, *, 1, *, *, *, 1, *, *, 0, 1, *, 1, 0, 1, 0, 1, *, *, 0, 1, 0, *, *, *, 0, 1, *, *, 0, 1, *, 1, 0, *, 0, *, *, *, 0, *, *, 1, 0, *, 0, *, 0, *, 0, 1, *, *, 0, *, 0, 1, *, 1, 0, 1, 0, 1, 0, 1, 0, 1, *, *, *, 1, *, 1, 0, *, 0, 1, 0, *, *, *, *, *, *, 1, 0, 1, 0, *, 0, 1, 0, *, 0, 1, 0, 1, *, 1, *, *, 0, *, *, 1, 0, *, 0, 1, *, 1, *, *, 0, 1, *, 1, *, *, 0, 1, *, *, 0, *, 0, 1, 0, *, 0, *, *, 1, *, *, *, 1, 0, *, *, 1, 0, 1, *, *, *, *, 0, *, 0, *, *, *, *, 1, 0, *, *, *, *, 1, 0, *, *, *, *, 1, *, *, *, *, 0, 1, 0, 1, *, *, *, 1, *, 1, 0, 1, *, 1, *, 1, 0, *, 0, 1, *, *, 0, 1, 0, 1, *, *, *, *, 0, 1, 0, 1, 0, 1, *, *, *, 1, *, *, 0, 1, *, 1, *, 1, 0, 1, 0, 1, 0, 1, *, *, 0, 1, 0, *, *, 1, *, 1, *, *, 0, 1, 0, 1, 0, 1, 0, *, 0, *, 0, *, *, *, 0, *, *, 1, 0, *, *, 1, *, 1, 0, *, 0, *, *, *, 0, 1, 0, *, 0, *, 0, *, 0, *, *, *, *, 1, *, *, 0, 1, *, *, 0, *, 0, *, *, *, 0, 1, *, *, 0, *, *, *, 0, *, 0, 1, 0, 1, *, *, *, 1, *, 1, 0, 1, *, 1, 0, *, *, 1, 0, 1, 0, 1, 0, 1, 0, *, *, *, *, 1, 0, 1, 0, *, 0, *, *, *, 0, *, *, 1, *, *, *, *, 0, 1, *, *, *, *, *, 1, 0, 1, *, 1, *, 1, 0, 1, *, *, 0, 1, *, *, *, *, *, *, 0, *, 0, *, *, 1, *, *, 0, 1, 0, *, 0, 1, 0, *, 0, *, *, 1, 0, *, *, *, 0, *, 0, 1, *, 1, *, 1, 0, *, 0, 1, *, *, 0, *, *, *, *, 1, 0, 1, *, *, 0, 1, 0, *, 0, *, *, *, 0, *, *, 1, *, 1, *, *, 0, *, 0, 1, 0, 1, 0, 1, 0, 1, *, 1, *, 1, 0, *, 0, *, *, *, *, 1, *, *, 0, *, 0, *, *, *, 0, *, 0, *, *, 1, 0, 1, *, 1, *, *, *, *, *, *, *, 1, *, *, *, 1, *, 1, 0, 1, 0, 1, 0, *, *, 1, *, 1, 0, *, 0, 1, *, 1, 0, *, 0, 1, *, *, *, *, *, *, *, *, *, *, 0, *, *, 1, 0, *, 0, *, 0, 1, *, 1, 0, *, 0, *, *, 1, 0, *, *, 1, *, *, *, *, 0, *, 0, *, *, 1, *, 1, *, 1, *, *, 0, 1, *, *, *, *, 0, 1, *, *, 0, *, 0, 1, 0, 1, 0, 1, 0, 1, *, *, 0, 1, 0, *, 0, *, *, 1, *, 1, *, 1, 0, 1, 0, 1, 0, *, 0, 1, *, 1, *, *, 0, *, 0, *, *, *, *, *, 0, 1, 0, 1, *, *, *, *, 0, 1, *, 1, *, 1, *, *, 0, 1, 0, *, 0, *, 0, *, *, *, 0, *, 0, 1, 0, *, *, *, 0, *, *, 1, *, 1, 0, 1, *, *, *, 1, *, 1, *, 1, *, 1, 0, 1, *, *, 0, 1, *, 1, 0, *, *, *, *, 1, *, 1, *, 1, 0, *, 0, *, 0, *, 0, 1, 0, 1, *, *, 0, *, *, *, 0, 1, 0, 1, *, 1, 0, 1, 0, 1, *, 1, 0, 1, 0, 1, *, 1, *, *, 0, *, 0, *, *, *, 0, *, *, 1, *, 1, 0, 1, *, 1, 0, *, *, 1, *, *, *, *, *, 1, 0, *, *, *, 0, 1, 0, *, *, 1, 0, *, *, 1, *, *, 0, *, 0, 1, 0, *, 0, 1, *, *, 0, *, 0, *, 0, *, *, 1, 0, *, 0, *, *, 1, *, *, *, *, *, *, *, *, *, 1, 0, 1, *, 1, *, *, 0, *, *, *, 0, 1, 0, 1, 0, 1, *, *, *, *, 0, *, *, *, 0, *, *, *, *, 1, *, 1, 0, *, 0, 1, *, *, 0, *, *, 1, *, 1, 0, *, *, 1, *, 1, 0, *, *, 1, 0, *, 0, *, *, *, 0, *, 0, 1, *, 1, 0, 1, *, *, 0, 1, *, *, *, 1, 0, 1, 0, *, 0, *, 0, 1, 0, 1, *, *, 0, 1, 0, 1, *, *, 0, 1, 0, 1, *, 1, 0, 1, 0, *, *, *, *, 1, 0, 1, *, 1, *, *, *, 1, *, 1, *, *, 0, *, *, 1, 0, *, *, *, *, 1, 0, 1, 0, *, *, *, *, *, *, 1, 0, 1, *, 1, 0, *, *, 1, *, 1, *, *, *, *, *, *, *, 1, 0, *, *, *, 0, 1, *, 1, *, 1, 0, *, *, *, *, *, *, *, 0, *, 0, *, 0, 1, 0, *, 0, 1, *, *, 0, 1, *, 1, *, *, 0, *, 0, 1, 0, *, *, *, 0, *, 0, *, 0, *, 0, 1, 0, 1, *, 1, 0, *, *, 1, 0, *, 0, *, 0, 1, 0, *, *, 1, 0, *, 0, 1, 0, *, 0, *, *, *, *, 1, 0, 1, *, 1, *, *, *, 1, *, *, 0, 1, *, *, *, *, *, *, *, *, 0, 1, 0, 1, *, *, *, *, 0, *, 0, 1, 0, *, 0, 1, *, 1, 0, 1, 0, *, *, 1, 0, 1, 0, 1, *, *, *, 1, *, 1, *, *, *, 1, 0, *, *, 1, 0, 1, 0, 1, 0, *, 0, *, 0, 1, *, 1, 0, *, *, *, 0, *, *, *, 0, *, 0, 1, *, *, 0, 1, 0, *, 0, *, *, 1, *, 1, *, *, 0, *, *, 1, 0, *, 0, 1, 0, 1, *, *, *, 1, 0, *, *, *, 0, *, 0, 1, 0, *, 0, 1, *, 1, *, 1, 0, *, 0, *, *, *, *, *, *, *, *, 1, *, 1, *, *, 0, *, 0, 1, 0, 1, *, 1, 0, *, 0, *, 0, 1, 0, *, 0, *, 0, 1, *, *, *, 1, *, 1, 0, 1, 0, 1, 0, 1, *, 1, 0, 1, *, 1, *, *, *, *, *, *, 0, 1, *, 1, *, *, 0, *, *, 1, *, *, 0, *, *, 1, 0, 1, 0, 1, 0, 1, 0, 1, 0, *, 0, 1, *, *, 0, *, 0, *, *, 1, *, *, 0, *, 0, 1, *, *, 0, 1, *, 1, 0, 1, 0, *, 0, *, 0, 1, *, 1, *, 1, *, 1, 0, *, *, 1, 0, 1, 0, *, *, 1, 0, *, 0, *, *, *, *, *, *, *, *, 1, 0, *, *, *, 0, *, 0, 1, *, 1, *, 1, *, *, *, *, *, *, 0, *, *, 1, *, 1, 0, *, 0, *, 0, 1, 0, 1, 0, *, *, *, *, 1, 0, 1, 0, *, *, 1, *, 1, *, 1, 0, *, *, *, 0, *, 0, *, 0, 1, 0, *, 0, *, *, *, 0, 1, 0, *, 0, 1, *, 1, *, *, *, 1, 0, 1, *, 1, *, 1, *, 1, *, *, *, 1, 0, *, *, 1, *, *, 0, 1, 0, 1, *, 1, *, 1, *, *, 0, *, 0, *, 0, *, *, *, *, 1, 0, *, 0, 1, 0, *, *, *, *, 1, *, *, *, *, *, 1, *, *, *, *, *, 1, *, 1, 0, *, 0, *, 0, 1, 0, *, 0, 1, *, 1, *, *, *, 1, *, *, 0, 1, *, 1, 0, 1, 0, 1, *, *, 0, 1, 0, *, *, *, 0, 1, *, *, 0, 1, *, 1, 0, *, 0, *, *, *, 0, *, *, 1, 0, *, 0, *, 0, *, 0, 1, *, *, 0, *, 0, 1, *, 1, 0, 1, 0, 1, 0, 1, 0, 1, *, *, *, 1, *, 1, 0, *, 0, 1, 0, *, *, *, *, *, *, 1, 0, 1, 0, *, 0, 1, 0, *, 0, 1, 0, 1, *, 1, *, *, 0, *, *, 1, 0, *, 0, 1, *, 1, *, *, 0, 1, *, 1, *, *, 0, 1, *, *, 0, *, 0, 1, 0, *, 0, *, *, 1, *, *, *, 1, 0, *, *, 1, 0, 1, *, *, *, *, 0, *, 0, *, *, *, *, 1, 0, *, *, *, *, 1, 0, *, *, *, *, 1, *, *, *, *, 0, 1, 0, 1, *, *, *, 1, *, 1, 0, 1, *, 1, *, 1, 0, *, 0, 1, *, *, 0, 1, 0, 1, *, *, *, *, 0, 1, 0, 1, 0, 1, *, *, *, 1, *, *, 0, 1, *, 1, *, 1, 0, 1, 0, 1, 0, 1, *, *, 0, 1, 0, *, *, 1, *, 1, *, *, 0, 1, 0, 1, 0, 1, 0, *, 0, *, 0, *, *, *, 0, *, *, 1, 0, *, *, 1, *, 1, 0, *, 0, *, *, *, 0, 1, 0, *, 0, *, 0, *, 0, *, *, *, *, 1, *, *, 0, 1, *, *, 0, *, 0, *, *, *, 0, 1, *, *, 0, *, *, *, 0, *, 0, 1, 0, 1, *, *, *, 1, *, 1, 0, 1, *, 1, 0, *, *, 1, 0, 1, 0, 1, 0, 1, 0, *, *, *, *, 1, 0, 1, 0, *, 0, *, *, *, 0, *, *, 1, *, *, *, *, 0, 1, *, *, *, *, *, 1, 0, 1, *, 1, *, 1, 0, 1, *, *, 0, 1, *, *, *, *, *, *, 0, *, 0, *, *, 1, *, *, 0, 1, 0, *, 0, 1, 0, *, 0, *, *, 1, 0, *, *, *, 0, *, 0, 1, *, 1, *, 1, 0, *, 0, 1, *, *, 0, *, *, *, *, 1, 0, 1, *, *, 0, 1, 0, *, 0, *, *, *, 0, *, *, 1, *, 1, *, *, 0, *, 0, 1, 0, 1, 0, 1, 0, 1, *, 1, *, 1, 0, *, 0, *, *, *, *, 1, *, *, 0, *, 0, *, *, *, 0, *, 0, *, *, 1, 0, 1, *, 1, *, *, *, *, *, *, *, 1, *, *, *, 1, *, 1, 0, 1, 0, 1, 0, *, *, 1, *, 1, 0, *, 0, 1, *, 1, 0, *, 0, 1, *, *, *, *, *, *, *, *, *, *, 0, *, *, 1, 0, *, 0, *, 0, 1, *, 1, 0, *, 0, *, *, 1, 0, *, *, 1, *, *, *, *, 0, *, 0, *, *, 1, *, 1, *, 1, *, *, 0, 1, *, *, *, *, 0, 1, *, *, 0, *, 0, 1, 0, 1, 0, 1, 0, 1, *, *, 0, 1, 0, *, 0, *, *, 1, *, 1, *, 1, 0, 1, 0, 1, 0, *, 0, 1, *, 1, *, *, 0, *, 0, *, *, *, *, *, 0, 1, 0, 1, *, *, *, *, 0, 1, *, 1, *, 1, *, *, 0, 1, 0, *, 0, *, 0, *, *, *, 0, *, 0, 1, 0, *, *, *, 0, *, *, 1, *, 1, 0, 1, *, *, *, 1, *, 1, *, 1, *, 1, 0, 1, *, *, 0, 1, *, 1, 0, *, *, *, *, 1, *, 1, *, 1, 0, *, 0, *, 0, *, 0, 1, 0, 1, *, *, 0, *, *, *, 0, 1, 0, 1, *, 1, 0, 1, 0, 1, *, 1, 0, 1, 0, 1, *, 1, *, *, 0, *, 0, *, *, *, 0, *, *, 1, *, 1, 0, 1, *, 1, 0, *, *, 1, *, *, *, *, *, 1, 0, *, *, *, 0, 1, 0, *, *, 1, 0, *, *, 1, *, *, 0, *, 0, 1, 0, *, 0, 1, *, *, 0, *, 0, *, 0, *, *, 1, 0, *, 0, *, *, 1, *, *, *, *, *, *, *, *, *, 1, 0, 1, *, 1, *, *, 0, *, *, *, 0, 1, 0, 1, 0, 1, *, *, *, *, 0, *, *, *, 0, *, *, *, *, 1, *, 1, 0, *, 0, 1, *, *, 0, *, *, 1, *, 1, 0, *, *, 1, *, 1, 0, *, *, 1, 0, *, 0, *, *, *, 0, *, 0, 1, *, 1, 0, 1, *, *, 0, 1, *, *, *, 1, 0, 1, 0, *, 0, *, 0, 1, 0, 1, *, *, 0, 1, 0, 1, *, *, 0, 1, 0, 1, *, 1, 0, 1, 0, *, *, *, *, 1, 0, 1, *, 1, *, *, *, 1, *, 1, *, *, 0, *, *, 1, 0, *, *, *, *, 1, 0, 1, 0, *, *, *, *, *, *, 1, 0, 1, *, 1, 0, *, *, 1, *, 1, *, *, *, *, *, *, *, 1, 0, *, *, *, 0, 1, *, 1, *, 1, 0, *, *, *, *, *, *, *, 0, *, 0, *, 0, 1, 0, *, 0, 1, *, *, 0, 1, *, 1, *, *, 0, *, 0, 1, 0, *, *, *, 0, *, 0, *, 0, *, 0, 1, 0, 1, *, 1, 0, *, *, 1, 0, *, 0, *, 0, 1, 0, *, *, 1, 0, *, 0, 1, 0, *, 0, *, *, *, *, 1, 0, 1, *, 1, *, *, *, 1, *, *, 0, 1, *, *, *, *, *, *, *, *, 0, 1, 0, 1, *, *, *, *, 0, *, 0, 1, 0, *, 0, 1, *, 1, 0, 1, 0, *, *, 1, 0, 1, 0, 1, *, *, *, 1, *, 1, *, *, *, 1, 0, *, *, 1, 0, 1, 0, 1, 0, *, 0, *, 0, 1, *, 1, 0, *, *, *, 0, *, *, *, 0, *, 0, 1, *, *, 0, 1, 0, *, 0, *, *, 1, *, 1, *, *, 0, *, *, 1, 0, *, 0, 1, 0, 1, *, *, *, 1, 0, *, *, *, 0, *, 0, 1, 0, *, 0, 1, *, 1, *, 1, 0, *, 0, 
