Number entered was : 2140324650240744961264423072839333563008614715144755017797754920881418023447140136643345519095804679610992851872470914587687396261921557363047454770520805119056493106687691590019759405693457452230589325976697471681738069364894699871578494975937497937

Primes:
0, 1, 1, 0, 1, 0, 1, 0, 0, 0, 1, 0, 1, 0, 0, 0, 1, 0, 1, 0, 0, 0, 1, 0, 0, 0, 0, 0, 1, 0, 1, 0, 0, 0, 0, 0, 1, 0, 0, 0, 1, 0, 1, 0, 0, 0, 1, 0, 0, 0, 0, 0, 1, 0, 0, 0, 0, 0, 1, 0, 1, 0, 0, 0, 0, 0, 1, 0, 0, 0, 1, 0, 1, 0, 0, 0, 0, 0, 1, 0, 0, 0, 1, 0, 0, 0, 0, 0, 1, 0, 0, 0, 0, 0, 0, 0, 1, 0, 0, 0, 1, 0, 1, 0, 0, 0, 1, 0, 1, 0, 0, 0, 1, 0, 0, 0, 0, 0, 0, 0, 0, 0, 0, 0, 0, 0, 1, 0, 0, 0, 1, 0, 0, 0, 0, 0, 1, 0, 1, 0, 0, 0, 0, 0, 0, 0, 0, 0, 1, 0, 1, 0, 0, 0, 0, 0, 1, 0, 0, 0, 0, 0, 1, 0, 0, 0, 1, 0, 0, 0, 0, 0, 1, 0, 0, 0, 0, 0, 1, 0, 1, 0, 0, 0, 0, 0, 0, 0, 0, 0, 1, 0, 1, 0, 0, 0, 1, 0, 1, 0, 0, 0, 0, 0, 0, 0, 0, 0, 0, 0, 1, 0, 0, 0, 0, 0, 0, 0, 0, 0, 0, 0, 1, 0, 0, 0, 1, 0, 1, 0, 0, 0, 1, 0, 0, 0, 0, 0, 1, 0, 1, 0, 0, 0, 0, 0, 0, 0, 0, 0, 1, 0, 0, 0, 0, 0, 1, 0, 0, 0, 0, 0, 1, 0, 0, 0, 0, 0, 1, 0, 1, 0, 0, 0, 0, 0, 1, 0, 0, 0, 1, 0, 1, 0, 0, 0, 0, 0, 0, 0, 0, 0, 1, 0, 0, 0, 0, 0, 0, 0, 0, 0, 0, 0, 0, 0, 1, 0, 0, 0, 1, 0, 1, 0, 0, 0, 1, 0, 0, 0, 0, 0, 0, 0, 0, 0, 0, 0, 0, 0, 1, 0, 0, 0, 0, 0, 1, 0, 0, 0, 0, 0, 0, 0, 0, 0, 1, 0, 1, 0, 0, 0, 1, 0, 0, 0, 0, 0, 1, 0, 0, 0, 0, 0, 0, 0, 1, 0, 0, 0, 0, 0, 1, 0, 0, 0, 0, 0, 1, 0, 0, 0, 1, 0, 0, 0, 0, 0, 1, 0, 0, 0, 0, 0, 0, 0, 1, 0, 0, 0, 1, 0, 0, 0, 0, 0, 0, 0, 1, 0, 0, 0, 0, 0, 0, 0, 0, 0, 1, 0, 1, 0, 0, 0, 0, 0, 0, 0, 0, 0, 1, 0, 1, 0, 0, 0, 0, 0, 1, 0, 0, 0, 1, 0, 0, 0, 0, 0, 1, 0, 0, 0, 0, 0, 0, 0, 1, 0, 0, 0, 1, 0, 1, 0, 0, 0, 1, 0, 0, 0, 0, 0, 0, 0, 0, 0, 0, 0, 1, 0, 0, 0, 0, 0, 0, 0, 1, 0, 0, 0, 1, 0, 0, 0, 0, 0, 0, 0, 1, 0, 0, 0, 1, 0, 0, 0, 0, 0, 1, 0, 0, 0, 0, 0, 0, 0, 0, 0, 0, 0, 1, 0, 1, 0, 0, 0, 0, 0, 0, 0, 0, 0, 0, 0, 0, 0, 0, 0, 0, 0, 1, 0, 0, 0, 0, 0, 1, 0, 0, 0, 0, 0, 0, 0, 0, 0, 1, 0, 0, 0, 0, 0, 1, 0, 0, 0, 0, 0, 1, 0, 1, 0, 0, 0, 0, 0, 1, 0, 0, 0, 0, 0, 0, 0, 0, 0, 1, 0, 0, 0, 0, 0, 1, 0, 0, 0, 0, 0, 1, 0, 1, 0, 0, 0, 0, 0, 1, 0, 0, 0, 0, 0, 1, 0, 0, 0, 1, 0, 1, 0, 0, 0, 0, 0, 0, 0, 0, 0, 0, 0, 1, 0, 0, 0, 0, 0, 0, 0, 0, 0, 1, 0, 1, 0, 0, 0, 1, 0, 0, 0, 0, 0, 1, 0, 0, 0, 0, 0, 1, 0, 1, 0, 0, 0, 0, 0, 0, 0, 0, 0, 0, 0, 1, 0, 0, 0, 1, 0, 0, 0, 0, 0, 1, 0, 0, 0, 0, 0, 0, 0, 1, 0, 0, 0, 0, 0, 0, 0, 0, 0, 1, 0, 0, 0, 0, 0, 0, 0, 1, 0, 0, 0, 0, 0, 0, 0, 0, 0, 1, 0, 0, 0, 0, 0, 0, 0, 1, 0, 0, 0, 0, 0, 1, 0, 0, 0, 0, 0, 1, 0, 0, 0, 1, 0, 0, 0, 0, 0, 0, 0, 1, 0, 0, 0, 0, 0, 1, 0, 0, 0, 1, 0, 0, 0, 0, 0, 0, 0, 1, 0, 0, 0, 1, 0, 0, 0, 0, 0, 0, 0, 0, 0, 0, 0, 0, 0, 1, 0, 0, 0, 0, 0, 0, 0, 0, 0, 1, 0, 0, 0, 0, 0, 0, 0, 0, 0, 0, 0, 1, 0, 1, 0, 0, 0, 0, 0, 0, 0, 0, 0, 1, 0, 1, 0, 0, 0, 1, 0, 1, 0, 0, 0, 0, 0, 0, 0, 0, 0, 1, 0, 0, 0, 0, 0, 0, 0, 0, 0, 0, 0, 0, 0, 1, 0, 0, 0, 1, 0, 1, 0, 0, 0, 1, 0, 0, 0, 0, 0, 0, 0, 0, 0, 0, 0, 0, 0, 1, 0, 0, 0, 1, 0, 1, 0, 0, 0, 1, 0, 0, 0, 0, 0, 0, 0, 0, 0, 0, 0, 0, 0, 0, 0, 0, 0, 0, 0, 1, 0, 0, 0, 1, 0, 0, 0, 0, 0, 0, 0, 1, 0, 0, 0, 0, 0, 0, 0, 0, 0, 1, 0, 0, 0, 0, 0, 0, 0, 1, 0, 0, 0, 1, 0, 0, 0, 0, 0, 1, 0, 0, 0, 0, 0, 1, 0, 0, 0, 0, 0, 0, 0, 0, 0, 0, 0, 0, 0, 1, 0, 0, 0, 1, 0, 0, 0, 0, 0, 1, 0, 0, 0, 0, 0, 1, 0, 0, 0, 0, 0, 0, 0, 1, 0, 0, 0, 0, 0, 1, 0, 0, 0, 0, 0, 0, 0, 0, 0, 0, 0, 1, 0, 0, 0, 1, 0, 0, 0, 0, 0, 1, 0, 1, 0, 0, 0, 0, 0, 0, 0, 0, 0, 1, 0, 1, 0, 0, 0, 0, 0, 1, 0, 0, 0, 0, 0, 0, 0, 0, 0, 1, 0, 1, 0, 0, 0, 0, 0, 0, 0, 0, 0, 1, 0, 1, 0, 0, 0, 0, 0, 1, 0, 0, 0, 0, 0, 0, 0, 0, 0, 0, 0, 0, 0, 0, 0, 0, 0, 1, 0, 0, 0, 1, 0, 1, 0, 0, 0, 1, 0, 0, 0, 0, 0, 1, 0, 0, 0, 0, 0, 1, 0, 0, 0, 0, 0, 0, 0, 1, 0, 0, 0, 0, 0, 1, 0, 0, 0, 0, 0, 1, 0, 0, 0, 0, 0, 0, 0, 0, 0, 0, 0, 0, 0, 0, 0, 0, 0, 0, 0, 0, 0, 1, 0, 1, 0, 0, 0, 0, 0, 0, 0, 0, 0, 1, 0, 0, 0, 0, 0, 0, 0, 1, 0, 0, 0, 0, 0, 0, 0, 0, 0, 1, 0, 0, 0, 0, 0, 1, 0, 0, 0, 0, 0, 1, 0, 0, 0, 0, 0, 0, 0, 1, 0, 0, 0, 0, 0, 0, 0, 0, 0, 0, 0, 1, 0, 0, 0, 1, 0, 0, 0, 0, 0, 1, 0, 0, 0, 0, 0, 1, 0, 1, 0, 0, 0, 0, 0, 1, 0, 0, 0, 0, 0, 0, 0, 0, 0, 0, 0, 1, 0, 0, 0, 0, 0, 0, 0, 0, 0, 1, 0, 0, 0, 0, 0, 0, 0, 0, 0, 0, 0, 0, 0, 0, 0, 0, 0, 1, 0, 1, 0, 0, 0, 1, 0, 0, 0, 0, 0, 1, 0, 1, 0, 0, 0, 0, 0, 1, 0, 0, 0, 1, 0, 1, 0, 0, 0, 1, 0, 0, 0, 0, 0, 0, 0, 0, 0, 0, 0, 1, 0, 1, 0, 0, 0, 0, 0, 1, 0, 0, 0, 0, 0, 0, 0, 0, 0, 0, 0, 0, 0, 0, 0, 0, 0, 0, 0, 0, 0, 0, 0, 0, 0, 0, 0, 0, 0, 0, 0, 0, 0, 1, 0, 0, 0, 0, 0, 1, 0, 0, 0, 0, 0, 1, 0, 0, 0, 0, 0, 0, 0, 1, 0, 0, 0, 0, 0, 0, 0, 0, 0, 0, 0, 0, 0, 0, 0, 0, 0, 1, 0, 0, 0, 0, 0, 0, 0, 0, 0, 1, 0, 0, 0, 0, 0, 0, 0, 0, 0, 0, 0, 0, 0, 1, 0, 0, 0, 1, 0, 1, 0, 0, 0, 1, 0, 0, 0, 0, 0, 1, 0, 0, 0, 0, 0, 0, 0, 1, 0, 0, 0, 1, 0, 1, 0, 0, 0, 0, 0, 1, 0, 0, 0, 0, 0, 0, 0, 0, 0, 0, 0, 1, 0, 0, 0, 0, 0, 0, 0, 0, 0, 1, 0, 1, 0, 0, 0, 1, 0, 1, 0, 0, 0, 1, 0, 0, 0, 0, 0, 1, 0, 0, 0, 0, 0, 0, 0, 0, 0, 0, 0, 1, 0, 0, 0, 0, 0, 0, 0, 0, 0, 0, 0, 1, 0, 0, 0, 0, 0, 0, 0, 1, 0, 0, 0, 0, 0, 0, 0, 0, 0, 0, 0, 1, 0, 0, 0, 0, 0, 1, 0, 0, 0, 1, 0, 0, 0, 0, 0, 1, 0, 0, 0, 0, 0, 0, 0, 1, 0, 0, 0, 1, 0, 0, 0, 0, 0, 0, 0, 1, 0, 0, 0, 1, 0, 0, 0, 0, 0, 0, 0, 0, 0, 0, 0, 0, 0, 1, 0, 0, 0, 1, 0, 0, 0, 0, 0, 1, 0, 1, 0, 0, 0, 1, 0, 0, 0, 0, 0, 1, 0, 1, 0, 0, 0, 0, 0, 1, 0, 0, 0, 0, 0, 0, 0, 0, 0, 1, 0, 0, 0, 0, 0, 0, 0, 0, 0, 0, 0, 0, 0, 0, 0, 0, 0, 0, 0, 1, 0, 0, 0, 0, 0, 1, 0, 0, 0, 1, 0, 1, 0, 0, 0, 0, 0, 0, 0, 0, 0, 0, 0, 0, 0, 0, 0, 0, 0, 0, 0, 0, 0, 0, 0, 1, 0, 0, 0, 1, 0, 1, 0, 0, 0, 0, 0, 0, 0, 0, 0, 1, 0, 0, 0, 0, 0, 0, 0, 0, 0, 0, 0, 1, 0, 1, 0, 0, 0, 0, 0, 0, 0, 0, 0, 1, 0, 0, 0, 0, 0, 0, 0, 1, 0, 0, 0, 0, 0, 1, 0, 0, 0, 0, 0, 1, 0, 0, 0, 0, 0, 1, 0, 0, 0, 0, 0, 0, 0, 0, 0, 0, 0, 0, 0, 0, 0, 0, 0, 1, 0, 0, 0, 0, 0, 1, 0, 0, 0, 1, 0, 1, 0, 0, 0, 0, 0, 0, 0, 0, 0, 0, 0, 1, 0, 0, 0, 0, 0, 0, 0, 0, 0, 1, 0, 0, 0, 0, 0, 0, 0, 0, 0, 0, 0, 1, 0, 0, 0, 0, 0, 0, 0, 1, 0, 0, 0, 0, 0, 0, 0, 0, 0, 0, 0, 0, 0, 0, 0, 1, 0, 0, 0, 0, 0, 0, 0, 0, 0, 0, 0, 0, 0, 1, 0, 0, 0, 0, 0, 1, 0, 0, 0, 1, 0, 1, 0, 0, 0, 1, 0, 1, 0, 0, 0, 0, 0, 0, 0, 0, 0, 1, 0, 0, 0, 0, 0, 0, 0, 0, 0, 0, 0, 1, 0, 0, 0, 0, 0, 1, 0, 0, 0, 0, 0, 1, 0, 0, 0, 0, 0, 0, 0, 0, 0, 0, 0, 0, 0, 0, 0, 0, 0, 1, 0, 1, 0, 0, 0, 0, 0, 0, 0, 0, 0, 0, 0, 0, 0, 0, 0, 1, 0, 1, 0, 0, 0, 0, 0, 0, 0, 0, 0, 0, 0, 0, 0, 0, 0, 0, 0, 0, 0, 0, 0, 1, 0, 0, 0, 0, 0, 1, 0, 0, 0, 0, 0, 0, 0, 1, 0, 0, 0, 0, 0, 1, 0, 0, 0, 1, 0, 1, 0, 0, 0, 1, 0, 0, 0, 0, 0, 0, 0, 1, 0, 0, 0, 0, 0, 1, 0, 0, 0, 0, 0, 0, 0, 0, 0, 1, 0, 1, 0, 0, 0, 0, 0, 0, 0, 0, 0, 1, 0, 0, 0, 0, 0, 0, 0, 0, 0, 0, 0, 0, 0, 1, 0, 0, 0, 0, 0, 0, 0, 0, 0, 1, 0, 0, 0, 0, 0, 1, 0, 0, 0, 0, 0, 0, 0, 0, 0, 0, 0, 1, 0, 1, 0, 0, 0, 1, 0, 1, 0, 0, 0, 0, 0, 0, 0, 0, 0, 1, 0, 0, 0, 0, 0, 0, 0, 0, 0, 0, 0, 1, 0, 1, 0, 0, 0, 0, 0, 0, 0, 0, 0, 0, 0, 0, 0, 0, 0, 1, 0, 1, 0, 0, 0, 0, 0, 1, 0, 0, 0, 1, 0, 1, 0, 0, 0, 0, 0, 0, 0, 0, 0, 1, 0, 0, 0, 0, 0, 0, 0, 1, 0, 0, 0, 0, 0, 0, 0, 0, 0, 0, 0, 0, 0, 0, 0, 0, 0, 1, 0, 0, 0, 0, 0, 0, 0, 0, 0, 0, 0, 0, 0, 0, 0, 0, 0, 0, 0, 0, 0, 0, 0, 1, 0, 0, 0, 1, 0, 0, 0, 0, 0, 1, 0, 0, 0, 0, 0, 0, 0, 1, 0, 0, 0, 0, 0, 0, 0, 0, 0, 0, 0, 0, 0, 0, 0, 1, 0, 1, 0, 0, 0, 1, 0, 0, 0, 0, 0, 0, 0, 1, 0, 0, 0, 0, 0, 0, 0, 0, 0, 0, 0, 0, 0, 0, 0, 1, 0, 1, 0, 0, 0, 1, 0, 0, 0, 0, 0, 0, 0, 1, 0, 0, 0, 0, 0, 1, 0, 0, 0, 0, 0, 1, 0, 0, 0, 1, 0, 0, 0, 0, 0, 0, 0, 0, 0, 0, 0, 1, 0, 1, 0, 0, 0, 0, 0, 0, 0, 0, 0, 0, 0, 0, 0, 0, 0, 0, 0, 0, 0, 0, 0, 1, 0, 0, 0, 0, 0, 1, 0, 1, 0, 0, 0, 0, 0, 1, 0, 0, 0, 1, 0, 0, 0, 0, 0, 1, 0, 0, 0, 0, 0, 0, 0, 0, 0, 0, 0, 0, 0, 1, 0, 0, 0, 0, 0, 1, 0, 0, 0, 1, 0, 1, 0, 0, 0, 0, 0, 1, 0, 0, 0, 1, 0, 0, 0, 0, 0, 1, 0, 0, 0, 0, 0, 0, 0, 0, 0, 0, 0, 1, 0, 0, 0, 0, 0, 1, 0, 0, 0, 0, 0, 1, 0, 0, 0, 0, 0, 0, 0, 0, 0, 0, 0, 0, 0, 1, 0, 0, 0, 1, 0, 0, 0, 0, 0, 1, 0, 0, 0, 0, 0, 0, 0, 0, 0, 0, 0, 1, 0, 0, 0, 0, 0, 0, 0, 1, 0, 0, 0, 0, 0, 1, 0, 0, 0, 1, 0, 0, 0, 0, 0, 0, 0, 0, 0, 0, 0, 0, 0, 0, 0, 0, 0, 0, 0, 0, 0, 0, 0, 0, 0, 1, 0, 0, 0, 0, 0, 0, 0, 0, 0, 0, 0, 0, 0, 0, 0, 0, 0, 1, 0, 0, 0, 0, 0, 0, 0, 0, 0, 1, 0, 0, 0, 0, 0, 0, 0, 1, 0, 0, 0, 1, 0, 0, 0, 0, 0, 1, 0, 1, 0, 0, 0, 0, 0, 1, 0, 0, 0, 0, 0, 0, 0, 0, 0, 0, 0, 0, 0, 0, 0, 0, 0, 0, 0, 0, 0, 1, 0, 0, 0, 0, 0, 0, 0, 0, 0, 0, 0, 1, 0, 1, 0, 0, 0, 0, 0, 0, 0, 0, 0, 0, 0, 0, 0, 0, 0, 1, 0, 0, 0, 0, 0, 0, 0, 1, 0, 0, 0, 1, 0, 0, 0, 0, 0, 0, 0, 0, 0, 0, 0, 1, 0, 0, 0, 0, 0, 0, 0, 0, 0, 0, 0, 0, 0, 1, 0, 0, 0, 0, 0, 0, 0, 0, 0, 1, 0, 1, 0, 0, 0, 1, 0, 0, 0, 0, 0, 0, 0, 1, 0, 0, 0, 0, 0, 1, 0, 0, 0, 0, 0, 1, 0, 0, 0, 1, 0, 1, 0, 0, 0, 1, 0, 0, 0, 0, 0, 1, 0, 0, 0, 0, 0, 0, 0, 1, 0, 0, 0, 1, 0, 1, 0, 0, 0, 0, 0, 1, 0, 0, 0, 0, 0, 0, 0, 0, 0, 1, 0, 1, 0, 0, 0, 0, 0, 0, 0, 0, 0, 1, 0, 0, 0, 0, 0, 0, 0, 1, 0, 0, 0, 1, 0, 0, 0, 0, 0, 0, 0, 0, 0, 0, 0, 0, 0, 1, 0, 0, 0, 0, 0, 0, 0, 0, 0, 1, 0, 0, 0, 0, 0, 0, 0, 0, 0, 0, 0, 1, 0, 1, 0, 0, 0, 0, 0, 1, 0, 0, 0, 1, 0, 1, 0, 0, 0, 0, 0, 0, 0, 0, 0, 0, 0, 0, 0, 0, 0, 1, 0, 0, 0, 0, 0, 0, 0, 0, 0, 0, 0, 0, 0, 1, 0, 0, 0, 1, 0, 0, 0, 0, 0, 1, 0, 0, 0, 0, 0, 0, 0, 1, 0, 0, 0, 0, 0, 1, 0, 0, 0, 1, 0, 0, 0, 0, 0, 0, 0, 0, 0, 0, 0, 0, 0, 0, 0, 0, 0, 1, 0, 0, 0, 0, 0, 0, 0, 1, 0, 0, 0, 0, 0, 0, 0, 0, 0, 1, 0, 0, 0, 0, 0, 1, 0, 0, 0, 0, 0, 1, 0, 0, 0, 0, 0, 0, 0, 1, 0, 0, 0, 0, 0, 0, 0, 0, 0, 1, 0, 0, 0, 0, 0, 0, 0, 0, 0, 0, 0, 1, 0, 0, 0, 0, 0, 0, 0, 0, 0, 0, 0, 0, 0, 1, 0, 0, 0, 1, 0, 0, 0, 0, 0, 1, 0, 0, 0, 0, 0, 1, 0, 1, 0, 0, 0, 0, 0, 0, 0, 0, 0, 0, 0, 0, 0, 0, 0, 0, 0, 0, 0, 0, 0, 0, 0, 0, 0, 0, 0, 1, 0, 1, 0, 0, 0, 0, 0, 0, 0, 0, 0, 1, 0, 0, 0, 0, 0, 0, 0, 1, 0, 0, 0, 1, 0, 0, 0, 0, 0, 0, 0, 0, 0, 0, 0, 0, 0, 1, 0, 0, 0, 1, 0, 0, 0, 0, 0, 0, 0, 1, 0, 0, 0, 0, 0, 0, 0, 0, 0, 0, 0, 1, 0, 0, 0, 0, 0, 1, 0, 0, 0, 0, 0, 0, 0, 0, 0, 0, 0, 1, 0, 0, 0, 1, 0, 0, 0, 0, 0, 1, 0, 0, 0, 0, 0, 0, 0, 0, 0, 0, 0, 0, 0, 0, 0, 0, 0, 0, 0, 1, 0, 0, 0, 0, 0, 0, 0, 0, 0, 1, 0, 1, 0, 0, 0, 0, 0, 0, 0, 0, 0, 0, 0, 0, 0, 0, 0, 1, 0, 0, 0, 0, 0, 0, 0, 0, 0, 0, 0, 0, 0, 0, 0, 0, 0, 0, 0, 0, 0, 0, 0, 0, 0, 1, 0, 0, 0, 1, 0, 1, 0, 0, 0, 0, 0, 0, 0, 0, 0, 0, 0, 1, 0, 0, 0, 0, 0, 1, 0, 0, 0, 1, 0, 0, 0, 0, 0, 0, 0, 0, 0, 0, 0, 1, 0, 0, 0, 0, 0, 1, 0, 0, 0, 0, 0, 0, 0, 1, 0, 0, 0, 1, 0, 0, 0, 0, 0, 0, 0, 1, 0, 0, 0, 0, 0, 0, 0, 0, 0, 0, 0, 0, 0, 0, 0, 0, 0, 0, 0, 0, 0, 1, 0, 1, 0, 0, 0, 1, 0, 1, 0, 0, 0, 0, 0, 0, 0, 0, 0, 0, 0, 1, 0, 0, 0, 0, 0, 0, 0, 0, 0, 0, 0, 0, 0, 0, 0, 0, 0, 0, 0, 0, 0, 0, 0, 0, 0, 0, 0, 1, 0, 1, 0, 0, 0, 0, 0, 1, 0, 0, 0, 0, 0, 1, 0, 0, 0, 0, 0, 1, 0, 0, 0, 1, 0, 0, 0, 0, 0, 1, 0, 1, 0, 0, 0, 0, 0, 0, 0, 0, 0, 0, 0, 1, 0, 0, 0, 1, 0, 0, 0, 0, 0, 0, 0, 0, 0, 0, 0, 1, 0, 1, 0, 0, 0, 0, 0, 0, 0, 0, 0, 1, 0, 1, 0, 0, 0, 0, 0, 0, 0, 0, 0, 0, 0, 0, 0, 0, 0, 1, 0, 1, 0, 0, 0, 0, 0, 0, 0, 0, 0, 0, 0, 0, 0, 0, 0, 1, 0, 0, 0, 0, 0, 1, 0, 0, 0, 0, 0, 0, 0, 0, 0, 0, 0, 0, 0, 0, 0, 0, 0, 0, 0, 1, 0, 0, 0, 0, 0, 0, 0, 0, 0, 0, 0, 0, 0, 0, 0, 1, 0, 0, 0, 0, 0, 0, 0, 1, 0, 0, 0, 1, 0, 1, 0, 0, 0, 1, 0, 1, 0, 0, 0, 0, 0, 0, 0, 0, 0, 0, 0, 0, 0, 0, 0, 0, 0, 0, 0, 0, 0, 1, 0, 0, 0, 0, 0, 0, 0, 1, 0, 0, 0, 0, 0, 0, 0, 0, 0, 0, 0, 1, 0, 0, 0, 0, 0, 1, 0, 0, 0, 0, 0, 0, 0, 0, 0, 1, 0, 1, 0, 0, 0, 1, 0, 0, 0, 0, 0, 1, 0, 1, 0, 0, 0, 0, 0, 1, 0, 0, 0, 0, 0, 0, 0, 0, 0, 1, 0, 1, 0, 0, 0, 0, 0, 0, 0, 0, 0, 0, 0, 1, 0, 0, 0, 0, 0, 0, 0, 0, 0, 1, 0, 1, 0, 0, 0, 0, 0, 0, 0, 0, 0, 1, 0, 0, 0, 0, 0, 0, 0, 0, 0, 0, 0, 0, 0, 1, 0, 0, 0, 0, 0, 1, 0, 0, 0, 1, 0, 0, 0, 0, 0, 1, 0, 0, 0, 0, 0, 0, 0, 1, 0, 0, 0, 0, 0, 1, 0, 0, 0, 0, 0, 1, 0, 0, 0, 0, 0, 0, 0, 0, 0, 0, 0, 0, 0, 0, 0, 1, 0, 0, 0, 0, 0, 0, 0, 0, 0, 0, 0, 1, 0, 1, 0, 0, 0, 1, 0, 0, 0, 0, 0, 0, 0, 0, 0, 0, 0, 0, 0, 1, 0, 0, 0, 0, 0, 1, 0, 0, 0, 1, 0, 0, 0, 0, 0, 0, 0, 1, 0, 0, 0, 0, 0, 0, 0, 0, 0, 1, 0, 0, 0, 0, 0, 0, 0, 1, 0, 0, 0, 0, 0, 1, 0, 0, 0, 0, 0, 1, 0, 0, 0, 0, 0, 0, 0, 0, 0, 0, 0, 0, 0, 0, 0, 0, 0, 0, 0, 0, 0, 1, 0, 0, 0, 0, 0, 1, 0, 1, 0, 0, 0, 0, 0, 0, 0, 0, 0, 1, 0, 0, 0, 0, 0, 0, 0, 0, 0, 0, 0, 0, 0, 1, 0, 0, 0, 1, 0, 0, 0, 0, 0, 1, 0, 0, 0, 0, 0, 0, 0, 0, 0, 0, 0, 0, 0, 0, 0, 0, 0, 1, 0, 1, 0, 0, 0, 0, 0, 0, 0, 0, 0, 1, 0, 0, 0, 0, 0, 0, 0, 0, 0, 0, 0, 0, 0, 1, 0, 0, 0, 1, 0, 1, 0, 0, 0, 0, 0, 0, 0, 0, 0, 1, 0, 0, 0, 0, 0, 0, 0, 0, 0, 0, 0, 0, 0, 1, 0, 0, 0, 1, 0, 0, 0, 0, 0, 0, 0, 1, 0, 0, 0, 0, 0, 0, 0, 0, 0, 0, 0, 0, 0, 0, 0, 0, 0, 1, 0, 0, 0, 1, 0, 0, 0, 0, 0, 1, 0, 1, 0, 0, 0, 1, 0, 0, 0, 0, 0, 1, 0, 1, 0, 0, 0, 0, 0, 0, 0, 0, 0, 0, 0, 1, 0, 0, 0, 1, 0, 0, 0, 0, 0, 0, 0, 0, 0, 0, 0, 0, 0, 0, 0, 0, 0, 0, 0, 1, 0, 0, 0, 0, 0, 0, 0, 0, 0, 0, 0, 0, 0, 0, 0, 0, 0, 0, 0, 0, 0, 1, 0, 0, 0, 0, 0, 0, 0, 0, 0, 0, 0, 
Factors:
1, *, 1, 0, 1, *, 1, 0, *, 0, *, 0, 1, 0, 1, *, *, 0, *, *, 1, 0, 1, 0, 1, 0, 1, *, *, *, *, 0, 1, 0, 1, *, *, *, *, *, 1, 0, *, 0, *, *, 1, 0, 1, 0, 1, *, *, *, 1, *, *, *, *, 0, 1, 0, 1, 0, 1, 0, 1, 0, 1, *, 1, 0, 1, *, *, *, *, *, 1, *, *, *, 1, 0, *, *, *, *, *, *, *, *, *, 0, *, 0, *, 0, *, *, *, 0, *, 0, *, *, *, 0, 1, 0, 1, 0, *, 0, *, *, 1, *, 1, *, 1, *, *, 0, 1, 0, *, *, *, *, 1, *, 1, *, *, 0, *, 0, 1, 0, *, *, *, *, 1, 0, *, *, *, 0, 1, *, *, *, *, 0, *, *, *, *, 1, 0, 1, *, 1, 0, 1, *, 1, *, *, 0, *, 0, *, 0, *, *, *, *, *, *, 1, 0, *, *, 1, *, 1, 0, *, *, 1, 0, *, *, 1, 0, *, 0, 1, 0, 1, *, 1, *, 1, 0, *, *, 1, 0, *, *, 1, *, 1, *, *, 0, 1, 0, 1, *, 1, 0, 1, 0, *, 0, *, *, *, *, *, *, 1, 0, *, 0, 1, 0, *, 0, 1, *, 1, 0, *, 0, *, 0, 1, 0, *, 0, 1, *, 1, 0, 1, 0, 1, 0, *, *, 1, *, 1, *, *, *, *, 0, *, *, *, *, 1, 0, 1, *, 1, 0, *, *, 1, 0, 1, 0, 1, *, 1, *, *, *, 1, *, *, *, 1, *, *, *, *, *, *, 0, 1, 0, *, *, 1, 0, *, *, *, *, *, *, 1, *, 1, 0, *, *, 1, 0, *, *, *, 0, *, 0, *, *, *, *, *, *, 1, 0, 1, 0, *, *, 1, *, *, *, *, 0, 1, 0, 1, *, *, 0, *, *, 1, *, 1, 0, 1, 0, *, *, *, 0, *, *, *, *, 1, 0, *, *, 1, *, *, *, *, *, 1, 0, 1, *, *, *, 1, *, *, *, *, *, 1, 0, 1, *, 1, *, 1, *, 1, 0, 1, *, 1, *, 1, 0, 1, 0, 1, *, 1, *, *, *, *, 0, 1, *, 1, *, *, 0, *, 0, 1, *, *, 0, 1, 0, *, 0, 1, 0, *, 0, *, *, *, *, *, *, *, 0, 1, *, *, 0, 1, *, 1, *, *, 0, 1, *, *, 0, 1, *, *, 0, *, 0, 1, 0, *, *, 1, *, *, *, 1, 0, 1, *, *, *, *, 0, *, *, 1, *, *, *, *, *, *, 0, 1, 0, 1, *, *, 0, 1, 0, *, *, *, *, *, *, 1, 0, 1, 0, 1, *, 1, *, 1, *, 1, *, 1, 0, 1, 0, *, *, *, 0, *, 0, 1, 0, *, *, *, *, *, *, *, *, 1, *, *, 0, 1, *, *, *, *, 0, 1, *, 1, *, 1, *, 1, 0, 1, 0, *, *, 1, *, 1, *, *, 0, *, *, *, *, *, 0, *, 0, *, 0, *, 0, *, *, *, 0, 1, 0, *, *, 1, *, 1, *, *, *, 1, *, *, 0, *, 0, 1, *, *, 0, 1, 0, 1, *, *, *, 1, *, *, *, *, 0, 1, 0, *, 0, *, *, *, 0, *, 0, *, *, *, 0, *, 0, 1, 0, 1, 0, 1, 0, *, *, 1, 0, *, *, 1, 0, 1, 0, 1, 0, 1, *, *, 0, 1, 0, 1, 0, *, 0, 1, 0, 1, 0, *, *, 1, 0, *, *, *, 0, 1, *, *, *, *, *, *, *, 1, 0, *, 0, *, *, 1, *, *, *, *, *, 1, 0, 1, 0, *, 0, 1, *, *, 0, *, *, 1, 0, *, *, *, 0, 1, 0, 1, 0, *, 0, 1, 0, 1, 0, 1, 0, *, 0, *, 0, 1, 0, 1, 0, *, 0, *, *, 1, *, 1, 0, 1, 0, *, *, *, *, *, 0, *, *, *, 0, *, 0, 1, 0, *, 0, 1, *, *, *, *, 0, 1, *, 1, 0, *, *, 1, 0, *, 0, 1, 0, 1, 0, 1, *, *, *, *, *, 1, 0, 1, *, *, 0, *, 0, 1, 0, 1, *, 1, *, *, 0, 1, 0, *, *, *, 0, *, *, *, 0, 1, 0, *, 0, 1, *, 1, 0, *, *, *, 0, 1, *, *, 0, *, 0, 1, 0, *, 0, 1, 0, *, 0, 1, *, 1, *, 1, 0, 1, 0, *, *, 1, *, *, 0, 1, 0, 1, 0, 1, 0, *, *, *, *, 1, 0, 1, 0, *, *, *, *, *, 0, 1, *, 1, *, *, 0, 1, 0, 1, 0, *, *, *, 0, *, *, *, *, 1, 0, 1, 0, 1, 0, 1, 0, 1, 0, *, 0, 1, 0, *, *, *, *, *, 0, *, *, *, 0, 1, *, *, *, *, *, *, *, *, *, 1, *, 1, *, 1, *, *, *, 1, *, 1, *, *, *, 1, 0, 1, 0, 1, *, 1, *, *, 0, *, 0, *, 0, *, *, 1, 0, 1, *, *, *, *, 0, *, 0, *, *, 1, *, 1, 0, 1, *, *, *, *, 0, 1, *, *, *, 1, 0, *, *, *, *, 1, *, *, *, *, 0, 1, 0, *, 0, 1, 0, *, 0, *, *, 1, *, 1, *, 1, *, *, *, *, *, *, 0, 1, *, *, 0, *, 0, 1, *, *, 0, 1, *, *, 0, 1, *, 1, 0, 1, 0, *, 0, *, 0, 1, *, *, 0, 1, *, *, 0, *, 0, *, *, 1, 0, 1, 0, *, 0, 1, 0, 1, *, 1, *, *, *, *, *, *, 0, 1, *, 1, 0, 1, *, 1, 0, *, 0, 1, *, 1, *, 1, 0, 1, *, 1, 0, *, 0, 1, 0, 1, 0, 1, *, *, 0, *, 0, *, *, *, *, 1, *, *, *, *, 0, 1, 0, *, 0, 1, *, *, 0, 1, 0, 1, 0, *, 0, *, *, *, 0, *, *, *, 0, *, *, *, *, *, *, 1, 0, 1, *, *, 0, 1, *, *, *, *, *, *, 0, *, 0, 1, *, *, 0, 1, *, *, *, 1, *, 1, *, *, *, *, *, *, 0, 1, 0, 1, *, *, 0, *, *, *, *, 1, 0, 1, 0, *, *, 1, *, *, 0, *, 0, 1, 0, 1, *, *, *, 1, *, *, *, *, 0, 1, *, *, 0, *, *, *, *, *, 0, 1, 0, *, *, *, 0, *, *, *, *, *, 0, 1, 0, *, 0, *, 0, *, 0, 1, 0, *, 0, *, 0, 1, 0, 1, 0, *, 0, *, *, *, *, 1, 0, *, 0, *, *, 1, *, 1, 0, *, *, 1, 0, 1, *, 1, 0, 1, *, 1, *, *, *, *, *, *, *, 1, 0, *, *, 1, 0, *, 0, *, *, 1, 0, *, *, 1, 0, *, *, 1, *, 1, 0, 1, *, *, 0, *, *, *, 0, 1, 0, *, *, *, *, 1, *, *, 0, *, *, *, *, *, *, 1, 0, 1, 0, *, *, 1, 0, 1, *, *, *, *, *, *, 0, 1, 0, 1, 0, *, 0, *, 0, *, 0, *, 0, 1, 0, 1, *, *, *, 1, *, 1, 0, 1, *, *, *, *, *, *, *, *, 0, *, *, 1, 0, *, *, *, *, 1, 0, *, 0, *, 0, *, 0, 1, 0, 1, *, *, 0, *, 0, *, *, 1, *, *, *, *, *, 1, *, 1, *, 1, *, 1, *, *, *, 1, 0, 1, *, *, 0, *, 0, *, *, *, 0, *, *, 1, *, 1, 0, *, *, 1, 0, 1, 0, *, *, *, 0, *, *, *, *, 1, 0, 1, *, 1, *, *, *, 1, *, 1, *, *, *, 1, *, 1, 0, 1, 0, 1, 0, 1, *, *, 0, 1, *, *, 0, 1, 0, 1, 0, 1, 0, *, *, 1, 0, 1, 0, 1, *, 1, 0, 1, 0, 1, *, *, 0, 1, *, *, *, 1, 0, *, *, *, *, *, *, *, 0, 1, *, 1, *, *, 0, *, *, *, *, *, 0, 1, 0, 1, *, 1, 0, *, *, 1, *, *, 0, 1, *, *, *, 1, 0, 1, 0, 1, *, 1, 0, 1, 0, 1, 0, 1, *, 1, *, 1, 0, 1, 0, 1, *, 1, *, *, 0, *, 0, 1, 0, 1, *, *, *, *, *, 1, *, *, *, 1, *, 1, 0, 1, *, 1, 0, *, *, *, *, 1, 0, *, 0, 1, *, *, 0, 1, *, 1, 0, 1, 0, 1, 0, *, *, *, *, *, 0, 1, 0, *, *, 1, *, 1, 0, 1, 0, *, 0, *, *, 1, 0, 1, *, *, *, 1, *, *, *, 1, 0, 1, *, 1, 0, *, 0, 1, *, *, *, 1, 0, *, *, 1, *, 1, 0, 1, *, 1, 0, 1, *, 1, 0, *, 0, *, 0, 1, 0, 1, *, *, 0, *, *, 1, 0, 1, 0, 1, 0, 1, *, *, *, *, 0, 1, 0, 1, *, *, *, *, *, 1, 0, *, 0, *, *, 1, 0, 1, 0, 1, *, *, *, 1, *, *, *, *, 0, 1, 0, 1, 0, 1, 0, 1, 0, 1, *, 1, 0, 1, *, *, *, *, *, 1, *, *, *, 1, 0, *, *, *, *, *, *, *, *, *, 0, *, 0, *, 0, *, *, *, 0, *, 0, *, *, *, 0, 1, 0, 1, 0, *, 0, *, *, 1, *, 1, *, 1, *, *, 0, 1, 0, *, *, *, *, 1, *, 1, *, *, 0, *, 0, 1, 0, *, *, *, *, 1, 0, *, *, *, 0, 1, *, *, *, *, 0, *, *, *, *, 1, 0, 1, *, 1, 0, 1, *, 1, *, *, 0, *, 0, *, 0, *, *, *, *, *, *, 1, 0, *, *, 1, *, 1, 0, *, *, 1, 0, *, *, 1, 0, *, 0, 1, 0, 1, *, 1, *, 1, 0, *, *, 1, 0, *, *, 1, *, 1, *, *, 0, 1, 0, 1, *, 1, 0, 1, 0, *, 0, *, *, *, *, *, *, 1, 0, *, 0, 1, 0, *, 0, 1, *, 1, 0, *, 0, *, 0, 1, 0, *, 0, 1, *, 1, 0, 1, 0, 1, 0, *, *, 1, *, 1, *, *, *, *, 0, *, *, *, *, 1, 0, 1, *, 1, 0, *, *, 1, 0, 1, 0, 1, *, 1, *, *, *, 1, *, *, *, 1, *, *, *, *, *, *, 0, 1, 0, *, *, 1, 0, *, *, *, *, *, *, 1, *, 1, 0, *, *, 1, 0, *, *, *, 0, *, 0, *, *, *, *, *, *, 1, 0, 1, 0, *, *, 1, *, *, *, *, 0, 1, 0, 1, *, *, 0, *, *, 1, *, 1, 0, 1, 0, *, *, *, 0, *, *, *, *, 1, 0, *, *, 1, *, *, *, *, *, 1, 0, 1, *, *, *, 1, *, *, *, *, *, 1, 0, 1, *, 1, *, 1, *, 1, 0, 1, *, 1, *, 1, 0, 1, 0, 1, *, 1, *, *, *, *, 0, 1, *, 1, *, *, 0, *, 0, 1, *, *, 0, 1, 0, *, 0, 1, 0, *, 0, *, *, *, *, *, *, *, 0, 1, *, *, 0, 1, *, 1, *, *, 0, 1, *, *, 0, 1, *, *, 0, *, 0, 1, 0, *, *, 1, *, *, *, 1, 0, 1, *, *, *, *, 0, *, *, 1, *, *, *, *, *, *, 0, 1, 0, 1, *, *, 0, 1, 0, *, *, *, *, *, *, 1, 0, 1, 0, 1, *, 1, *, 1, *, 1, *, 1, 0, 1, 0, *, *, *, 0, *, 0, 1, 0, *, *, *, *, *, *, *, *, 1, *, *, 0, 1, *, *, *, *, 0, 1, *, 1, *, 1, *, 1, 0, 1, 0, *, *, 1, *, 1, *, *, 0, *, *, *, *, *, 0, *, 0, *, 0, *, 0, *, *, *, 0, 1, 0, *, *, 1, *, 1, *, *, *, 1, *, *, 0, *, 0, 1, *, *, 0, 1, 0, 1, *, *, *, 1, *, *, *, *, 0, 1, 0, *, 0, *, *, *, 0, *, 0, *, *, *, 0, *, 0, 1, 0, 1, 0, 1, 0, *, *, 1, 0, *, *, 1, 0, 1, 0, 1, 0, 1, *, *, 0, 1, 0, 1, 0, *, 0, 1, 0, 1, 0, *, *, 1, 0, *, *, *, 0, 1, *, *, *, *, *, *, *, 1, 0, *, 0, *, *, 1, *, *, *, *, *, 1, 0, 1, 0, *, 0, 1, *, *, 0, *, *, 1, 0, *, *, *, 0, 1, 0, 1, 0, *, 0, 1, 0, 1, 0, 1, 0, *, 0, *, 0, 1, 0, 1, 0, *, 0, *, *, 1, *, 1, 0, 1, 0, *, *, *, *, *, 0, *, *, *, 0, *, 0, 1, 0, *, 0, 1, *, *, *, *, 0, 1, *, 1, 0, *, *, 1, 0, *, 0, 1, 0, 1, 0, 1, *, *, *, *, *, 1, 0, 1, *, *, 0, *, 0, 1, 0, 1, *, 1, *, *, 0, 1, 0, *, *, *, 0, *, *, *, 0, 1, 0, *, 0, 1, *, 1, 0, *, *, *, 0, 1, *, *, 0, *, 0, 1, 0, *, 0, 1, 0, *, 0, 1, *, 1, *, 1, 0, 1, 0, *, *, 1, *, *, 0, 1, 0, 1, 0, 1, 0, *, *, *, *, 1, 0, 1, 0, *, *, *, *, *, 0, 1, *, 1, *, *, 0, 1, 0, 1, 0, *, *, *, 0, *, *, *, *, 1, 0, 1, 0, 1, 0, 1, 0, 1, 0, *, 0, 1, 0, *, *, *, *, *, 0, *, *, *, 0, 1, *, *, *, *, *, *, *, *, *, 1, *, 1, *, 1, *, *, *, 1, *, 1, *, *, *, 1, 0, 1, 0, 1, *, 1, *, *, 0, *, 0, *, 0, *, *, 1, 0, 1, *, *, *, *, 0, *, 0, *, *, 1, *, 1, 0, 1, *, *, *, *, 0, 1, *, *, *, 1, 0, *, *, *, *, 1, *, *, *, *, 0, 1, 0, *, 0, 1, 0, *, 0, *, *, 1, *, 1, *, 1, *, *, *, *, *, *, 0, 1, *, *, 0, *, 0, 1, *, *, 0, 1, *, *, 0, 1, *, 1, 0, 1, 0, *, 0, *, 0, 1, *, *, 0, 1, *, *, 0, *, 0, *, *, 1, 0, 1, 0, *, 0, 1, 0, 1, *, 1, *, *, *, *, *, *, 0, 1, *, 1, 0, 1, *, 1, 0, *, 0, 1, *, 1, *, 1, 0, 1, *, 1, 0, *, 0, 1, 0, 1, 0, 1, *, *, 0, *, 0, *, *, *, *, 1, *, *, *, *, 0, 1, 0, *, 0, 1, *, *, 0, 1, 0, 1, 0, *, 0, *, *, *, 0, *, *, *, 0, *, *, *, *, *, *, 1, 0, 1, *, *, 0, 1, *, *, *, *, *, *, 0, *, 0, 1, *, *, 0, 1, *, *, *, 1, *, 1, *, *, *, *, *, *, 0, 1, 0, 1, *, *, 0, *, *, *, *, 1, 0, 1, 0, *, *, 1, *, *, 0, *, 0, 1, 0, 1, *, *, *, 1, *, *, *, *, 0, 1, *, *, 0, *, *, *, *, *, 0, 1, 0, *, *, *, 0, *, *, *, *, *, 0, 1, 0, *, 0, *, 0, *, 0, 1, 0, *, 0, *, 0, 1, 0, 1, 0, *, 0, *, *, *, *, 1, 0, *, 0, *, *, 1, *, 1, 0, *, *, 1, 0, 1, *, 1, 0, 1, *, 1, *, *, *, *, *, *, *, 1, 0, *, *, 1, 0, *, 0, *, *, 1, 0, *, *, 1, 0, *, *, 1, *, 1, 0, 1, *, *, 0, *, *, *, 0, 1, 0, *, *, *, *, 1, *, *, 0, *, *, *, *, *, *, 1, 0, 1, 0, *, *, 1, 0, 1, *, *, *, *, *, *, 0, 1, 0, 1, 0, *, 0, *, 0, *, 0, *, 0, 1, 0, 1, *, *, *, 1, *, 1, 0, 1, *, *, *, *, *, *, *, *, 0, *, *, 1, 0, *, *, *, *, 1, 0, *, 0, *, 0, *, 0, 1, 0, 1, *, *, 0, *, 0, *, *, 1, *, *, *, *, *, 1, *, 1, *, 1, *, 1, *, *, *, 1, 0, 1, *, *, 0, *, 0, *, *, *, 0, *, *, 1, *, 1, 0, *, *, 1, 0, 1, 0, *, *, *, 0, *, *, *, *, 1, 0, 1, *, 1, *, *, *, 1, *, 1, *, *, *, 1, *, 1, 0, 1, 0, 1, 0, 1, *, *, 0, 1, *, *, 0, 1, 0, 1, 0, 1, 0, *, *, 1, 0, 1, 0, 1, *, 1, 0, 1, 0, 1, *, *, 0, 1, *, *, *, 1, 0, *, *, *, *, *, *, *, 0, 1, *, 1, *, *, 0, *, *, *, *, *, 0, 1, 0, 1, *, 1, 0, *, *, 1, *, *, 0, 1, *, *, *, 1, 0, 1, 0, 1, *, 1, 0, 1, 0, 1, 0, 1, *, 1, *, 1, 0, 1, 0, 1, *, 1, *, *, 0, *, 0, 1, 0, 1, *, *, *, *, *, 1, *, *, *, 1, *, 1, 0, 1, *, 1, 0, *, *, *, *, 1, 0, *, 0, 1, *, *, 0, 1, *, 1, 0, 1, 0, 1, 0, *, *, *, *, *, 0, 1, 0, *, *, 1, *, 1, 0, 1, 0, *, 0, *, *, 1, 0, 1, *, *, *, 1, *, *, *, 1, 0, 1, *, 1, 0, *, 0, 1, *, *, *, 1, 0, *, *, 1, *, 1, 0, 1, *, 1, 0, 1, *, 1, 0, *, 0, *, 0, 1, 0, 1, *, *, 0, *, *, 1, 0, 1, 0, 1, 0, 1, *, *, *, *, 0, 1, 0, 1, *, *, *, *, *, 1, 0, *, 0, *, *, 1, 0, 1, 0, 1, *, *, *, 1, *, *, *, *, 0, 1, 0, 1, 0, 1, 0, 1, 0, 1, *, 1, 0, 1, *, *, *, *, *, 1, *, *, *, 1, 0, *, *, *, *, *, *, *, *, *, 0, *, 0, *, 0, *, *, *, 0, *, 0, *, *, *, 0, 1, 0, 1, 0, *, 0, *, *, 1, *, 1, *, 1, *, *, 0, 1, 0, *, *, *, *, 1, *, 1, *, *, 0, *, 0, 1, 0, *, *, *, *, 1, 0, *, *, *, 0, 1, *, *, *, *, 0, *, *, *, *, 1, 0, 1, *, 1, 0, 1, *, 1, *, *, 0, *, 0, *, 0, *, *, *, *, *, *, 1, 0, *, *, 1, *, 1, 0, *, *, 1, 0, *, *, 1, 0, *, 0, 1, 0, 1, *, 1, *, 1, 0, *, *, 1, 0, *, *, 1, *, 1, *, *, 0, 1, 0, 1, *, 1, 0, 1, 0, *, 0, *, *, *, *, *, *, 1, 0, *, 0, 1, 0, *, 0, 1, *, 1, 0, *, 0, *, 0, 1, 0, *, 0, 1, *, 1, 0, 1, 0, 1, 0, *, *, 1, *, 1, *, *, *, *, 0, *, *, *, *, 1, 0, 1, *, 1, 0, *, *, 1, 0, 1, 0, 1, *, 1, *, *, *, 1, *, *, *, 1, *, *, *, *, *, *, 0, 1, 0, *, *, 1, 0, *, *, *, *, *, *, 1, *, 1, 0, *, *, 1, 0, *, *, *, 0, *, 0, *, *, *, *, *, *, 1, 0, 1, 0, *, *, 1, *, *, *, *, 0, 1, 0, 1, *, *, 0, *, *, 1, *, 1, 0, 1, 0, *, *, *, 0, *, *, *, *, 1, 0, *, *, 1, *, *, *, *, *, 1, 0, 1, *, *, *, 1, *, *, *, *, *, 1, 0, 1, *, 1, *, 1, *, 1, 0, 1, *, 1, *, 1, 0, 1, 0, 1, *, 1, *, *, *, *, 0, 1, *, 1, *, *, 0, *, 0, 1, *, *, 0, 1, 0, *, 0, 1, 0, *, 0, *, *, *, *, *, *, *, 0, 1, *, *, 0, 1, *, 1, *, *, 0, 1, *, *, 0, 1, *, *, 0, *, 0, 1, 0, *, *, 1, *, *, *, 1, 0, 1, *, *, *, *, 0, *, *, 1, *, *, *, *, *, *, 0, 1, 0, 1, *, *, 0, 1, 0, *, *, *, *, *, *, 1, 0, 1, 0, 1, *, 1, *, 1, *, 1, *, 1, 0, 1, 0, *, *, *, 0, *, 0, 1, 0, *, *, *, *, *, *, *, *, 1, *, *, 0, 1, *, *, *, *, 0, 1, *, 1, *, 1, *, 1, 0, 1, 0, *, *, 1, *, 1, *, *, 0, *, *, *, *, *, 0, *, 0, *, 0, *, 0, *, *, *, 0, 1, 0, *, *, 1, *, 1, *, *, *, 1, *, *, 0, *, 0, 1, *, *, 0, 1, 0, 1, *, *, *, 1, *, *, *, *, 0, 1, 0, *, 0, *, *, *, 0, *, 0, *, *, *, 0, *, 0, 1, 0, 1, 0, 1, 0, *, *, 1, 0, *, *, 1, 0, 1, 0, 1, 0, 1, *, *, 0, 1, 0, 1, 0, *, 0, 1, 0, 1, 0, *, *, 1, 0, *, *, *, 0, 1, *, *, *, *, *, *, *, 1, 0, 
